%!PS-Adobe-3.0
%%DocumentNeededResources: font Helvetica
%%+ font Helvetica-Bold
%%+ font Helvetica-Oblique
%%+ font Helvetica-BoldOblique
%%+ font Symbol
%%DocumentMedia: a4 595 841 0 () ()
%%Title: R Graphics Output
%%Creator: R Software
%%Pages: (atend)
%%Orientation: Landscape
%%BoundingBox: 18 18 577 824
%%EndComments
%%BeginProlog
/bp  { gs sRGB 595.00 0 translate 90 rotate gs } def
% begin .ps.prolog
/gs  { gsave } bind def
/gr  { grestore } bind def
/ep  { showpage gr gr } bind def
/m   { moveto } bind def
/l  { rlineto } bind def
/np  { newpath } bind def
/cp  { closepath } bind def
/f   { fill } bind def
/o   { stroke } bind def
/c   { newpath 0 360 arc } bind def
/r   { 4 2 roll moveto 1 copy 3 -1 roll exch 0 exch rlineto 0 rlineto -1 mul 0 exch rlineto closepath } bind def
/p1  { stroke } bind def
/p2  { gsave bg fill grestore newpath } bind def
/p3  { gsave bg fill grestore stroke } bind def
/p6  { gsave bg eofill grestore newpath } bind def
/p7  { gsave bg eofill grestore stroke } bind def
/t   { 5 -2 roll moveto gsave rotate
       1 index stringwidth pop
       mul neg 0 rmoveto show grestore } bind def
/ta  { 4 -2 roll moveto gsave rotate show } bind def
/tb  { 2 -1 roll 0 rmoveto show } bind def
/cl  { grestore gsave newpath 3 index 3 index moveto 1 index
       4 -1 roll lineto  exch 1 index lineto lineto
       closepath clip newpath } bind def
/rgb { setrgbcolor } bind def
/s   { scalefont setfont } bind def
% end   .ps.prolog
/sRGB { [ /CIEBasedABC
          << /DecodeLMN
               [ { dup 0.03928 le
                        {12.92321 div}
                        {0.055 add 1.055 div 2.4 exp }
                     ifelse
                 } bind dup dup
               ]
             /MatrixLMN [0.412457 0.212673 0.019334
                         0.357576 0.715152 0.119192
                         0.180437 0.072175 0.950301]
             /WhitePoint [0.9505 1.0 1.0890]
           >>
         ] setcolorspace } bind def
/srgb { setcolor } bind def
%%IncludeResource: font Helvetica
/Helvetica findfont
dup length dict begin
  {1 index /FID ne {def} {pop pop} ifelse} forall
  /Encoding ISOLatin1Encoding def
  currentdict
  end
/Font1 exch definefont pop
%%IncludeResource: font Helvetica-Bold
/Helvetica-Bold findfont
dup length dict begin
  {1 index /FID ne {def} {pop pop} ifelse} forall
  /Encoding ISOLatin1Encoding def
  currentdict
  end
/Font2 exch definefont pop
%%IncludeResource: font Helvetica-Oblique
/Helvetica-Oblique findfont
dup length dict begin
  {1 index /FID ne {def} {pop pop} ifelse} forall
  /Encoding ISOLatin1Encoding def
  currentdict
  end
/Font3 exch definefont pop
%%IncludeResource: font Helvetica-BoldOblique
/Helvetica-BoldOblique findfont
dup length dict begin
  {1 index /FID ne {def} {pop pop} ifelse} forall
  /Encoding ISOLatin1Encoding def
  currentdict
  end
/Font4 exch definefont pop
%%IncludeResource: font Symbol
/Symbol findfont
dup length dict begin
  {1 index /FID ne {def} {pop pop} ifelse} forall
  currentdict
  end
/Font5 exch definefont pop
%%EndProlog
%%Page: 1 1
bp
91.44 105.84 779.25 503.84 cl
0 0 0 srgb
0.75 setlinewidth
[] 0 setdash
1 setlinecap
1 setlinejoin
10.00 setmiterlimit
np
116.91 120.58 m
6.44 11.94 l
6.43 11.75 l
6.43 11.55 l
6.44 11.35 l
6.43 11.16 l
6.43 10.96 l
6.44 10.76 l
6.43 10.56 l
6.43 10.37 l
6.43 10.18 l
6.44 9.97 l
6.43 9.78 l
6.43 9.58 l
6.44 9.39 l
6.43 9.19 l
6.43 8.99 l
6.43 8.79 l
6.44 8.60 l
6.43 8.40 l
6.43 8.21 l
6.44 8.01 l
6.43 7.81 l
6.43 7.61 l
6.43 7.42 l
6.44 7.22 l
6.43 7.03 l
6.43 6.83 l
6.44 6.63 l
6.43 6.43 l
6.43 6.24 l
6.44 6.04 l
6.43 5.85 l
6.43 5.64 l
6.43 5.45 l
6.44 5.26 l
6.43 5.06 l
6.43 4.86 l
6.44 4.66 l
6.43 4.47 l
6.43 4.27 l
6.43 4.07 l
6.44 3.88 l
6.43 3.68 l
6.43 3.49 l
6.44 3.28 l
6.43 3.09 l
6.43 2.90 l
6.44 2.69 l
6.43 2.50 l
6.43 2.31 l
6.43 2.11 l
6.44 1.91 l
6.43 1.71 l
6.43 1.52 l
6.44 1.32 l
6.43 1.12 l
6.43 0.93 l
6.43 0.73 l
6.44 0.53 l
6.43 0.34 l
6.43 0.14 l
6.44 -0.06 l
6.43 -0.26 l
6.43 -0.45 l
6.44 -0.64 l
6.43 -0.85 l
6.43 -1.04 l
6.43 -1.23 l
6.44 -1.44 l
6.43 -1.63 l
6.43 -1.83 l
6.44 -2.02 l
6.43 -2.22 l
6.43 -2.42 l
6.43 -2.61 l
6.44 -2.81 l
6.43 -3.01 l
6.43 -3.21 l
6.44 -3.40 l
6.43 -3.60 l
6.43 -3.79 l
6.44 -3.99 l
6.43 -4.19 l
6.43 -4.38 l
6.43 -4.58 l
6.44 -4.78 l
6.43 -4.98 l
6.43 -5.17 l
6.44 -5.37 l
6.43 -5.56 l
6.43 -5.76 l
6.43 -5.96 l
6.44 -6.16 l
6.43 -6.35 l
6.43 -6.55 l
6.44 -6.74 l
6.43 -6.95 l
6.43 -7.13 l
6.44 -7.34 l
o
18.00 18.00 823.89 577.28 cl
0 0 0 srgb
0.75 setlinewidth
[] 0 setdash
1 setlinecap
1 setlinejoin
10.00 setmiterlimit
np
116.91 105.84 m
562.28 0 l
o
np
116.91 105.84 m
0 -7.20 l
o
np
304.34 105.84 m
0 -7.20 l
o
np
491.77 105.84 m
0 -7.20 l
o
np
679.19 105.84 m
0 -7.20 l
o
/Font1 findfont 12 s
116.91 79.92 (0.0) .5 0 t
304.34 79.92 (0.5) .5 0 t
491.77 79.92 (1.0) .5 0 t
679.19 79.92 (1.5) .5 0 t
np
91.44 161.08 m
0 297.04 l
o
np
91.44 161.08 m
-7.20 0 l
o
np
91.44 235.34 m
-7.20 0 l
o
np
91.44 309.60 m
-7.20 0 l
o
np
91.44 383.86 m
-7.20 0 l
o
np
91.44 458.12 m
-7.20 0 l
o
74.16 161.08 (-5) .5 90 t
74.16 235.34 (-4) .5 90 t
74.16 309.60 (-3) .5 90 t
74.16 383.86 (-2) .5 90 t
74.16 458.12 (-1) .5 90 t
np
91.44 105.84 m
687.81 0 l
0 398.00 l
-687.81 0 l
0 -398.00 l
o
32.40 32.40 809.49 562.88 cl
/Font1 findfont 12 s
0 0 0 srgb
397.99 51.12 (log group siz) 0 ta
-0.180 (e) tb gr
45.36 304.84 (log density) .5 90 t
91.44 105.84 779.25 503.84 cl
0.7451 0.7451 0.7451 srgb
0.75 setlinewidth
[] 0 setdash
1 setlinecap
1 setlinejoin
10.00 setmiterlimit
np
116.91 444.64 m
6.44 2.89 l
6.43 2.76 l
6.43 2.65 l
6.44 2.53 l
6.43 2.40 l
6.43 2.29 l
6.44 2.16 l
6.43 2.04 l
6.43 1.93 l
6.43 1.80 l
6.44 1.69 l
6.43 1.56 l
6.43 1.44 l
6.44 1.32 l
6.43 1.21 l
6.43 1.08 l
6.43 0.96 l
6.44 0.84 l
6.43 0.73 l
6.43 0.60 l
6.44 0.48 l
6.43 0.36 l
6.43 0.24 l
6.43 0.12 l
6.44 0 l
6.43 -0.12 l
6.43 -0.24 l
6.44 -0.36 l
6.43 -0.48 l
6.43 -0.60 l
6.44 -0.72 l
6.43 -0.84 l
6.43 -0.97 l
6.43 -1.08 l
6.44 -1.20 l
6.43 -1.32 l
6.43 -1.44 l
6.44 -1.57 l
6.43 -1.68 l
6.43 -1.80 l
6.43 -1.93 l
6.44 -2.04 l
6.43 -2.16 l
6.43 -2.29 l
6.44 -2.40 l
6.43 -2.53 l
6.43 -2.64 l
6.44 -2.77 l
6.43 -2.88 l
6.43 -3.01 l
6.43 -3.12 l
6.44 -3.25 l
6.43 -3.37 l
6.43 -3.48 l
6.44 -3.61 l
6.43 -3.73 l
6.43 -3.84 l
6.43 -3.97 l
6.44 -4.09 l
6.43 -4.21 l
6.43 -4.32 l
6.44 -4.45 l
6.43 -4.57 l
6.43 -4.69 l
6.44 -4.81 l
6.43 -4.93 l
6.43 -5.05 l
6.43 -5.17 l
6.44 -5.29 l
6.43 -5.41 l
6.43 -5.53 l
6.44 -5.65 l
6.43 -5.77 l
6.43 -5.89 l
6.43 -6.01 l
6.44 -6.13 l
6.43 -6.25 l
6.43 -6.38 l
6.44 -6.49 l
6.43 -6.61 l
6.43 -6.73 l
6.44 -6.86 l
6.43 -6.97 l
6.43 -7.09 l
6.43 -7.22 l
6.44 -7.33 l
6.43 -7.46 l
6.43 -7.57 l
6.44 -7.70 l
6.43 -7.81 l
6.43 -7.94 l
6.43 -8.05 l
6.44 -8.18 l
6.43 -8.29 l
6.43 -8.42 l
6.44 -8.53 l
6.43 -8.66 l
6.43 -8.78 l
6.44 -8.89 l
o
0 0 0 srgb
0.75 setlinewidth
[ 2.25 3.75] 0 setdash
np
399.96 105.84 m
0 398.00 l
o
ep
%%Trailer
%%Pages: 1
%%EOF
