%!PS-Adobe-3.0
%%DocumentNeededResources: font Helvetica
%%+ font Helvetica-Bold
%%+ font Helvetica-Oblique
%%+ font Helvetica-BoldOblique
%%+ font Symbol
%%DocumentMedia: a4 595 841 0 () ()
%%Title: R Graphics Output
%%Creator: R Software
%%Pages: (atend)
%%Orientation: Landscape
%%BoundingBox: 18 18 577 824
%%EndComments
%%BeginProlog
/bp  { gs sRGB 595.00 0 translate 90 rotate gs } def
% begin .ps.prolog
/gs  { gsave } bind def
/gr  { grestore } bind def
/ep  { showpage gr gr } bind def
/m   { moveto } bind def
/l  { rlineto } bind def
/np  { newpath } bind def
/cp  { closepath } bind def
/f   { fill } bind def
/o   { stroke } bind def
/c   { newpath 0 360 arc } bind def
/r   { 4 2 roll moveto 1 copy 3 -1 roll exch 0 exch rlineto 0 rlineto -1 mul 0 exch rlineto closepath } bind def
/p1  { stroke } bind def
/p2  { gsave bg fill grestore newpath } bind def
/p3  { gsave bg fill grestore stroke } bind def
/p6  { gsave bg eofill grestore newpath } bind def
/p7  { gsave bg eofill grestore stroke } bind def
/t   { 5 -2 roll moveto gsave rotate
       1 index stringwidth pop
       mul neg 0 rmoveto show grestore } bind def
/ta  { 4 -2 roll moveto gsave rotate show } bind def
/tb  { 2 -1 roll 0 rmoveto show } bind def
/cl  { grestore gsave newpath 3 index 3 index moveto 1 index
       4 -1 roll lineto  exch 1 index lineto lineto
       closepath clip newpath } bind def
/rgb { setrgbcolor } bind def
/s   { scalefont setfont } bind def
% end   .ps.prolog
/sRGB { [ /CIEBasedABC
          << /DecodeLMN
               [ { dup 0.03928 le
                        {12.92321 div}
                        {0.055 add 1.055 div 2.4 exp }
                     ifelse
                 } bind dup dup
               ]
             /MatrixLMN [0.412457 0.212673 0.019334
                         0.357576 0.715152 0.119192
                         0.180437 0.072175 0.950301]
             /WhitePoint [0.9505 1.0 1.0890]
           >>
         ] setcolorspace } bind def
/srgb { setcolor } bind def
%%IncludeResource: font Helvetica
/Helvetica findfont
dup length dict begin
  {1 index /FID ne {def} {pop pop} ifelse} forall
  /Encoding ISOLatin1Encoding def
  currentdict
  end
/Font1 exch definefont pop
%%IncludeResource: font Helvetica-Bold
/Helvetica-Bold findfont
dup length dict begin
  {1 index /FID ne {def} {pop pop} ifelse} forall
  /Encoding ISOLatin1Encoding def
  currentdict
  end
/Font2 exch definefont pop
%%IncludeResource: font Helvetica-Oblique
/Helvetica-Oblique findfont
dup length dict begin
  {1 index /FID ne {def} {pop pop} ifelse} forall
  /Encoding ISOLatin1Encoding def
  currentdict
  end
/Font3 exch definefont pop
%%IncludeResource: font Helvetica-BoldOblique
/Helvetica-BoldOblique findfont
dup length dict begin
  {1 index /FID ne {def} {pop pop} ifelse} forall
  /Encoding ISOLatin1Encoding def
  currentdict
  end
/Font4 exch definefont pop
%%IncludeResource: font Symbol
/Symbol findfont
dup length dict begin
  {1 index /FID ne {def} {pop pop} ifelse} forall
  currentdict
  end
/Font5 exch definefont pop
%%EndProlog
%%Page: 1 1
bp
91.44 105.84 779.25 503.84 cl
0 0 0 srgb
0.75 setlinewidth
[] 0 setdash
1 setlinecap
1 setlinejoin
10.00 setmiterlimit
np
116.91 120.58 m
6.44 10.82 l
6.43 10.67 l
6.43 10.50 l
6.44 10.34 l
6.43 10.18 l
6.43 10.02 l
6.44 9.85 l
6.43 9.70 l
6.43 9.53 l
6.43 9.37 l
6.44 9.21 l
6.43 9.05 l
6.43 8.89 l
6.44 8.73 l
6.43 8.56 l
6.43 8.41 l
6.43 8.24 l
6.44 8.08 l
6.43 7.92 l
6.43 7.76 l
6.44 7.60 l
6.43 7.43 l
6.43 7.28 l
6.43 7.11 l
6.44 6.95 l
6.43 6.79 l
6.43 6.63 l
6.44 6.47 l
6.43 6.31 l
6.43 6.14 l
6.44 5.99 l
6.43 5.82 l
6.43 5.66 l
6.43 5.50 l
6.44 5.34 l
6.43 5.18 l
6.43 5.01 l
6.44 4.86 l
6.43 4.69 l
6.43 4.53 l
6.43 4.37 l
6.44 4.21 l
6.43 4.05 l
6.43 3.89 l
6.44 3.72 l
6.43 3.57 l
6.43 3.40 l
6.44 3.24 l
6.43 3.08 l
6.43 2.92 l
6.43 2.76 l
6.44 2.59 l
6.43 2.44 l
6.43 2.27 l
6.44 2.11 l
6.43 1.95 l
6.43 1.79 l
6.43 1.63 l
6.44 1.47 l
6.43 1.30 l
6.43 1.15 l
6.44 0.98 l
6.43 0.82 l
6.43 0.66 l
6.44 0.50 l
6.43 0.33 l
6.43 0.18 l
6.43 0.02 l
6.44 -0.15 l
6.43 -0.31 l
6.43 -0.47 l
6.44 -0.63 l
6.43 -0.79 l
6.43 -0.96 l
6.43 -1.11 l
6.44 -1.28 l
6.43 -1.44 l
6.43 -1.59 l
6.44 -1.76 l
6.43 -1.93 l
6.43 -2.08 l
6.44 -2.24 l
6.43 -2.41 l
6.43 -2.57 l
6.43 -2.72 l
6.44 -2.89 l
6.43 -3.05 l
6.43 -3.22 l
6.44 -3.37 l
6.43 -3.54 l
6.43 -3.69 l
6.43 -3.86 l
6.44 -4.02 l
6.43 -4.18 l
6.43 -4.34 l
6.44 -4.50 l
6.43 -4.67 l
6.43 -4.82 l
6.44 -4.99 l
o
18.00 18.00 823.89 577.28 cl
0 0 0 srgb
0.75 setlinewidth
[] 0 setdash
1 setlinecap
1 setlinejoin
10.00 setmiterlimit
np
116.91 105.84 m
562.28 0 l
o
np
116.91 105.84 m
0 -7.20 l
o
np
304.34 105.84 m
0 -7.20 l
o
np
491.77 105.84 m
0 -7.20 l
o
np
679.19 105.84 m
0 -7.20 l
o
/Font1 findfont 12 s
116.91 79.92 (0.0) .5 0 t
304.34 79.92 (0.5) .5 0 t
491.77 79.92 (1.0) .5 0 t
679.19 79.92 (1.5) .5 0 t
np
91.44 116.73 m
0 349.65 l
o
np
91.44 116.73 m
-7.20 0 l
o
np
91.44 204.14 m
-7.20 0 l
o
np
91.44 291.56 m
-7.20 0 l
o
np
91.44 378.97 m
-7.20 0 l
o
np
91.44 466.38 m
-7.20 0 l
o
74.16 116.73 (-5) .5 90 t
74.16 204.14 (-4) .5 90 t
74.16 291.56 (-3) .5 90 t
74.16 378.97 (-2) .5 90 t
74.16 466.38 (-1) .5 90 t
np
91.44 105.84 m
687.81 0 l
0 398.00 l
-687.81 0 l
0 -398.00 l
o
32.40 32.40 809.49 562.88 cl
/Font1 findfont 12 s
0 0 0 srgb
397.99 51.12 (log group siz) 0 ta
-0.180 (e) tb gr
45.36 304.84 (log density) .5 90 t
91.44 105.84 779.25 503.84 cl
0.7451 0.7451 0.7451 srgb
0.75 setlinewidth
[] 0 setdash
1 setlinecap
1 setlinejoin
10.00 setmiterlimit
np
116.91 398.04 m
6.44 4.60 l
6.43 4.48 l
6.43 4.35 l
6.44 4.23 l
6.43 4.11 l
6.43 3.98 l
6.44 3.85 l
6.43 3.73 l
6.43 3.61 l
6.43 3.48 l
6.44 3.36 l
6.43 3.23 l
6.43 3.11 l
6.44 2.99 l
6.43 2.86 l
6.43 2.74 l
6.43 2.61 l
6.44 2.49 l
6.43 2.36 l
6.43 2.24 l
6.44 2.11 l
6.43 1.99 l
6.43 1.87 l
6.43 1.74 l
6.44 1.62 l
6.43 1.49 l
6.43 1.37 l
6.44 1.25 l
6.43 1.12 l
6.43 0.99 l
6.44 0.88 l
6.43 0.74 l
6.43 0.63 l
6.43 0.49 l
6.44 0.38 l
6.43 0.25 l
6.43 0.12 l
6.44 0.01 l
6.43 -0.13 l
6.43 -0.24 l
6.43 -0.38 l
6.44 -0.49 l
6.43 -0.62 l
6.43 -0.75 l
6.44 -0.87 l
6.43 -0.99 l
6.43 -1.12 l
6.44 -1.24 l
6.43 -1.36 l
6.43 -1.50 l
6.43 -1.61 l
6.44 -1.74 l
6.43 -1.86 l
6.43 -1.99 l
6.44 -2.11 l
6.43 -2.24 l
6.43 -2.36 l
6.43 -2.49 l
6.44 -2.60 l
6.43 -2.74 l
6.43 -2.86 l
6.44 -2.98 l
6.43 -3.11 l
6.43 -3.23 l
6.44 -3.35 l
6.43 -3.48 l
6.43 -3.61 l
6.43 -3.72 l
6.44 -3.86 l
6.43 -3.97 l
6.43 -4.11 l
6.44 -4.22 l
6.43 -4.35 l
6.43 -4.48 l
6.43 -4.59 l
6.44 -4.73 l
6.43 -4.84 l
6.43 -4.98 l
6.44 -5.09 l
6.43 -5.22 l
6.43 -5.35 l
6.44 -5.47 l
6.43 -5.59 l
6.43 -5.72 l
6.43 -5.84 l
6.44 -5.97 l
6.43 -6.09 l
6.43 -6.21 l
6.44 -6.34 l
6.43 -6.46 l
6.43 -6.59 l
6.43 -6.71 l
6.44 -6.84 l
6.43 -6.96 l
6.43 -7.09 l
6.44 -7.21 l
6.43 -7.33 l
6.43 -7.46 l
6.44 -7.58 l
o
0 0 0 srgb
0.75 setlinewidth
[ 2.25 3.75] 0 setdash
np
457.86 105.84 m
0 398.00 l
o
ep
%%Trailer
%%Pages: 1
%%EOF
