%!PS-Adobe-3.0
%%DocumentNeededResources: font Helvetica
%%+ font Helvetica-Bold
%%+ font Helvetica-Oblique
%%+ font Helvetica-BoldOblique
%%+ font Symbol
%%DocumentMedia: a4 595 841 0 () ()
%%Title: R Graphics Output
%%Creator: R Software
%%Pages: (atend)
%%Orientation: Landscape
%%BoundingBox: 18 18 577 824
%%EndComments
%%BeginProlog
/bp  { gs sRGB 595.00 0 translate 90 rotate gs } def
% begin .ps.prolog
/gs  { gsave } bind def
/gr  { grestore } bind def
/ep  { showpage gr gr } bind def
/m   { moveto } bind def
/l  { rlineto } bind def
/np  { newpath } bind def
/cp  { closepath } bind def
/f   { fill } bind def
/o   { stroke } bind def
/c   { newpath 0 360 arc } bind def
/r   { 4 2 roll moveto 1 copy 3 -1 roll exch 0 exch rlineto 0 rlineto -1 mul 0 exch rlineto closepath } bind def
/p1  { stroke } bind def
/p2  { gsave bg fill grestore newpath } bind def
/p3  { gsave bg fill grestore stroke } bind def
/p6  { gsave bg eofill grestore newpath } bind def
/p7  { gsave bg eofill grestore stroke } bind def
/t   { 5 -2 roll moveto gsave rotate
       1 index stringwidth pop
       mul neg 0 rmoveto show grestore } bind def
/ta  { 4 -2 roll moveto gsave rotate show } bind def
/tb  { 2 -1 roll 0 rmoveto show } bind def
/cl  { grestore gsave newpath 3 index 3 index moveto 1 index
       4 -1 roll lineto  exch 1 index lineto lineto
       closepath clip newpath } bind def
/rgb { setrgbcolor } bind def
/s   { scalefont setfont } bind def
% end   .ps.prolog
/sRGB { [ /CIEBasedABC
          << /DecodeLMN
               [ { dup 0.03928 le
                        {12.92321 div}
                        {0.055 add 1.055 div 2.4 exp }
                     ifelse
                 } bind dup dup
               ]
             /MatrixLMN [0.412457 0.212673 0.019334
                         0.357576 0.715152 0.119192
                         0.180437 0.072175 0.950301]
             /WhitePoint [0.9505 1.0 1.0890]
           >>
         ] setcolorspace } bind def
/srgb { setcolor } bind def
%%IncludeResource: font Helvetica
/Helvetica findfont
dup length dict begin
  {1 index /FID ne {def} {pop pop} ifelse} forall
  /Encoding ISOLatin1Encoding def
  currentdict
  end
/Font1 exch definefont pop
%%IncludeResource: font Helvetica-Bold
/Helvetica-Bold findfont
dup length dict begin
  {1 index /FID ne {def} {pop pop} ifelse} forall
  /Encoding ISOLatin1Encoding def
  currentdict
  end
/Font2 exch definefont pop
%%IncludeResource: font Helvetica-Oblique
/Helvetica-Oblique findfont
dup length dict begin
  {1 index /FID ne {def} {pop pop} ifelse} forall
  /Encoding ISOLatin1Encoding def
  currentdict
  end
/Font3 exch definefont pop
%%IncludeResource: font Helvetica-BoldOblique
/Helvetica-BoldOblique findfont
dup length dict begin
  {1 index /FID ne {def} {pop pop} ifelse} forall
  /Encoding ISOLatin1Encoding def
  currentdict
  end
/Font4 exch definefont pop
%%IncludeResource: font Symbol
/Symbol findfont
dup length dict begin
  {1 index /FID ne {def} {pop pop} ifelse} forall
  currentdict
  end
/Font5 exch definefont pop
%%EndProlog
%%Page: 1 1
bp
32.40 32.40 809.49 562.88 cl
/Font1 findfont 12 s
0 0 0 srgb
435.34 51.12 (log body mass) .5 0 t
45.36 267.49 (log group siz) 90 ta
-0.180 (e) tb gr
91.44 105.84 779.25 503.84 cl
0 0 0 srgb
0.75 setlinewidth
[] 0 setdash
1 setlinecap
1 setlinejoin
10.00 setmiterlimit
np
123.35 132.74 m
-6.07 2.73 l
-0.37 0.16 l
o
np
123.69 132.60 m
-0.34 0.14 l
o
/Font1 findfont 18 s
121.14 126.66 ( -7 ) 0 -23.20 t
np
201.05 131.75 m
-0.51 0.19 l
-6.43 2.50 l
-2.62 1.03 l
-3.81 1.51 l
-5.50 2.21 l
-0.94 0.38 l
-6.43 2.64 l
-1.69 0.70 l
-4.74 1.99 l
-4.09 1.74 l
-2.34 1.00 l
-6.27 2.72 l
-0.17 0.07 l
-6.43 2.85 l
-1.79 0.80 l
-4.64 2.10 l
-3.55 1.62 l
-2.89 1.34 l
-5.11 2.39 l
-1.32 0.62 l
-6.43 3.07 l
-0.07 0.03 l
-6.37 3.10 l
o
np
202.82 131.10 m
-1.77 0.65 l
o
200.60 125.03 ( -6 ) 0 -20.16 t
np
297.04 129.71 m
-6.44 2.00 l
-0.13 0.04 l
-6.30 2.00 l
-5.34 1.72 l
-1.09 0.36 l
-6.44 2.12 l
-3.69 1.24 l
-2.74 0.93 l
-6.43 2.21 l
-1.68 0.58 l
-4.75 1.68 l
-5.75 2.05 l
-0.69 0.25 l
-6.43 2.35 l
-3.03 1.12 l
-3.40 1.27 l
-6.44 2.44 l
-0.01 0.01 l
-6.42 2.49 l
-3.13 1.23 l
-3.30 1.32 l
-5.99 2.41 l
-0.44 0.18 l
-6.44 2.65 l
-2.14 0.89 l
-4.29 1.81 l
-4.49 1.91 l
-1.94 0.84 l
-6.44 2.80 l
-0.18 0.08 l
-6.25 2.79 l
-2.07 0.94 l
-4.36 1.98 l
-3.76 1.74 l
-2.67 1.24 l
-5.25 2.48 l
-1.19 0.56 l
-6.43 3.11 l
-0.12 0.05 l
-6.31 3.12 l
-1.23 0.61 l
-5.21 2.62 l
-2.16 1.10 l
-4.27 2.20 l
-2.93 1.52 l
-3.50 1.84 l
-3.53 1.88 l
-2.91 1.56 l
o
np
299.02 129.14 m
-1.98 0.57 l
o
297.21 122.93 ( -5 ) 0 -16.28 t
np
432.13 126.38 m
-6.43 1.30 l
-1.66 0.35 l
-4.78 1.00 l
-6.43 1.38 l
-6.11 1.34 l
-0.32 0.07 l
-6.44 1.46 l
-6.43 1.49 l
-2.98 0.70 l
-3.45 0.82 l
-6.44 1.57 l
-5.34 1.33 l
-1.09 0.28 l
-6.43 1.64 l
-6.43 1.69 l
-0.45 0.11 l
-5.99 1.61 l
-6.43 1.77 l
-1.25 0.35 l
-5.18 1.46 l
-6.44 1.84 l
-1.42 0.42 l
-5.01 1.48 l
-6.43 1.93 l
-1.04 0.31 l
-5.39 1.67 l
-6.44 2.01 l
-0.13 0.04 l
-6.30 2.03 l
-5.18 1.70 l
-1.25 0.41 l
-6.44 2.16 l
-3.36 1.15 l
-3.07 1.05 l
-6.43 2.26 l
-1.17 0.41 l
-5.27 1.89 l
-5.03 1.83 l
-1.40 0.52 l
-6.43 2.40 l
-2.14 0.81 l
-4.29 1.64 l
-5.36 2.08 l
-1.08 0.42 l
-6.43 2.56 l
-1.84 0.74 l
-4.59 1.87 l
-4.48 1.85 l
-1.96 0.82 l
-6.43 2.72 l
-0.43 0.19 l
-6.00 2.59 l
-2.56 1.13 l
-3.87 1.71 l
-4.47 2.01 l
-1.97 0.89 l
-6.15 2.83 l
-0.28 0.13 l
-6.43 3.03 l
-1.18 0.57 l
-5.26 2.53 l
-2.44 1.19 l
-3.99 1.97 l
-3.51 1.75 l
-2.92 1.47 l
-4.40 2.25 l
-2.03 1.05 l
-5.12 2.67 l
-1.32 0.70 l
-5.65 3.03 l
-0.78 0.42 l
-6.04 3.30 l
-0.39 0.22 l
-6.26 3.50 l
-0.18 0.10 l
-6.32 3.62 l
-0.11 0.07 l
-6.24 3.66 l
-0.19 0.11 l
-6.02 3.61 l
-0.42 0.25 l
o
np
433.09 126.20 m
-0.96 0.18 l
o
431.90 119.85 ( -4 ) 0 -10.61 t
np
753.78 132.75 m
-6.44 -0.30 l
-6.43 -0.27 l
-6.43 -0.23 l
-6.42 -0.20 l
-0.02 0 l
-6.43 -0.17 l
-6.43 -0.14 l
-6.44 -0.10 l
-6.43 -0.07 l
o
np
670.15 131.40 m
-6.44 0.12 l
-6.43 0.16 l
-2.41 0.07 l
-4.02 0.12 l
-6.43 0.22 l
-6.44 0.25 l
-6.43 0.29 l
-6.43 0.32 l
-6.44 0.35 l
-6.43 0.38 l
-6.43 0.42 l
-6.44 0.45 l
-6.43 0.48 l
-5.54 0.44 l
-0.89 0.07 l
-6.43 0.55 l
-6.44 0.59 l
-6.43 0.61 l
-6.43 0.65 l
-6.44 0.69 l
-5.09 0.56 l
-1.34 0.15 l
-6.43 0.76 l
-6.43 0.78 l
-6.44 0.83 l
-6.43 0.85 l
-2.58 0.35 l
-3.85 0.54 l
-6.44 0.93 l
-6.43 0.96 l
-6.43 1.00 l
-1.88 0.30 l
-4.56 0.73 l
-6.43 1.07 l
-6.43 1.11 l
-4.59 0.81 l
-1.84 0.33 l
-6.44 1.18 l
-6.43 1.22 l
-5.10 0.99 l
-1.33 0.26 l
-6.44 1.30 l
-6.43 1.33 l
-3.93 0.83 l
-2.50 0.54 l
-6.43 1.41 l
-6.44 1.45 l
-1.41 0.33 l
-5.02 1.16 l
-6.43 1.53 l
-4.22 1.03 l
-2.22 0.54 l
-6.43 1.62 l
-6.09 1.56 l
-0.34 0.09 l
-6.44 1.70 l
-6.43 1.74 l
-0.70 0.19 l
-5.73 1.60 l
-6.43 1.82 l
-1.05 0.31 l
-5.39 1.57 l
-6.43 1.92 l
-0.76 0.23 l
-5.67 1.74 l
-6.36 1.98 l
-0.08 0.03 l
-6.43 2.06 l
-4.99 1.63 l
-1.44 0.48 l
-6.43 2.16 l
-3.19 1.09 l
-3.25 1.12 l
-6.43 2.25 l
-0.96 0.35 l
-5.47 1.97 l
-4.78 1.75 l
-1.66 0.61 l
-6.43 2.42 l
-1.80 0.69 l
-4.63 1.79 l
-4.94 1.94 l
-1.50 0.59 l
-6.43 2.59 l
-1.32 0.54 l
-5.11 2.11 l
-3.85 1.61 l
-2.58 1.09 l
-6.12 2.63 l
-0.32 0.14 l
-6.43 2.83 l
-1.68 0.75 l
-4.75 2.15 l
-3.44 1.58 l
-3.00 1.39 l
-4.96 2.33 l
-1.47 0.70 l
-6.28 3.02 l
-0.15 0.07 l
206.98 235.50 lineto
-0.95 0.47 l
-5.49 2.78 l
-1.85 0.95 l
-4.58 2.37 l
-2.56 1.35 l
-3.87 2.06 l
-3.10 1.66 l
-3.34 1.82 l
-3.45 1.90 l
-2.98 1.67 l
-3.64 2.06 l
-2.79 1.59 l
-3.67 2.13 l
-2.76 1.62 l
-3.55 2.10 l
-2.89 1.74 l
-3.27 1.98 l
-3.16 1.95 l
-2.85 1.78 l
-3.58 2.26 l
-2.29 1.46 l
-4.15 2.68 l
-1.59 1.04 l
-4.84 3.21 l
-0.77 0.51 l
-5.48 3.72 l
-0.18 0.13 l
-5.17 3.60 l
-1.27 0.89 l
o
np
671.78 131.39 m
-1.63 0.01 l
o
671.76 124.93 ( -3 ) 0 -0.23 t
np
753.78 165.22 m
-6.44 -0.32 l
-6.43 -0.29 l
-6.43 -0.25 l
-6.44 -0.21 l
-6.43 -0.19 l
-6.43 -0.14 l
-6.44 -0.11 l
-6.43 -0.08 l
o
np
670.15 163.77 m
-6.44 0.13 l
-6.43 0.17 l
-6.43 0.20 l
-6.43 0.24 l
-6.44 0.27 l
-6.43 0.31 l
-2.97 0.16 l
-3.46 0.19 l
-6.44 0.38 l
-6.43 0.41 l
-6.43 0.45 l
-6.44 0.49 l
-6.43 0.52 l
-6.43 0.56 l
-6.43 0.59 l
-1.32 0.13 l
-5.12 0.51 l
-6.43 0.67 l
-6.43 0.70 l
-6.44 0.74 l
-6.43 0.78 l
-2.59 0.32 l
-3.84 0.49 l
-6.43 0.86 l
-6.44 0.89 l
-6.43 0.93 l
-3.72 0.56 l
-2.71 0.41 l
-6.44 1.00 l
-6.43 1.05 l
-6.43 1.08 l
-1.02 0.18 l
-5.42 0.95 l
-6.43 1.16 l
-6.43 1.21 l
-2.10 0.40 l
-4.33 0.84 l
-6.44 1.29 l
-6.43 1.33 l
-1.26 0.26 l
-5.17 1.11 l
-6.44 1.41 l
-5.33 1.21 l
-1.10 0.25 l
-6.43 1.50 l
-6.43 1.54 l
-1.76 0.43 l
-4.68 1.16 l
-6.43 1.63 l
-3.58 0.93 l
-2.85 0.75 l
-6.44 1.72 l
-4.55 1.25 l
-1.88 0.52 l
-6.43 1.83 l
-4.77 1.38 l
-1.67 0.48 l
-6.43 1.92 l
-4.32 1.32 l
-2.11 0.65 l
-6.43 2.02 l
-3.29 1.05 l
-3.15 1.02 l
-6.43 2.12 l
-1.74 0.58 l
-4.69 1.60 l
-6.15 2.12 l
-0.29 0.10 l
-6.43 2.30 l
-3.67 1.33 l
-2.76 1.01 l
-6.43 2.40 l
-0.83 0.31 l
-5.61 2.15 l
-4.02 1.57 l
-2.41 0.95 l
-6.43 2.58 l
-0.47 0.19 l
-5.97 2.47 l
-3.00 1.26 l
-3.43 1.45 l
-5.27 2.27 l
-1.16 0.51 l
-6.44 2.84 l
-0.81 0.37 l
-5.62 2.55 l
-2.53 1.17 l
-3.90 1.83 l
-4.01 1.90 l
-2.42 1.16 l
-5.26 2.56 l
-1.18 0.58 l
-6.27 3.14 l
-0.16 0.08 l
-6.43 3.30 l
-0.65 0.34 l
-5.79 3.05 l
-1.25 0.68 l
-5.18 2.80 l
218.17 273.20 lineto
-4.76 2.64 l
-1.91 1.08 l
-4.52 2.58 l
-1.97 1.14 l
-4.47 2.62 l
-1.85 1.10 l
-4.58 2.76 l
-1.58 0.97 l
-4.85 2.99 l
-1.16 0.73 l
-5.28 3.35 l
-0.58 0.37 l
-5.71 3.72 l
-0.14 0.10 l
-5.42 3.63 l
-1.01 0.69 l
-4.41 3.03 l
-2.02 1.41 l
-3.28 2.31 l
-3.16 2.26 l
-2.01 1.46 l
-4.42 3.26 l
-0.63 0.47 l
-4.92 3.72 l
-0.88 0.68 l
-3.92 3.04 l
-2.52 1.99 l
-2.17 1.73 l
-4.26 3.46 l
-0.33 0.27 l
-4.46 3.72 l
-1.64 1.39 l
-2.72 2.33 l
-3.72 3.24 l
o
np
671.78 163.76 m
-1.63 0.01 l
o
671.76 157.30 ( -2 ) 0 -0.25 t
np
753.78 200.60 m
-6.44 -0.36 l
-6.43 -0.31 l
-6.43 -0.28 l
-6.44 -0.24 l
-6.43 -0.20 l
-6.43 -0.16 l
-6.44 -0.12 l
-6.43 -0.09 l
o
np
670.15 199.00 m
-6.44 0.14 l
-6.43 0.19 l
-6.43 0.22 l
-6.43 0.27 l
-6.44 0.30 l
-6.43 0.34 l
-6.43 0.37 l
-6.44 0.42 l
-6.43 0.45 l
-6.43 0.50 l
-3.33 0.27 l
-3.11 0.26 l
-6.43 0.58 l
-6.43 0.61 l
-6.43 0.66 l
-6.44 0.69 l
-6.43 0.73 l
-1.61 0.20 l
-4.82 0.58 l
-6.44 0.82 l
-6.43 0.86 l
-6.43 0.89 l
-3.89 0.57 l
-2.54 0.37 l
-6.44 0.99 l
-6.43 1.02 l
-6.43 1.07 l
-1.58 0.27 l
-4.86 0.84 l
-6.43 1.16 l
-6.43 1.20 l
-2.73 0.52 l
-3.71 0.72 l
-6.43 1.30 l
-6.43 1.33 l
-1.77 0.37 l
-4.66 1.01 l
-6.44 1.43 l
-5.63 1.29 l
-0.80 0.18 l
-6.43 1.53 l
-6.44 1.57 l
-1.75 0.44 l
-4.68 1.18 l
-6.43 1.67 l
-3.26 0.87 l
-3.17 0.86 l
-6.44 1.77 l
-3.87 1.09 l
-2.56 0.74 l
-6.43 1.88 l
-3.72 1.11 l
-2.72 0.82 l
-6.43 1.99 l
-2.88 0.91 l
-3.55 1.13 l
-6.44 2.10 l
-1.46 0.49 l
-4.97 1.68 l
-5.94 2.04 l
-0.49 0.17 l
-6.43 2.29 l
-3.50 1.27 l
-2.94 1.07 l
-6.43 2.41 l
-0.63 0.24 l
-5.80 2.24 l
-3.78 1.48 l
-2.66 1.06 l
-6.43 2.60 l
-0.15 0.06 l
-6.28 2.62 l
-2.60 1.11 l
-3.83 1.65 l
-4.74 2.07 l
-1.70 0.75 l
-6.43 2.90 l
-0.15 0.07 l
-6.28 2.91 l
-1.72 0.81 l
-4.72 2.26 l
-3.01 1.46 l
-3.42 1.69 l
-4.08 2.04 l
-2.35 1.19 l
-4.91 2.53 l
-1.53 0.79 l
-5.52 2.93 l
-0.91 0.49 l
-5.92 3.23 l
-0.51 0.29 l
-6.12 3.44 l
-0.31 0.17 l
-6.14 3.55 l
-0.30 0.18 l
-5.95 3.54 l
-0.48 0.29 l
-5.61 3.43 l
-0.82 0.52 l
227.62 317.87 lineto
-1.35 0.86 l
-4.40 2.86 l
-2.03 1.34 l
-3.57 2.38 l
-2.86 1.95 l
-2.58 1.77 l
-3.85 2.70 l
-1.46 1.03 l
-4.98 3.58 l
-0.18 0.14 l
-5.02 3.72 l
-1.23 0.93 l
-3.66 2.79 l
-2.77 2.16 l
-2.00 1.57 l
-4.44 3.55 l
-0.20 0.17 l
-4.51 3.72 l
-1.72 1.44 l
-2.68 2.28 l
-3.75 3.25 l
-0.54 0.47 l
-4.17 3.73 l
-1.72 1.57 l
-2.34 2.15 l
-3.96 3.72 l
-0.14 0.14 l
-3.70 3.58 l
-2.73 2.71 l
-1.02 1.02 l
-3.64 3.72 l
-1.77 1.85 l
-1.78 1.87 l
-3.45 3.72 l
-1.21 1.33 l
-2.14 2.40 l
-3.27 3.72 l
-1.02 1.19 l
-2.14 2.53 l
-3.08 3.72 l
-1.21 1.50 l
-1.78 2.23 l
-2.91 3.72 l
-1.75 2.29 l
o
np
671.78 198.99 m
-1.63 0.01 l
o
671.75 192.53 ( -1 ) 0 -0.28 t
np
753.78 239.81 m
-1.90 -0.11 l
-4.54 -0.28 l
-6.43 -0.35 l
-6.43 -0.31 l
-6.44 -0.27 l
-6.43 -0.22 l
-6.43 -0.18 l
-6.44 -0.14 l
-6.43 -0.09 l
o
np
676.58 237.91 m
-6.43 0.12 l
-6.44 0.16 l
-6.43 0.21 l
-6.43 0.25 l
-6.43 0.29 l
-6.44 0.33 l
-6.43 0.38 l
-0.67 0.05 l
-5.76 0.38 l
-6.44 0.47 l
-6.43 0.51 l
-6.43 0.56 l
-6.44 0.59 l
-6.43 0.65 l
-5.25 0.56 l
-1.18 0.13 l
-6.43 0.73 l
-6.44 0.79 l
-6.43 0.82 l
-6.43 0.87 l
-2.67 0.38 l
-3.77 0.54 l
-6.43 0.97 l
-6.43 1.02 l
-6.43 1.05 l
-0.81 0.14 l
-5.63 0.98 l
-6.43 1.16 l
-6.43 1.21 l
-1.96 0.38 l
-4.48 0.88 l
-6.43 1.31 l
-6.43 1.36 l
-0.79 0.17 l
-5.65 1.24 l
-6.43 1.47 l
-4.30 1.01 l
-2.13 0.51 l
-6.43 1.58 l
-6.44 1.62 l
-0.04 0.01 l
-6.39 1.68 l
-6.43 1.74 l
-1.10 0.31 l
-5.34 1.50 l
-6.43 1.85 l
-1.22 0.37 l
-5.21 1.56 l
-6.43 1.98 l
-0.58 0.18 l
-5.86 1.87 l
-5.67 1.85 l
-0.76 0.25 l
-6.43 2.18 l
-3.73 1.29 l
-2.71 0.96 l
-6.43 2.31 l
-1.26 0.46 l
-5.17 1.92 l
-4.73 1.80 l
-1.71 0.66 l
-6.43 2.52 l
-1.34 0.54 l
-5.09 2.07 l
-3.98 1.65 l
-2.45 1.04 l
-6.27 2.69 l
-0.17 0.07 l
-6.43 2.86 l
-1.75 0.79 l
-4.68 2.15 l
-3.37 1.57 l
-3.07 1.45 l
-4.70 2.27 l
-1.73 0.85 l
-5.76 2.88 l
-0.67 0.34 l
-6.43 3.31 l
-0.13 0.07 l
-6.31 3.36 l
-0.67 0.36 l
-5.76 3.17 l
-0.99 0.55 l
-5.44 3.10 l
-1.09 0.63 l
-5.35 3.14 l
-0.97 0.58 l
-5.46 3.31 l
-0.67 0.41 l
-5.76 3.61 l
-0.18 0.11 l
-5.75 3.73 l
-0.51 0.33 l
-5.06 3.39 l
-1.37 0.93 l
-4.04 2.79 l
-2.39 1.68 l
-2.86 2.04 l
-3.57 2.60 l
250.48 362.53 lineto
-4.91 3.69 l
-0.04 0.04 l
-4.79 3.72 l
-1.60 1.26 l
-3.06 2.46 l
-3.37 2.77 l
-1.16 0.95 l
-4.39 3.73 l
-0.89 0.76 l
-3.36 2.96 l
-3.07 2.74 l
-1.07 0.98 l
-4.02 3.72 l
-1.34 1.28 l
-2.55 2.45 l
-3.79 3.72 l
-0.09 0.10 l
-3.56 3.62 l
-2.88 3.00 l
-0.68 0.72 l
-3.44 3.73 l
-2.31 2.55 l
-1.04 1.17 l
-3.23 3.72 l
-2.16 2.56 l
-0.98 1.16 l
-3.03 3.72 l
-2.43 3.07 l
-0.51 0.66 l
-2.83 3.72 l
-2.75 3.72 l
-0.34 0.47 l
-2.31 3.25 l
-2.56 3.73 l
-1.56 2.35 l
-0.90 1.37 l
-2.38 3.72 l
-2.29 3.72 l
-0.86 1.45 l
-1.34 2.28 l
-2.11 3.72 l
-2.04 3.72 l
-0.95 1.80 l
-1.00 1.92 l
-1.86 3.73 l
-1.78 3.72 l
-1.70 3.72 l
-0.09 0.20 l
-1.53 3.52 l
-1.53 3.73 l
o
np
682.30 237.90 m
-5.72 0.01 l
o
682.28 231.43 ( 0 ) 0 -0.12 t
np
753.78 284.50 m
-1.84 -0.14 l
-4.60 -0.32 l
-6.43 -0.41 l
-6.43 -0.36 l
-6.44 -0.31 l
-6.43 -0.26 l
-6.43 -0.20 l
-6.44 -0.16 l
-6.43 -0.11 l
o
np
676.58 282.29 m
-6.43 0.14 l
-6.44 0.19 l
-6.43 0.24 l
-6.43 0.28 l
-6.43 0.34 l
-6.44 0.39 l
-6.43 0.44 l
-0.72 0.05 l
-5.71 0.44 l
-6.44 0.55 l
-6.43 0.59 l
-6.43 0.65 l
-6.44 0.70 l
-6.43 0.74 l
-0.44 0.06 l
-5.99 0.75 l
-6.43 0.86 l
-6.44 0.91 l
-6.43 0.96 l
-1.52 0.24 l
-4.91 0.78 l
-6.44 1.08 l
-6.43 1.13 l
-3.98 0.73 l
-2.45 0.46 l
-6.43 1.25 l
-6.44 1.30 l
-3.37 0.71 l
-3.06 0.66 l
-6.43 1.43 l
-6.44 1.48 l
-0.65 0.16 l
-5.78 1.39 l
-6.43 1.62 l
-2.76 0.71 l
-3.68 0.97 l
-6.43 1.74 l
-3.61 1.01 l
-2.82 0.80 l
-6.43 1.88 l
-3.46 1.04 l
-2.98 0.91 l
-6.43 2.03 l
-2.44 0.79 l
-3.99 1.31 l
-6.44 2.17 l
-0.70 0.24 l
-5.73 2.01 l
-4.74 1.71 l
-1.69 0.62 l
-6.43 2.42 l
-1.79 0.68 l
-4.65 1.82 l
-4.76 1.91 l
-1.67 0.67 l
-6.43 2.68 l
-0.87 0.37 l
-5.57 2.41 l
-2.96 1.31 l
-3.47 1.56 l
-4.71 2.16 l
-1.72 0.81 l
-6.11 2.92 l
-0.33 0.15 l
-6.43 3.19 l
-0.74 0.38 l
-5.69 2.93 l
-1.51 0.79 l
-4.92 2.64 l
-2.00 1.08 l
-4.44 2.47 l
-2.22 1.25 l
-4.21 2.43 l
-2.20 1.30 l
-4.23 2.53 l
-1.95 1.19 l
-4.49 2.79 l
-1.47 0.93 l
-4.96 3.21 l
-0.79 0.51 l
-5.55 3.73 l
-0.09 0.06 l
-5.25 3.66 l
-1.18 0.84 l
-3.99 2.88 l
-2.45 1.81 l
-2.54 1.91 l
-3.89 2.99 l
-0.94 0.74 l
-4.66 3.72 l
-0.83 0.68 l
-3.67 3.04 l
-2.77 2.35 l
-1.58 1.37 l
-4.21 3.73 l
-0.64 0.58 l
-3.41 3.14 l
-3.02 2.85 l
-0.91 0.87 l
273.05 422.09 lineto
-1.75 1.77 l
-1.90 1.95 l
-3.54 3.73 l
-0.99 1.07 l
-2.40 2.65 l
-3.29 3.72 l
-0.74 0.87 l
-2.42 2.85 l
-3.05 3.73 l
-0.96 1.22 l
-1.96 2.50 l
-2.82 3.72 l
-1.66 2.26 l
-1.06 1.46 l
-2.59 3.73 l
-2.51 3.72 l
-0.27 0.41 l
-2.11 3.31 l
-2.29 3.72 l
-2.03 3.43 l
-0.17 0.30 l
-2.08 3.72 l
-2.00 3.72 l
-1.90 3.72 l
-0.29 0.59 l
-1.50 3.14 l
o
np
682.30 282.27 m
-5.72 0.02 l
o
682.28 275.81 ( 1 ) 0 -0.13 t
np
753.78 337.88 m
-6.44 -0.57 l
-6.43 -0.51 l
-4.61 -0.32 l
-1.82 -0.13 l
-6.44 -0.38 l
-6.43 -0.31 l
-6.43 -0.26 l
-6.44 -0.19 l
-6.43 -0.14 l
o
np
676.58 335.15 m
-6.43 0.17 l
-6.44 0.23 l
-6.43 0.29 l
-6.43 0.36 l
-4.34 0.28 l
-2.09 0.14 l
-6.44 0.48 l
-6.43 0.55 l
-6.43 0.61 l
-6.44 0.67 l
-6.43 0.73 l
-4.36 0.54 l
-2.07 0.26 l
-6.44 0.87 l
-6.43 0.94 l
-6.43 1.00 l
-3.98 0.65 l
-2.45 0.41 l
-6.44 1.15 l
-6.43 1.21 l
-4.85 0.96 l
-1.58 0.31 l
-6.44 1.36 l
-6.43 1.43 l
-2.67 0.62 l
-3.76 0.88 l
-6.43 1.59 l
-4.88 1.25 l
-1.56 0.41 l
-6.43 1.74 l
-5.56 1.57 l
-0.87 0.25 l
-6.44 1.92 l
-5.03 1.55 l
-1.40 0.45 l
-6.43 2.09 l
-3.53 1.19 l
-2.91 0.99 l
-6.43 2.28 l
-1.23 0.45 l
-5.20 1.94 l
-4.66 1.78 l
-1.77 0.70 l
-6.44 2.59 l
-1.05 0.43 l
-5.38 2.28 l
-3.34 1.45 l
-3.09 1.37 l
-5.16 2.35 l
-1.28 0.59 l
-6.43 3.07 l
-0.11 0.06 l
-6.32 3.16 l
-1.10 0.56 l
-5.33 2.80 l
-1.73 0.93 l
-4.71 2.58 l
-2.02 1.14 l
-4.41 2.54 l
-2.01 1.18 l
-4.42 2.66 l
-1.72 1.06 l
-4.72 2.98 l
-1.15 0.75 l
-5.28 3.48 l
-0.35 0.24 l
-5.37 3.72 l
-0.71 0.51 l
-4.43 3.21 l
-2.01 1.50 l
-2.92 2.22 l
-3.51 2.74 l
-1.23 0.99 l
-4.54 3.72 l
-0.66 0.56 l
-3.67 3.16 l
-2.76 2.45 l
-1.41 1.27 l
-3.99 3.73 l
-1.04 0.99 l
-2.78 2.73 l
-3.65 3.70 l
-0.03 0.02 l
-3.48 3.72 l
-2.92 3.23 l
-0.45 0.50 l
-3.19 3.72 l
-2.80 3.39 l
-0.27 0.33 l
-2.90 3.72 l
-2.80 3.73 l
-0.46 0.64 l
-2.17 3.08 l
-2.52 3.72 l
-1.74 2.69 l
-0.66 1.03 l
-2.25 3.73 l
o
np
682.30 335.13 m
-5.72 0.02 l
o
682.28 328.67 ( 2 ) 0 -0.17 t
np
753.78 408.71 m
-6.44 -0.84 l
-5.81 -0.67 l
-0.62 -0.07 l
-6.43 -0.63 l
-6.44 -0.55 l
-6.43 -0.46 l
-6.43 -0.37 l
-6.44 -0.29 l
-6.43 -0.19 l
o
np
676.58 404.75 m
-6.43 0.25 l
-6.44 0.33 l
-6.43 0.43 l
-6.43 0.51 l
-6.43 0.60 l
-3.08 0.33 l
-3.36 0.37 l
-6.43 0.80 l
-6.43 0.89 l
-6.44 0.98 l
-4.14 0.69 l
-2.29 0.39 l
-6.43 1.18 l
-6.44 1.29 l
-4.02 0.86 l
-2.41 0.52 l
-6.43 1.51 l
-6.43 1.60 l
-0.35 0.09 l
-6.09 1.65 l
-6.43 1.83 l
-0.80 0.24 l
-5.63 1.74 l
-6.11 1.98 l
-0.33 0.11 l
-6.43 2.25 l
-3.74 1.37 l
-2.69 1.01 l
-6.43 2.52 l
-0.47 0.19 l
-5.97 2.51 l
-2.77 1.21 l
-3.66 1.65 l
-4.43 2.07 l
-2.00 0.97 l
-5.51 2.76 l
-0.93 0.47 l
-6.06 3.25 l
-0.37 0.20 l
-6.16 3.52 l
-0.27 0.16 l
-5.83 3.56 l
-0.61 0.39 l
-5.11 3.34 l
-1.32 0.89 l
-4.05 2.83 l
-2.38 1.72 l
-2.68 2.00 l
-3.75 2.91 l
-1.02 0.81 l
-4.47 3.73 l
-0.95 0.81 l
-3.25 2.91 l
-3.18 2.96 l
-0.79 0.76 l
-3.72 3.72 l
-1.92 2.03 l
-1.57 1.70 l
o
np
682.30 404.72 m
-5.72 0.03 l
o
682.27 398.26 ( 3 ) 0 -0.24 t
18.00 18.00 823.89 577.28 cl
0 0 0 srgb
0.75 setlinewidth
[] 0 setdash
1 setlinecap
1 setlinejoin
10.00 setmiterlimit
np
104.43 105.84 m
566.52 0 l
o
np
104.43 105.84 m
0 -7.20 l
o
np
246.06 105.84 m
0 -7.20 l
o
np
387.69 105.84 m
0 -7.20 l
o
np
529.32 105.84 m
0 -7.20 l
o
np
670.95 105.84 m
0 -7.20 l
o
/Font1 findfont 12 s
104.43 79.92 (0.5) .5 0 t
246.06 79.92 (1.0) .5 0 t
387.69 79.92 (1.5) .5 0 t
529.32 79.92 (2.0) .5 0 t
670.95 79.92 (2.5) .5 0 t
np
91.44 120.58 m
0 325.36 l
o
np
91.44 120.58 m
-7.20 0 l
o
np
91.44 229.03 m
-7.20 0 l
o
np
91.44 337.49 m
-7.20 0 l
o
np
91.44 445.94 m
-7.20 0 l
o
74.16 120.58 (0.0) .5 90 t
74.16 229.03 (0.5) .5 90 t
74.16 337.49 (1.0) .5 90 t
74.16 445.94 (1.5) .5 90 t
np
91.44 105.84 m
687.81 0 l
0 398.00 l
-687.81 0 l
0 -398.00 l
o
91.44 105.84 779.25 503.84 cl
0 0 0 srgb
0.75 setlinewidth
[] 0 setdash
1 setlinecap
1 setlinejoin
10.00 setmiterlimit
np
664.47 406.98 m
3.64 -6.30 l
-7.27 0 l
3.63 6.30 l
o
np
749.96 489.10 m
7.63 0 l
o
np
753.78 485.28 m
0 7.63 l
o
np
639.56 293.56 m
3.63 -6.29 l
-7.27 0 l
3.64 6.29 l
o
np
474.42 190.07 m
3.64 -6.29 l
-7.28 0 l
3.64 6.29 l
o
np
501.87 190.07 m
3.64 -6.29 l
-7.27 0 l
3.63 6.29 l
o
np
504.91 276.39 m
3.64 -6.30 l
-7.28 0 l
3.64 6.30 l
o
np
509.33 385.96 m
3.64 -6.30 l
-7.28 0 l
3.64 6.30 l
o
np
631.79 385.96 m
3.63 -6.30 l
-7.27 0 l
3.64 6.30 l
o
np
741.75 402.78 m
7.64 0 l
o
np
745.57 398.96 m
0 7.64 l
o
np
717.18 479.17 m
7.64 0 l
o
np
721.00 475.35 m
0 7.64 l
o
np
617.63 320.66 m
3.64 -6.29 l
-7.28 0 l
3.64 6.29 l
o
np
300.06 185.88 m
7.64 0 l
o
np
303.88 182.06 m
0 7.63 l
o
np
147.83 190.07 m
3.64 -6.29 l
-7.28 0 l
3.64 6.29 l
o
np
116.91 190.07 m
3.64 -6.29 l
-7.27 0 l
3.63 6.29 l
o
np
116.91 190.07 m
3.64 -6.29 l
-7.27 0 l
3.63 6.29 l
o
np
233.10 124.78 m
3.64 -6.30 l
-7.28 0 l
3.64 6.30 l
o
np
257.79 124.78 m
3.63 -6.30 l
-7.27 0 l
3.64 6.30 l
o
np
287.45 162.97 m
3.64 -6.29 l
-7.27 0 l
3.63 6.29 l
o
np
116.91 162.97 m
3.64 -6.29 l
-7.27 0 l
3.63 6.29 l
o
np
160.79 162.97 m
3.64 -6.29 l
-7.27 0 l
3.63 6.29 l
o
np
218.61 162.97 m
3.64 -6.29 l
-7.28 0 l
3.64 6.29 l
o
np
368.25 276.39 m
3.64 -6.30 l
-7.28 0 l
3.64 6.30 l
o
np
291.77 228.27 m
3.64 -6.30 l
-7.28 0 l
3.64 6.30 l
o
np
364.43 289.37 m
7.64 0 l
o
np
368.25 285.55 m
0 7.63 l
o
np
451.96 337.49 m
7.64 0 l
o
np
455.78 333.67 m
0 7.63 l
o
np
342.00 434.48 m
7.64 0 l
o
np
345.82 430.66 m
0 7.63 l
o
np
314.55 316.46 m
7.64 0 l
o
np
318.37 312.65 m
0 7.63 l
o
np
366.69 272.19 m
7.64 0 l
o
np
370.51 268.37 m
0 7.64 l
o
np
336.41 289.37 m
7.64 0 l
o
np
340.23 285.55 m
0 7.63 l
o
np
314.55 272.19 m
7.64 0 l
o
np
318.37 268.37 m
0 7.64 l
o
np
427.27 303.89 m
7.64 0 l
o
np
431.09 300.07 m
0 7.63 l
o
np
486.79 289.37 m
7.64 0 l
o
np
490.61 285.55 m
0 7.63 l
o
np
368.91 419.95 m
7.63 0 l
o
np
372.72 416.14 m
0 7.63 l
o
np
381.43 224.07 m
7.63 0 l
o
np
385.25 220.25 m
0 7.64 l
o
np
406.47 224.07 m
7.64 0 l
o
np
410.29 220.25 m
0 7.64 l
o
np
613.21 354.66 m
7.64 0 l
o
np
617.03 350.84 m
0 7.64 l
o
np
590.06 369.18 m
7.63 0 l
o
np
593.87 365.36 m
0 7.64 l
o
np
589.33 415.95 m
7.63 0 l
o
np
593.14 412.13 m
0 7.63 l
o
np
512.54 402.78 m
7.64 0 l
o
np
516.36 398.96 m
0 7.64 l
o
np
626.89 402.78 m
7.64 0 l
o
np
630.71 398.96 m
0 7.64 l
o
np
647.69 362.20 m
7.64 0 l
o
np
651.51 358.38 m
0 7.64 l
o
np
474.39 316.46 m
7.63 0 l
o
np
478.21 312.65 m
0 7.63 l
o
np
546.90 289.37 m
7.64 0 l
o
np
550.72 285.55 m
0 7.63 l
o
np
541.08 392.85 m
7.64 0 l
o
np
544.90 389.04 m
0 7.63 l
o
np
486.79 392.85 m
7.64 0 l
o
np
490.61 389.04 m
0 7.63 l
o
np
561.51 337.49 m
7.63 0 l
o
np
565.33 333.67 m
0 7.63 l
o
np
568.64 354.66 m
7.64 0 l
o
np
572.46 350.84 m
0 7.64 l
o
np
559.19 337.49 m
7.64 0 l
o
np
563.01 333.67 m
0 7.63 l
o
np
619.10 375.68 m
7.63 0 l
o
np
622.92 371.86 m
0 7.64 l
o
np
566.90 407.38 m
7.63 0 l
o
np
570.71 403.56 m
0 7.63 l
o
np
447.40 402.78 m
7.64 0 l
o
np
451.22 398.96 m
0 7.64 l
o
np
278.34 190.07 m
3.63 -6.29 l
-7.27 0 l
3.64 6.29 l
o
np
160.79 190.07 m
3.64 -6.29 l
-7.27 0 l
3.63 6.29 l
o
np
287.45 190.07 m
3.64 -6.29 l
-7.27 0 l
3.63 6.29 l
o
np
287.45 124.78 m
3.64 -6.30 l
-7.27 0 l
3.63 6.30 l
o
np
273.51 124.78 m
3.64 -6.30 l
-7.27 0 l
3.63 6.30 l
o
np
273.51 124.78 m
3.64 -6.30 l
-7.27 0 l
3.63 6.30 l
o
np
278.34 124.78 m
3.63 -6.30 l
-7.27 0 l
3.64 6.30 l
o
np
474.42 124.78 m
3.64 -6.30 l
-7.28 0 l
3.64 6.30 l
o
np
343.06 124.78 m
3.63 -6.30 l
-7.27 0 l
3.64 6.30 l
o
np
456.89 124.78 m
3.64 -6.30 l
-7.28 0 l
3.64 6.30 l
o
np
481.88 190.07 m
3.63 -6.29 l
-7.27 0 l
3.64 6.29 l
o
np
273.51 124.78 m
3.64 -6.30 l
-7.27 0 l
3.63 6.30 l
o
np
331.33 124.78 m
3.64 -6.30 l
-7.27 0 l
3.63 6.30 l
o
np
331.33 124.78 m
3.64 -6.30 l
-7.27 0 l
3.63 6.30 l
o
np
354.96 251.17 m
7.64 0 l
o
np
358.78 247.35 m
0 7.64 l
o
np
507.87 406.98 m
3.64 -6.30 l
-7.27 0 l
3.63 6.30 l
o
np
521.71 358.86 m
3.64 -6.30 l
-7.28 0 l
3.64 6.30 l
o
np
621.18 320.66 m
3.63 -6.29 l
-7.27 0 l
3.64 6.29 l
o
np
622.63 379.88 m
3.63 -6.30 l
-7.27 0 l
3.64 6.30 l
o
np
496.51 423.80 m
7.63 0 l
o
np
500.32 419.98 m
0 7.64 l
o
np
483.37 375.68 m
7.64 0 l
o
np
487.19 371.86 m
0 7.64 l
o
np
381.21 255.37 m
3.64 -6.30 l
-7.27 0 l
3.63 6.30 l
o
np
462.31 228.27 m
3.64 -6.30 l
-7.28 0 l
3.64 6.30 l
o
np
425.50 255.37 m
3.63 -6.30 l
-7.27 0 l
3.64 6.30 l
o
/bg { 1 1 1 srgb } def
132.76 445.94 99.54 -64.80 r p3
np
148.96 430.64 m
5.45 -9.45 l
-10.91 0 l
5.46 9.45 l
o
np
143.23 402.74 m
11.46 0 l
o
np
148.96 397.01 m
0 11.46 l
o
/Font1 findfont 18 s
165.16 417.88 (0 / hide) 0 0 t
165.16 396.28 (1 / flee) 0 0 t
32.40 32.40 809.49 562.88 cl
/Font2 findfont 14 s
0 0 0 srgb
435.34 528.33 (Classical) .5 0 t
ep
%%Trailer
%%Pages: 1
%%EOF
