%!PS-Adobe-3.0
%%DocumentNeededResources: font Helvetica
%%+ font Helvetica-Bold
%%+ font Helvetica-Oblique
%%+ font Helvetica-BoldOblique
%%+ font Symbol
%%DocumentMedia: a4 595 841 0 () ()
%%Title: R Graphics Output
%%Creator: R Software
%%Pages: (atend)
%%Orientation: Landscape
%%BoundingBox: 18 18 577 824
%%EndComments
%%BeginProlog
/bp  { gs sRGB 595.00 0 translate 90 rotate gs } def
% begin .ps.prolog
/gs  { gsave } bind def
/gr  { grestore } bind def
/ep  { showpage gr gr } bind def
/m   { moveto } bind def
/l  { rlineto } bind def
/np  { newpath } bind def
/cp  { closepath } bind def
/f   { fill } bind def
/o   { stroke } bind def
/c   { newpath 0 360 arc } bind def
/r   { 4 2 roll moveto 1 copy 3 -1 roll exch 0 exch rlineto 0 rlineto -1 mul 0 exch rlineto closepath } bind def
/p1  { stroke } bind def
/p2  { gsave bg fill grestore newpath } bind def
/p3  { gsave bg fill grestore stroke } bind def
/p6  { gsave bg eofill grestore newpath } bind def
/p7  { gsave bg eofill grestore stroke } bind def
/t   { 5 -2 roll moveto gsave rotate
       1 index stringwidth pop
       mul neg 0 rmoveto show grestore } bind def
/ta  { 4 -2 roll moveto gsave rotate show } bind def
/tb  { 2 -1 roll 0 rmoveto show } bind def
/cl  { grestore gsave newpath 3 index 3 index moveto 1 index
       4 -1 roll lineto  exch 1 index lineto lineto
       closepath clip newpath } bind def
/rgb { setrgbcolor } bind def
/s   { scalefont setfont } bind def
% end   .ps.prolog
/sRGB { [ /CIEBasedABC
          << /DecodeLMN
               [ { dup 0.03928 le
                        {12.92321 div}
                        {0.055 add 1.055 div 2.4 exp }
                     ifelse
                 } bind dup dup
               ]
             /MatrixLMN [0.412457 0.212673 0.019334
                         0.357576 0.715152 0.119192
                         0.180437 0.072175 0.950301]
             /WhitePoint [0.9505 1.0 1.0890]
           >>
         ] setcolorspace } bind def
/srgb { setcolor } bind def
%%IncludeResource: font Helvetica
/Helvetica findfont
dup length dict begin
  {1 index /FID ne {def} {pop pop} ifelse} forall
  /Encoding ISOLatin1Encoding def
  currentdict
  end
/Font1 exch definefont pop
%%IncludeResource: font Helvetica-Bold
/Helvetica-Bold findfont
dup length dict begin
  {1 index /FID ne {def} {pop pop} ifelse} forall
  /Encoding ISOLatin1Encoding def
  currentdict
  end
/Font2 exch definefont pop
%%IncludeResource: font Helvetica-Oblique
/Helvetica-Oblique findfont
dup length dict begin
  {1 index /FID ne {def} {pop pop} ifelse} forall
  /Encoding ISOLatin1Encoding def
  currentdict
  end
/Font3 exch definefont pop
%%IncludeResource: font Helvetica-BoldOblique
/Helvetica-BoldOblique findfont
dup length dict begin
  {1 index /FID ne {def} {pop pop} ifelse} forall
  /Encoding ISOLatin1Encoding def
  currentdict
  end
/Font4 exch definefont pop
%%IncludeResource: font Symbol
/Symbol findfont
dup length dict begin
  {1 index /FID ne {def} {pop pop} ifelse} forall
  currentdict
  end
/Font5 exch definefont pop
%%EndProlog
%%Page: 1 1
bp
32.40 32.40 809.49 562.88 cl
/Font1 findfont 12 s
0 0 0 srgb
435.34 51.12 (log body mass) .5 0 t
45.36 267.49 (log group siz) 90 ta
-0.180 (e) tb gr
91.44 105.84 779.25 503.84 cl
0 0 0 srgb
0.75 setlinewidth
[] 0 setdash
1 setlinecap
1 setlinejoin
10.00 setmiterlimit
np
163.13 135.47 m
-1.18 0.60 l
-6.14 3.12 l
-0.30 0.15 l
-6.43 3.34 l
-0.45 0.23 l
-5.98 3.17 l
-1.05 0.56 l
-5.39 2.89 l
-1.52 0.83 l
-4.91 2.68 l
-1.88 1.04 l
-4.55 2.54 l
-2.11 1.18 l
-4.33 2.45 l
o
np
166.44 133.87 m
-3.31 1.60 l
o
/Font1 findfont 18 s
163.62 128.05 ( -5 ) 0 -25.82 t
np
291.97 131.75 m
-1.37 0.52 l
-6.43 2.48 l
-1.83 0.72 l
-4.60 1.82 l
-4.76 1.90 l
-1.68 0.68 l
-6.43 2.63 l
-1.00 0.41 l
-5.43 2.28 l
-3.43 1.45 l
-3.00 1.28 l
-5.64 2.44 l
-0.80 0.35 l
-6.43 2.84 l
-1.19 0.53 l
-5.24 2.36 l
-2.98 1.36 l
-3.46 1.59 l
-4.57 2.14 l
-1.86 0.87 l
-6.00 2.85 l
-0.43 0.21 l
-6.43 3.11 l
-0.81 0.40 l
-5.63 2.78 l
-1.88 0.94 l
-4.55 2.30 l
-2.80 1.43 l
-3.63 1.86 l
-3.57 1.86 l
-2.87 1.50 l
-4.19 2.22 l
-2.24 1.19 l
-4.68 2.53 l
-1.75 0.96 l
-5.04 2.77 l
-1.39 0.77 l
-5.26 2.95 l
-1.18 0.66 l
-5.35 3.06 l
-1.08 0.62 l
-5.33 3.10 l
-1.10 0.65 l
-5.20 3.08 l
-1.24 0.73 l
-4.94 2.99 l
-1.49 0.90 l
-4.58 2.82 l
-1.85 1.14 l
-4.12 2.58 l
-2.32 1.46 l
o
np
294.01 131.01 m
-2.04 0.74 l
o
291.80 124.93 ( -4 ) 0 -19.98 t
np
530.43 120.58 m
-1.81 0.28 l
o
np
496.46 126.44 m
-6.44 1.23 l
-1.80 0.36 l
-4.63 0.92 l
-6.43 1.31 l
-6.43 1.36 l
-0.60 0.13 l
-5.84 1.27 l
-6.43 1.44 l
-4.38 1.01 l
-2.05 0.48 l
-6.44 1.52 l
-6.43 1.57 l
-0.60 0.15 l
-5.83 1.47 l
-6.43 1.65 l
-2.30 0.60 l
-4.14 1.10 l
-6.43 1.74 l
-3.18 0.89 l
-3.25 0.90 l
-6.44 1.84 l
-3.37 0.98 l
-3.06 0.90 l
-6.43 1.92 l
-2.95 0.90 l
-3.49 1.07 l
-6.43 2.02 l
-1.98 0.63 l
-4.45 1.44 l
-6.43 2.11 l
-0.54 0.18 l
-5.90 1.98 l
-5.07 1.74 l
-1.36 0.47 l
-6.43 2.26 l
-2.78 0.99 l
-3.66 1.32 l
-6.43 2.35 l
-0.13 0.05 l
-6.30 2.37 l
-3.56 1.36 l
-2.87 1.10 l
-6.44 2.51 l
-0.26 0.11 l
-6.17 2.46 l
-3.10 1.26 l
-3.33 1.37 l
-5.68 2.35 l
-0.76 0.32 l
-6.43 2.73 l
-1.56 0.68 l
-4.87 2.11 l
-3.64 1.61 l
-2.80 1.24 l
-5.50 2.48 l
-0.93 0.42 l
-6.43 2.96 l
-0.73 0.34 l
-5.70 2.69 l
-2.18 1.04 l
-4.26 2.04 l
-3.44 1.68 l
-2.99 1.46 l
-4.53 2.26 l
-1.90 0.95 l
-5.46 2.77 l
-0.98 0.50 l
-6.21 3.22 l
-0.22 0.12 l
-6.43 3.40 l
-0.38 0.21 l
-6.05 3.27 l
-0.83 0.45 l
-5.61 3.09 l
-1.13 0.63 l
-5.30 2.98 l
-1.31 0.74 l
-5.12 2.95 l
-1.35 0.78 l
-5.09 2.97 l
-1.25 0.75 l
-5.18 3.09 l
-1.05 0.63 l
-5.38 3.28 l
-0.73 0.44 l
-5.70 3.55 l
-0.29 0.18 l
-5.88 3.72 l
-0.27 0.17 l
-5.50 3.55 l
-0.93 0.60 l
-4.74 3.12 l
-1.69 1.12 l
-3.88 2.61 l
-2.56 1.72 l
-2.92 2.00 l
-3.51 2.42 l
-1.87 1.30 l
-4.56 3.20 l
122.62 280.64 lineto
-5.20 3.72 l
-0.51 0.37 l
o
np
498.54 126.07 m
-2.08 0.37 l
o
497.44 119.71 ( -3 ) 0 -9.84 t
np
753.78 162.03 m
-6.44 -0.31 l
-4.60 -0.19 l
-1.83 -0.08 l
-6.43 -0.23 l
-6.44 -0.19 l
-6.43 -0.15 l
-6.43 -0.11 l
o
np
683.01 160.84 m
-6.43 0.13 l
-6.43 0.17 l
-6.44 0.22 l
-4.24 0.17 l
-2.19 0.08 l
-6.43 0.30 l
-6.43 0.34 l
-6.44 0.38 l
-6.43 0.41 l
-6.43 0.46 l
-6.44 0.50 l
-6.43 0.54 l
-6.43 0.59 l
-1.28 0.12 l
-5.16 0.50 l
-6.43 0.67 l
-6.43 0.70 l
-6.43 0.75 l
-6.44 0.79 l
-2.40 0.31 l
-4.03 0.53 l
-6.43 0.87 l
-6.44 0.92 l
-6.43 0.96 l
-2.87 0.44 l
-3.56 0.56 l
-6.43 1.05 l
-6.44 1.09 l
-5.85 1.03 l
-0.58 0.10 l
-6.43 1.18 l
-6.44 1.22 l
-6.20 1.22 l
-0.23 0.04 l
-6.43 1.32 l
-6.44 1.35 l
-4.64 1.01 l
-1.79 0.39 l
-6.43 1.45 l
-6.43 1.49 l
-1.65 0.39 l
-4.79 1.15 l
-6.43 1.59 l
-3.91 0.99 l
-2.52 0.64 l
-6.44 1.68 l
-5.21 1.40 l
-1.22 0.33 l
-6.43 1.78 l
-5.70 1.61 l
-0.73 0.21 l
-6.44 1.88 l
-5.47 1.63 l
-0.96 0.29 l
-6.43 1.98 l
-4.63 1.46 l
-1.81 0.57 l
-6.43 2.08 l
-3.25 1.07 l
-3.18 1.06 l
-6.44 2.18 l
-1.38 0.48 l
-5.05 1.76 l
-5.52 1.96 l
-0.91 0.33 l
-6.43 2.35 l
-2.82 1.04 l
-3.62 1.36 l
-6.20 2.37 l
-0.23 0.08 l
-6.43 2.52 l
-2.80 1.12 l
-3.64 1.46 l
-5.54 2.26 l
-0.89 0.37 l
-6.43 2.69 l
-1.56 0.66 l
-4.87 2.10 l
-3.74 1.63 l
-2.70 1.18 l
-5.68 2.54 l
-0.75 0.34 l
-6.43 2.94 l
-0.96 0.44 l
-5.48 2.57 l
-2.43 1.15 l
-4.00 1.92 l
-3.71 1.81 l
-2.72 1.33 l
-4.80 2.39 l
-1.64 0.82 l
-5.70 2.90 l
-0.73 0.37 l
-6.43 3.35 l
0 0 l
-6.43 3.43 l
-0.55 0.30 l
-5.89 3.20 l
-0.94 0.52 l
239.14 276.25 lineto
-1.18 0.67 l
-5.25 2.98 l
-1.28 0.74 l
-5.16 3.00 l
-1.23 0.72 l
-5.20 3.09 l
-1.06 0.64 l
-5.37 3.26 l
-0.75 0.46 l
-5.68 3.52 l
-0.33 0.20 l
-5.88 3.72 l
-0.23 0.15 l
-5.53 3.58 l
-0.90 0.58 l
-4.75 3.14 l
-1.68 1.12 l
-3.86 2.60 l
-2.58 1.75 l
-2.86 1.97 l
-3.57 2.48 l
-1.77 1.25 l
-4.66 3.30 l
-0.58 0.42 l
-5.14 3.72 l
-0.71 0.52 l
-4.33 3.20 l
-2.11 1.57 l
-2.85 2.16 l
-3.58 2.72 l
-1.30 1.00 l
-4.79 3.72 l
-0.34 0.27 l
-4.35 3.45 l
-2.09 1.67 l
-2.53 2.06 l
-3.90 3.18 l
-0.65 0.54 l
-4.46 3.72 l
-1.32 1.12 l
-3.06 2.60 l
-3.38 2.91 l
o
np
684.65 160.83 m
-1.64 0.01 l
o
684.64 154.37 ( -2 ) 0 -0.11 t
np
753.78 220.80 m
-6.44 -0.35 l
-6.43 -0.30 l
-6.43 -0.25 l
-6.44 -0.21 l
-6.43 -0.17 l
-6.43 -0.12 l
o
np
683.01 219.47 m
-6.43 0.15 l
-6.43 0.19 l
-6.44 0.24 l
-6.43 0.28 l
-6.43 0.33 l
-6.43 0.37 l
-0.77 0.05 l
-5.67 0.38 l
-6.43 0.46 l
-6.43 0.51 l
-6.44 0.56 l
-6.43 0.60 l
-6.43 0.65 l
-5.29 0.57 l
-1.15 0.12 l
-6.43 0.74 l
-6.43 0.79 l
-6.43 0.84 l
-6.44 0.87 l
-2.46 0.36 l
-3.97 0.57 l
-6.43 0.98 l
-6.44 1.02 l
-6.43 1.07 l
-0.45 0.08 l
-5.98 1.05 l
-6.43 1.16 l
-6.44 1.22 l
-1.50 0.29 l
-4.93 0.98 l
-6.43 1.32 l
-6.44 1.36 l
-0.30 0.07 l
-6.13 1.35 l
-6.43 1.47 l
-3.83 0.90 l
-2.61 0.62 l
-6.43 1.57 l
-6.08 1.53 l
-0.35 0.09 l
-6.43 1.68 l
-6.44 1.73 l
-0.82 0.22 l
-5.61 1.56 l
-6.43 1.84 l
-1.12 0.33 l
-5.32 1.56 l
-6.43 1.95 l
-0.67 0.21 l
-5.76 1.80 l
-6.01 1.92 l
-0.42 0.14 l
-6.44 2.12 l
-4.32 1.46 l
-2.11 0.72 l
-6.43 2.24 l
-2.16 0.77 l
-4.28 1.53 l
-5.97 2.19 l
-0.46 0.17 l
-6.43 2.42 l
-2.94 1.13 l
-3.50 1.36 l
-5.98 2.36 l
-0.45 0.18 l
-6.43 2.62 l
-2.24 0.92 l
-4.19 1.76 l
-4.62 1.97 l
-1.82 0.78 l
-6.43 2.81 l
-0.29 0.13 l
-6.14 2.76 l
-2.11 0.96 l
-4.33 2.00 l
-3.68 1.72 l
-2.75 1.31 l
-5.03 2.42 l
-1.40 0.68 l
-6.16 3.04 l
-0.27 0.14 l
-6.44 3.25 l
-0.64 0.33 l
-5.79 3.01 l
-1.35 0.71 l
-5.08 2.71 l
-1.89 1.02 l
-4.55 2.48 l
-2.24 1.24 l
-4.19 2.34 l
-2.43 1.38 l
-4.00 2.29 l
-2.47 1.43 l
-3.97 2.33 l
-2.34 1.40 l
-4.09 2.45 l
-2.07 1.27 l
-4.36 2.68 l
-1.67 1.04 l
252.01 343.20 lineto
-1.13 0.72 l
-5.31 3.42 l
-0.46 0.31 l
-5.64 3.72 l
-0.33 0.22 l
-5.18 3.50 l
-1.25 0.85 l
-4.15 2.87 l
-2.29 1.60 l
-3.00 2.12 l
-3.43 2.46 l
-1.75 1.27 l
-4.68 3.42 l
-0.41 0.30 l
-4.97 3.72 l
-1.05 0.80 l
-3.83 2.92 l
-2.61 2.02 l
-2.17 1.71 l
-4.26 3.37 l
-0.44 0.35 l
-4.59 3.72 l
-1.40 1.15 l
-3.11 2.57 l
-3.33 2.78 l
-1.11 0.95 l
-4.34 3.72 l
-0.98 0.84 l
-3.28 2.88 l
-3.15 2.79 l
-1.04 0.93 l
-4.10 3.73 l
-1.29 1.18 l
-2.74 2.54 l
-3.70 3.47 l
-0.27 0.25 l
-3.87 3.72 l
-2.29 2.22 l
-1.53 1.50 l
-3.74 3.73 l
-1.16 1.16 l
-2.52 2.56 l
-3.61 3.72 l
-0.31 0.32 l
-3.23 3.40 l
-3.20 3.42 l
-0.29 0.31 l
-3.41 3.72 l
-2.73 3.02 l
-0.63 0.70 l
-3.28 3.72 l
-2.53 2.89 l
o
np
684.65 219.47 m
-1.64 0 l
o
684.64 213.00 ( -1 ) 0 -0.12 t
np
753.78 286.99 m
-6.44 -0.40 l
-6.43 -0.34 l
-6.43 -0.29 l
-6.44 -0.24 l
-6.43 -0.19 l
-6.43 -0.14 l
-6.44 -0.09 l
o
np
683.01 285.47 m
-6.43 0.17 l
-6.43 0.22 l
-6.44 0.27 l
-6.43 0.33 l
-6.43 0.38 l
-6.43 0.42 l
-6.44 0.48 l
-4.20 0.35 l
-2.23 0.18 l
-6.43 0.59 l
-6.44 0.64 l
-6.43 0.69 l
-6.43 0.74 l
-6.44 0.79 l
-0.67 0.09 l
-5.76 0.76 l
-6.43 0.91 l
-6.43 0.95 l
-6.44 1.01 l
-0.54 0.09 l
-5.89 0.98 l
-6.43 1.12 l
-6.44 1.18 l
-2.33 0.44 l
-4.10 0.79 l
-6.43 1.29 l
-6.43 1.35 l
-1.38 0.30 l
-5.06 1.11 l
-6.43 1.46 l
-4.88 1.15 l
-1.55 0.37 l
-6.44 1.58 l
-6.43 1.64 l
-0.51 0.13 l
-5.92 1.57 l
-6.44 1.76 l
-1.38 0.39 l
-5.05 1.44 l
-6.43 1.88 l
-1.34 0.41 l
-5.09 1.55 l
-6.44 2.01 l
-0.49 0.16 l
-5.94 1.92 l
-5.40 1.80 l
-1.03 0.35 l
-6.44 2.22 l
-3.27 1.15 l
-3.16 1.13 l
-6.43 2.35 l
-0.66 0.25 l
-5.77 2.18 l
-3.99 1.54 l
-2.45 0.95 l
-6.43 2.57 l
-0.50 0.20 l
-5.93 2.45 l
-3.04 1.27 l
-3.40 1.45 l
-5.25 2.28 l
-1.18 0.51 l
-6.43 2.88 l
-0.72 0.33 l
-5.72 2.63 l
-2.31 1.09 l
-4.12 1.95 l
-3.65 1.77 l
-2.78 1.36 l
-4.75 2.36 l
-1.68 0.85 l
-5.61 2.88 l
-0.83 0.43 l
-6.24 3.29 l
-0.19 0.10 l
-6.43 3.49 l
-0.24 0.13 l
-6.20 3.46 l
-0.47 0.26 l
-5.96 3.42 l
-0.52 0.31 l
-5.91 3.48 l
-0.40 0.24 l
-6.03 3.65 l
-0.11 0.07 l
-5.99 3.72 l
-0.34 0.22 l
-5.49 3.51 l
-0.94 0.61 l
-4.74 3.11 l
-1.69 1.12 l
-3.86 2.60 l
-2.58 1.76 l
-2.83 1.96 l
-3.60 2.52 l
-1.70 1.21 l
-4.73 3.40 l
-0.44 0.32 l
-5.04 3.72 l
271.30 419.08 lineto
-3.97 3.01 l
-2.46 1.88 l
-2.37 1.84 l
-4.06 3.20 l
-0.66 0.53 l
-4.61 3.72 l
-1.16 0.95 l
-3.34 2.77 l
-3.10 2.60 l
-1.32 1.12 l
-4.33 3.73 l
-0.78 0.68 l
-3.44 3.04 l
-2.99 2.68 l
-1.15 1.04 l
-4.05 3.72 l
-1.24 1.15 l
-2.72 2.58 l
-3.71 3.54 l
-0.19 0.18 l
-3.79 3.72 l
-2.45 2.44 l
-1.28 1.28 l
-3.64 3.73 l
-1.51 1.56 l
-2.06 2.16 l
-3.51 3.72 l
-0.87 0.94 l
-2.55 2.78 l
-3.36 3.73 l
o
np
688.73 285.43 m
-5.72 0.04 l
o
688.69 278.97 ( 0 ) 0 -0.37 t
np
753.78 364.43 m
-6.44 -0.47 l
-6.43 -0.42 l
-6.43 -0.35 l
-6.44 -0.29 l
-6.43 -0.23 l
-5.35 -0.14 l
-1.08 -0.02 l
-6.44 -0.11 l
o
np
686.09 362.53 m
-3.08 0.07 l
-6.43 0.21 l
-6.43 0.26 l
-6.44 0.33 l
-6.43 0.39 l
-6.43 0.46 l
-6.43 0.51 l
-6.44 0.58 l
-6.43 0.63 l
-2.60 0.29 l
-3.83 0.42 l
-6.44 0.77 l
-6.43 0.83 l
-6.43 0.89 l
-5.43 0.81 l
-1.01 0.15 l
-6.43 1.03 l
-6.43 1.09 l
-6.43 1.16 l
-1.56 0.29 l
-4.88 0.93 l
-6.43 1.30 l
-6.43 1.36 l
-0.62 0.13 l
-5.82 1.30 l
-6.43 1.50 l
-3.80 0.93 l
-2.63 0.64 l
-6.43 1.65 l
-5.38 1.43 l
-1.06 0.28 l
-6.43 1.80 l
-5.69 1.64 l
-0.74 0.22 l
-6.44 1.94 l
-4.98 1.56 l
-1.45 0.46 l
-6.43 2.10 l
-3.46 1.17 l
-2.98 1.01 l
-6.43 2.26 l
-1.25 0.45 l
-5.18 1.89 l
-4.86 1.83 l
-1.57 0.60 l
-6.44 2.51 l
-1.52 0.61 l
-4.91 2.00 l
-4.14 1.73 l
-2.29 0.96 l
-6.38 2.76 l
-0.06 0.02 l
-6.43 2.89 l
-1.76 0.81 l
-4.67 2.17 l
-3.26 1.55 l
-3.17 1.53 l
-4.45 2.19 l
-1.99 0.99 l
-5.35 2.74 l
-1.08 0.55 l
-6.00 3.17 l
-0.43 0.23 l
-6.40 3.49 l
-0.04 0.02 l
-6.43 3.63 l
-0.12 0.07 l
-6.31 3.69 l
-0.07 0.04 l
-6.17 3.72 l
-0.20 0.12 l
-5.79 3.60 l
-0.64 0.41 l
-5.16 3.31 l
-1.27 0.83 l
-4.36 2.90 l
-2.07 1.39 l
-3.39 2.33 l
-3.05 2.11 l
-2.27 1.61 l
-4.16 2.98 l
-1.01 0.74 l
-5.03 3.73 l
-0.39 0.29 l
-4.50 3.43 l
-1.94 1.50 l
-2.81 2.22 l
-3.62 2.89 l
-1.02 0.83 l
-4.52 3.73 l
o
np
688.73 362.52 m
-2.64 0.01 l
o
688.69 356.06 ( 1 ) 0 -0.33 t
np
753.78 462.12 m
-6.44 -0.64 l
-6.43 -0.55 l
-6.43 -0.47 l
-6.44 -0.39 l
-6.43 -0.31 l
-6.43 -0.22 l
-6.44 -0.14 l
o
np
683.01 459.67 m
-6.43 0.27 l
-6.43 0.36 l
-6.44 0.44 l
-6.43 0.52 l
-6.43 0.61 l
-6.43 0.68 l
-4.05 0.49 l
-2.39 0.29 l
-6.43 0.86 l
-6.43 0.95 l
-6.44 1.03 l
-3.39 0.59 l
-3.04 0.54 l
-6.43 1.21 l
-6.44 1.30 l
-3.12 0.67 l
-3.31 0.73 l
-6.43 1.49 l
-6.16 1.51 l
-0.27 0.06 l
-6.44 1.69 l
-6.43 1.77 l
-0.69 0.20 l
-5.74 1.68 l
-6.44 1.98 l
-0.20 0.06 l
-6.23 2.03 l
-5.00 1.69 l
-1.43 0.49 l
-6.43 2.31 l
-2.50 0.93 l
o
np
708.74 459.40 m
-5.71 0.06 l
o
682.95 453.21 ( 2 ) 0 -0.60 t
18.00 18.00 823.89 577.28 cl
0 0 0 srgb
0.75 setlinewidth
[] 0 setdash
1 setlinecap
1 setlinejoin
10.00 setmiterlimit
np
104.43 105.84 m
566.52 0 l
o
np
104.43 105.84 m
0 -7.20 l
o
np
246.06 105.84 m
0 -7.20 l
o
np
387.69 105.84 m
0 -7.20 l
o
np
529.32 105.84 m
0 -7.20 l
o
np
670.95 105.84 m
0 -7.20 l
o
/Font1 findfont 12 s
104.43 79.92 (0.5) .5 0 t
246.06 79.92 (1.0) .5 0 t
387.69 79.92 (1.5) .5 0 t
529.32 79.92 (2.0) .5 0 t
670.95 79.92 (2.5) .5 0 t
np
91.44 120.58 m
0 325.36 l
o
np
91.44 120.58 m
-7.20 0 l
o
np
91.44 229.03 m
-7.20 0 l
o
np
91.44 337.49 m
-7.20 0 l
o
np
91.44 445.94 m
-7.20 0 l
o
74.16 120.58 (0.0) .5 90 t
74.16 229.03 (0.5) .5 90 t
74.16 337.49 (1.0) .5 90 t
74.16 445.94 (1.5) .5 90 t
np
91.44 105.84 m
687.81 0 l
0 398.00 l
-687.81 0 l
0 -398.00 l
o
91.44 105.84 779.25 503.84 cl
0 0 0 srgb
0.75 setlinewidth
[] 0 setdash
1 setlinecap
1 setlinejoin
10.00 setmiterlimit
np
664.47 406.98 m
3.64 -6.30 l
-7.27 0 l
3.63 6.30 l
o
np
749.96 489.10 m
7.63 0 l
o
np
753.78 485.28 m
0 7.63 l
o
np
639.56 293.56 m
3.63 -6.29 l
-7.27 0 l
3.64 6.29 l
o
np
474.42 190.07 m
3.64 -6.29 l
-7.28 0 l
3.64 6.29 l
o
np
501.87 190.07 m
3.64 -6.29 l
-7.27 0 l
3.63 6.29 l
o
np
504.91 276.39 m
3.64 -6.30 l
-7.28 0 l
3.64 6.30 l
o
np
509.33 385.96 m
3.64 -6.30 l
-7.28 0 l
3.64 6.30 l
o
np
631.79 385.96 m
3.63 -6.30 l
-7.27 0 l
3.64 6.30 l
o
np
741.75 402.78 m
7.64 0 l
o
np
745.57 398.96 m
0 7.64 l
o
np
717.18 479.17 m
7.64 0 l
o
np
721.00 475.35 m
0 7.64 l
o
np
617.63 320.66 m
3.64 -6.29 l
-7.28 0 l
3.64 6.29 l
o
np
300.06 185.88 m
7.64 0 l
o
np
303.88 182.06 m
0 7.63 l
o
np
147.83 190.07 m
3.64 -6.29 l
-7.28 0 l
3.64 6.29 l
o
np
116.91 190.07 m
3.64 -6.29 l
-7.27 0 l
3.63 6.29 l
o
np
116.91 190.07 m
3.64 -6.29 l
-7.27 0 l
3.63 6.29 l
o
np
233.10 124.78 m
3.64 -6.30 l
-7.28 0 l
3.64 6.30 l
o
np
257.79 124.78 m
3.63 -6.30 l
-7.27 0 l
3.64 6.30 l
o
np
287.45 162.97 m
3.64 -6.29 l
-7.27 0 l
3.63 6.29 l
o
np
116.91 162.97 m
3.64 -6.29 l
-7.27 0 l
3.63 6.29 l
o
np
160.79 162.97 m
3.64 -6.29 l
-7.27 0 l
3.63 6.29 l
o
np
218.61 162.97 m
3.64 -6.29 l
-7.28 0 l
3.64 6.29 l
o
np
368.25 276.39 m
3.64 -6.30 l
-7.28 0 l
3.64 6.30 l
o
np
291.77 228.27 m
3.64 -6.30 l
-7.28 0 l
3.64 6.30 l
o
np
364.43 289.37 m
7.64 0 l
o
np
368.25 285.55 m
0 7.63 l
o
np
451.96 337.49 m
7.64 0 l
o
np
455.78 333.67 m
0 7.63 l
o
np
342.00 434.48 m
7.64 0 l
o
np
345.82 430.66 m
0 7.63 l
o
np
314.55 316.46 m
7.64 0 l
o
np
318.37 312.65 m
0 7.63 l
o
np
366.69 272.19 m
7.64 0 l
o
np
370.51 268.37 m
0 7.64 l
o
np
336.41 289.37 m
7.64 0 l
o
np
340.23 285.55 m
0 7.63 l
o
np
314.55 272.19 m
7.64 0 l
o
np
318.37 268.37 m
0 7.64 l
o
np
427.27 303.89 m
7.64 0 l
o
np
431.09 300.07 m
0 7.63 l
o
np
486.79 289.37 m
7.64 0 l
o
np
490.61 285.55 m
0 7.63 l
o
np
368.91 419.95 m
7.63 0 l
o
np
372.72 416.14 m
0 7.63 l
o
np
381.43 224.07 m
7.63 0 l
o
np
385.25 220.25 m
0 7.64 l
o
np
406.47 224.07 m
7.64 0 l
o
np
410.29 220.25 m
0 7.64 l
o
np
613.21 354.66 m
7.64 0 l
o
np
617.03 350.84 m
0 7.64 l
o
np
590.06 369.18 m
7.63 0 l
o
np
593.87 365.36 m
0 7.64 l
o
np
589.33 415.95 m
7.63 0 l
o
np
593.14 412.13 m
0 7.63 l
o
np
512.54 402.78 m
7.64 0 l
o
np
516.36 398.96 m
0 7.64 l
o
np
626.89 402.78 m
7.64 0 l
o
np
630.71 398.96 m
0 7.64 l
o
np
647.69 362.20 m
7.64 0 l
o
np
651.51 358.38 m
0 7.64 l
o
np
474.39 316.46 m
7.63 0 l
o
np
478.21 312.65 m
0 7.63 l
o
np
546.90 289.37 m
7.64 0 l
o
np
550.72 285.55 m
0 7.63 l
o
np
541.08 392.85 m
7.64 0 l
o
np
544.90 389.04 m
0 7.63 l
o
np
486.79 392.85 m
7.64 0 l
o
np
490.61 389.04 m
0 7.63 l
o
np
561.51 337.49 m
7.63 0 l
o
np
565.33 333.67 m
0 7.63 l
o
np
568.64 354.66 m
7.64 0 l
o
np
572.46 350.84 m
0 7.64 l
o
np
559.19 337.49 m
7.64 0 l
o
np
563.01 333.67 m
0 7.63 l
o
np
619.10 375.68 m
7.63 0 l
o
np
622.92 371.86 m
0 7.64 l
o
np
566.90 407.38 m
7.63 0 l
o
np
570.71 403.56 m
0 7.63 l
o
np
447.40 402.78 m
7.64 0 l
o
np
451.22 398.96 m
0 7.64 l
o
np
278.34 190.07 m
3.63 -6.29 l
-7.27 0 l
3.64 6.29 l
o
np
160.79 190.07 m
3.64 -6.29 l
-7.27 0 l
3.63 6.29 l
o
np
287.45 190.07 m
3.64 -6.29 l
-7.27 0 l
3.63 6.29 l
o
np
287.45 124.78 m
3.64 -6.30 l
-7.27 0 l
3.63 6.30 l
o
np
273.51 124.78 m
3.64 -6.30 l
-7.27 0 l
3.63 6.30 l
o
np
273.51 124.78 m
3.64 -6.30 l
-7.27 0 l
3.63 6.30 l
o
np
278.34 124.78 m
3.63 -6.30 l
-7.27 0 l
3.64 6.30 l
o
np
474.42 124.78 m
3.64 -6.30 l
-7.28 0 l
3.64 6.30 l
o
np
343.06 124.78 m
3.63 -6.30 l
-7.27 0 l
3.64 6.30 l
o
np
456.89 124.78 m
3.64 -6.30 l
-7.28 0 l
3.64 6.30 l
o
np
481.88 190.07 m
3.63 -6.29 l
-7.27 0 l
3.64 6.29 l
o
np
273.51 124.78 m
3.64 -6.30 l
-7.27 0 l
3.63 6.30 l
o
np
331.33 124.78 m
3.64 -6.30 l
-7.27 0 l
3.63 6.30 l
o
np
331.33 124.78 m
3.64 -6.30 l
-7.27 0 l
3.63 6.30 l
o
np
354.96 251.17 m
7.64 0 l
o
np
358.78 247.35 m
0 7.64 l
o
np
507.87 406.98 m
3.64 -6.30 l
-7.27 0 l
3.63 6.30 l
o
np
521.71 358.86 m
3.64 -6.30 l
-7.28 0 l
3.64 6.30 l
o
np
621.18 320.66 m
3.63 -6.29 l
-7.27 0 l
3.64 6.29 l
o
np
622.63 379.88 m
3.63 -6.30 l
-7.27 0 l
3.64 6.30 l
o
np
496.51 423.80 m
7.63 0 l
o
np
500.32 419.98 m
0 7.64 l
o
np
483.37 375.68 m
7.64 0 l
o
np
487.19 371.86 m
0 7.64 l
o
np
381.21 255.37 m
3.64 -6.30 l
-7.27 0 l
3.63 6.30 l
o
np
462.31 228.27 m
3.64 -6.30 l
-7.28 0 l
3.64 6.30 l
o
np
425.50 255.37 m
3.63 -6.30 l
-7.27 0 l
3.64 6.30 l
o
/bg { 1 1 1 srgb } def
132.76 445.94 99.54 -64.80 r p3
np
148.96 430.64 m
5.45 -9.45 l
-10.91 0 l
5.46 9.45 l
o
np
143.23 402.74 m
11.46 0 l
o
np
148.96 397.01 m
0 11.46 l
o
/Font1 findfont 18 s
165.16 417.88 (0 / hide) 0 0 t
165.16 396.28 (1 / flee) 0 0 t
32.40 32.40 809.49 562.88 cl
/Font2 findfont 14 s
0 0 0 srgb
391.78 528.33 (Ph) 0 ta
-0.280 (ylog) tb
0.140 (enetic) tb gr
ep
%%Trailer
%%Pages: 1
%%EOF
