%!PS-Adobe-3.0
%%DocumentNeededResources: font Helvetica
%%+ font Helvetica-Bold
%%+ font Helvetica-Oblique
%%+ font Helvetica-BoldOblique
%%+ font Symbol
%%DocumentMedia: a4 595 841 0 () ()
%%Title: R Graphics Output
%%Creator: R Software
%%Pages: (atend)
%%Orientation: Landscape
%%BoundingBox: 18 18 577 824
%%EndComments
%%BeginProlog
/bp  { gs sRGB 595.00 0 translate 90 rotate gs } def
% begin .ps.prolog
/gs  { gsave } bind def
/gr  { grestore } bind def
/ep  { showpage gr gr } bind def
/m   { moveto } bind def
/l  { rlineto } bind def
/np  { newpath } bind def
/cp  { closepath } bind def
/f   { fill } bind def
/o   { stroke } bind def
/c   { newpath 0 360 arc } bind def
/r   { 4 2 roll moveto 1 copy 3 -1 roll exch 0 exch rlineto 0 rlineto -1 mul 0 exch rlineto closepath } bind def
/p1  { stroke } bind def
/p2  { gsave bg fill grestore newpath } bind def
/p3  { gsave bg fill grestore stroke } bind def
/p6  { gsave bg eofill grestore newpath } bind def
/p7  { gsave bg eofill grestore stroke } bind def
/t   { 5 -2 roll moveto gsave rotate
       1 index stringwidth pop
       mul neg 0 rmoveto show grestore } bind def
/ta  { 4 -2 roll moveto gsave rotate show } bind def
/tb  { 2 -1 roll 0 rmoveto show } bind def
/cl  { grestore gsave newpath 3 index 3 index moveto 1 index
       4 -1 roll lineto  exch 1 index lineto lineto
       closepath clip newpath } bind def
/rgb { setrgbcolor } bind def
/s   { scalefont setfont } bind def
% end   .ps.prolog
/sRGB { [ /CIEBasedABC
          << /DecodeLMN
               [ { dup 0.03928 le
                        {12.92321 div}
                        {0.055 add 1.055 div 2.4 exp }
                     ifelse
                 } bind dup dup
               ]
             /MatrixLMN [0.412457 0.212673 0.019334
                         0.357576 0.715152 0.119192
                         0.180437 0.072175 0.950301]
             /WhitePoint [0.9505 1.0 1.0890]
           >>
         ] setcolorspace } bind def
/srgb { setcolor } bind def
%%IncludeResource: font Helvetica
/Helvetica findfont
dup length dict begin
  {1 index /FID ne {def} {pop pop} ifelse} forall
  /Encoding ISOLatin1Encoding def
  currentdict
  end
/Font1 exch definefont pop
%%IncludeResource: font Helvetica-Bold
/Helvetica-Bold findfont
dup length dict begin
  {1 index /FID ne {def} {pop pop} ifelse} forall
  /Encoding ISOLatin1Encoding def
  currentdict
  end
/Font2 exch definefont pop
%%IncludeResource: font Helvetica-Oblique
/Helvetica-Oblique findfont
dup length dict begin
  {1 index /FID ne {def} {pop pop} ifelse} forall
  /Encoding ISOLatin1Encoding def
  currentdict
  end
/Font3 exch definefont pop
%%IncludeResource: font Helvetica-BoldOblique
/Helvetica-BoldOblique findfont
dup length dict begin
  {1 index /FID ne {def} {pop pop} ifelse} forall
  /Encoding ISOLatin1Encoding def
  currentdict
  end
/Font4 exch definefont pop
%%IncludeResource: font Symbol
/Symbol findfont
dup length dict begin
  {1 index /FID ne {def} {pop pop} ifelse} forall
  currentdict
  end
/Font5 exch definefont pop
%%EndProlog
%%Page: 1 1
bp
18.00 18.00 823.89 577.28 cl
77.04 91.44 793.65 518.24 cl
0 0 0 srgb
0.75 setlinewidth
[] 0 setdash
1 setlinecap
1 setlinejoin
10.00 setmiterlimit
np
103.58 119.91 m
105.89 0 l
o
np
209.47 109.92 m
450.05 0 l
o
np
659.52 107.25 m
26.47 0 l
o
np
659.52 112.59 m
26.47 0 l
o
np
209.47 129.90 m
238.26 0 l
o
np
447.73 120.60 m
105.89 0 l
o
np
553.62 117.93 m
132.37 0 l
o
np
553.62 123.27 m
132.37 0 l
o
np
447.73 139.21 m
26.48 0 l
o
np
474.21 128.61 m
211.78 0 l
o
np
474.21 149.80 m
26.47 0 l
o
np
500.68 138.96 m
26.47 0 l
o
np
527.15 133.95 m
158.84 0 l
o
np
527.15 143.96 m
26.47 0 l
o
np
553.62 139.29 m
132.37 0 l
o
np
553.62 148.63 m
26.48 0 l
o
np
580.10 144.63 m
105.89 0 l
o
np
580.10 152.64 m
52.94 0 l
o
np
633.04 149.97 m
52.95 0 l
o
np
633.04 155.31 m
52.95 0 l
o
np
500.68 160.65 m
185.31 0 l
o
np
103.58 362.72 m
52.95 0 l
o
np
156.53 286.14 m
52.94 0 l
o
np
209.47 220.79 m
211.79 0 l
o
np
421.26 177.00 m
132.36 0 l
o
np
553.62 165.99 m
132.37 0 l
o
np
553.62 188.02 m
26.48 0 l
o
np
580.10 175.34 m
52.94 0 l
o
np
633.04 171.33 m
52.95 0 l
o
np
633.04 179.34 m
26.48 0 l
o
np
659.52 176.67 m
26.47 0 l
o
np
659.52 182.01 m
26.47 0 l
o
np
580.10 200.70 m
26.47 0 l
o
np
606.57 191.36 m
26.47 0 l
o
np
633.04 187.35 m
52.95 0 l
o
np
633.04 195.36 m
26.48 0 l
o
np
659.52 192.69 m
26.47 0 l
o
np
659.52 198.03 m
26.47 0 l
o
np
606.57 210.05 m
26.47 0 l
o
np
633.04 206.04 m
26.48 0 l
o
np
659.52 203.37 m
26.47 0 l
o
np
659.52 208.71 m
26.47 0 l
o
np
633.04 214.05 m
52.95 0 l
o
np
421.26 264.57 m
79.42 0 l
o
np
500.68 240.33 m
26.47 0 l
o
np
527.15 219.39 m
158.84 0 l
o
np
527.15 261.26 m
26.47 0 l
o
np
553.62 241.71 m
26.48 0 l
o
np
580.10 224.73 m
105.89 0 l
o
np
580.10 258.69 m
0 0 l
o
np
580.10 247.26 m
26.47 0 l
o
np
606.57 235.08 m
26.47 0 l
o
np
633.04 230.07 m
52.95 0 l
o
np
633.04 240.09 m
0 0 l
o
np
633.04 235.41 m
52.95 0 l
o
np
633.04 244.76 m
13.24 0 l
o
np
646.28 240.75 m
39.71 0 l
o
np
646.28 248.76 m
13.24 0 l
o
np
659.52 246.09 m
26.47 0 l
o
np
659.52 251.43 m
26.47 0 l
o
np
606.57 259.45 m
52.95 0 l
o
np
659.52 256.78 m
26.47 0 l
o
np
659.52 262.12 m
26.47 0 l
o
np
580.10 270.13 m
26.47 0 l
o
np
606.57 267.46 m
79.42 0 l
o
np
606.57 272.80 m
79.42 0 l
o
np
553.62 280.81 m
26.48 0 l
o
np
580.10 278.14 m
105.89 0 l
o
np
580.10 283.48 m
105.89 0 l
o
np
500.68 288.82 m
185.31 0 l
o
np
209.47 351.48 m
52.95 0 l
o
np
262.42 328.70 m
291.20 0 l
o
np
553.62 311.18 m
26.48 0 l
o
np
580.10 304.17 m
26.47 0 l
o
np
606.57 298.16 m
26.47 0 l
o
np
633.04 294.16 m
52.95 0 l
o
np
633.04 302.17 m
26.48 0 l
o
np
659.52 299.50 m
26.47 0 l
o
np
659.52 304.84 m
26.47 0 l
o
np
606.57 310.18 m
79.42 0 l
o
np
580.10 318.19 m
39.71 0 l
o
np
619.81 315.52 m
66.18 0 l
o
np
619.81 320.86 m
66.18 0 l
o
np
553.62 346.23 m
26.48 0 l
o
np
580.10 336.21 m
52.94 0 l
o
np
633.04 330.20 m
26.48 0 l
o
np
659.52 326.20 m
26.47 0 l
o
np
659.52 334.21 m
13.23 0 l
o
np
672.75 331.54 m
13.24 0 l
o
np
672.75 336.88 m
13.24 0 l
o
np
633.04 342.22 m
52.95 0 l
o
np
580.10 356.24 m
39.71 0 l
o
np
619.81 350.23 m
52.94 0 l
o
np
672.75 347.56 m
13.24 0 l
o
np
672.75 352.90 m
13.24 0 l
o
np
619.81 362.25 m
13.23 0 l
o
np
633.04 358.24 m
52.95 0 l
o
np
633.04 366.25 m
26.48 0 l
o
np
659.52 363.58 m
26.47 0 l
o
np
659.52 368.92 m
26.47 0 l
o
np
262.42 374.26 m
423.57 0 l
o
np
156.53 439.30 m
105.89 0 l
o
np
262.42 408.56 m
317.68 0 l
o
np
580.10 388.28 m
26.47 0 l
o
np
606.57 382.27 m
26.47 0 l
o
np
633.04 379.60 m
52.95 0 l
o
np
633.04 384.94 m
52.95 0 l
o
np
606.57 394.29 m
52.95 0 l
o
np
659.52 390.28 m
26.47 0 l
o
np
659.52 398.29 m
0 0 l
o
np
659.52 395.62 m
26.47 0 l
o
np
659.52 400.96 m
26.47 0 l
o
np
580.10 428.83 m
26.47 0 l
o
np
606.57 415.31 m
13.24 0 l
o
np
619.81 408.97 m
39.71 0 l
o
np
659.52 406.30 m
26.47 0 l
o
np
659.52 411.64 m
26.47 0 l
o
np
619.81 421.66 m
13.23 0 l
o
np
633.04 416.98 m
52.95 0 l
o
np
633.04 426.33 m
13.24 0 l
o
np
646.28 422.32 m
39.71 0 l
o
np
646.28 430.33 m
13.24 0 l
o
np
659.52 427.66 m
26.47 0 l
o
np
659.52 433.00 m
26.47 0 l
o
np
606.57 442.35 m
26.47 0 l
o
np
633.04 438.34 m
52.95 0 l
o
np
633.04 446.36 m
26.48 0 l
o
np
659.52 443.69 m
26.47 0 l
o
np
659.52 449.03 m
26.47 0 l
o
np
262.42 470.05 m
52.95 0 l
o
np
315.37 454.37 m
370.62 0 l
o
np
315.37 485.74 m
238.25 0 l
o
np
553.62 475.73 m
52.95 0 l
o
np
606.57 467.72 m
26.47 0 l
o
np
633.04 462.38 m
26.48 0 l
o
np
659.52 459.71 m
26.47 0 l
o
np
659.52 465.05 m
26.47 0 l
o
np
633.04 473.06 m
39.71 0 l
o
np
672.75 470.39 m
13.24 0 l
o
np
672.75 475.73 m
13.24 0 l
o
np
606.57 483.74 m
52.95 0 l
o
np
659.52 481.07 m
26.47 0 l
o
np
659.52 486.41 m
26.47 0 l
o
np
553.62 495.75 m
79.42 0 l
o
np
633.04 491.75 m
52.95 0 l
o
np
633.04 499.76 m
26.48 0 l
o
np
659.52 497.09 m
26.47 0 l
o
np
659.52 502.43 m
26.47 0 l
o
np
103.58 119.91 m
0 242.81 l
o
np
209.47 109.92 m
0 19.98 l
o
np
659.52 107.25 m
0 5.34 l
o
np
447.73 120.60 m
0 18.61 l
o
np
553.62 117.93 m
0 5.34 l
o
np
474.21 128.61 m
0 21.19 l
o
np
500.68 138.96 m
0 21.69 l
o
np
527.15 133.95 m
0 10.01 l
o
np
553.62 139.29 m
0 9.34 l
o
np
580.10 144.63 m
0 8.01 l
o
np
633.04 149.97 m
0 5.34 l
o
np
156.53 286.14 m
0 153.16 l
o
np
209.47 220.79 m
0 130.69 l
o
np
421.26 177.00 m
0 87.57 l
o
np
553.62 165.99 m
0 22.03 l
o
np
580.10 175.34 m
0 25.36 l
o
np
633.04 171.33 m
0 8.01 l
o
np
659.52 176.67 m
0 5.34 l
o
np
606.57 191.36 m
0 18.69 l
o
np
633.04 187.35 m
0 8.01 l
o
np
659.52 192.69 m
0 5.34 l
o
np
633.04 206.04 m
0 8.01 l
o
np
659.52 203.37 m
0 5.34 l
o
np
500.68 240.33 m
0 48.49 l
o
np
527.15 219.39 m
0 41.87 l
o
np
553.62 241.71 m
0 39.10 l
o
np
580.10 224.73 m
0 33.96 l
o
np
580.10 247.26 m
0 22.87 l
o
np
606.57 235.08 m
0 24.37 l
o
np
633.04 230.07 m
0 10.02 l
o
np
633.04 235.41 m
0 9.35 l
o
np
646.28 240.75 m
0 8.01 l
o
np
659.52 246.09 m
0 5.34 l
o
np
659.52 256.78 m
0 5.34 l
o
np
606.57 267.46 m
0 5.34 l
o
np
580.10 278.14 m
0 5.34 l
o
np
262.42 328.70 m
0 45.56 l
o
np
553.62 311.18 m
0 35.05 l
o
np
580.10 304.17 m
0 14.02 l
o
np
606.57 298.16 m
0 12.02 l
o
np
633.04 294.16 m
0 8.01 l
o
np
659.52 299.50 m
0 5.34 l
o
np
619.81 315.52 m
0 5.34 l
o
np
580.10 336.21 m
0 20.03 l
o
np
633.04 330.20 m
0 12.02 l
o
np
659.52 326.20 m
0 8.01 l
o
np
672.75 331.54 m
0 5.34 l
o
np
619.81 350.23 m
0 12.02 l
o
np
672.75 347.56 m
0 5.34 l
o
np
633.04 358.24 m
0 8.01 l
o
np
659.52 363.58 m
0 5.34 l
o
np
262.42 408.56 m
0 61.49 l
o
np
580.10 388.28 m
0 40.55 l
o
np
606.57 382.27 m
0 12.02 l
o
np
633.04 379.60 m
0 5.34 l
o
np
659.52 390.28 m
0 8.01 l
o
np
659.52 395.62 m
0 5.34 l
o
np
606.57 415.31 m
0 27.04 l
o
np
619.81 408.97 m
0 12.69 l
o
np
659.52 406.30 m
0 5.34 l
o
np
633.04 416.98 m
0 9.35 l
o
np
646.28 422.32 m
0 8.01 l
o
np
659.52 427.66 m
0 5.34 l
o
np
633.04 438.34 m
0 8.02 l
o
np
659.52 443.69 m
0 5.34 l
o
np
315.37 454.37 m
0 31.37 l
o
np
553.62 475.73 m
0 20.02 l
o
np
606.57 467.72 m
0 16.02 l
o
np
633.04 462.38 m
0 10.68 l
o
np
659.52 459.71 m
0 5.34 l
o
np
672.75 470.39 m
0 5.34 l
o
np
659.52 481.07 m
0 5.34 l
o
np
633.04 491.75 m
0 8.01 l
o
np
659.52 497.09 m
0 5.34 l
o
/Font3 findfont 4 s
685.99 106.20 (Syncer) 0 ta
0.060 (us caff) tb
-0.120 (er \(f) tb
-0.120 (orest\)) tb gr
685.99 111.54 (Syncer) 0 ta
0.060 (us caff) tb
-0.120 (er \(plains\)) tb gr
685.99 116.93 (T) 0 ta
-0.480 (r) tb
-0.040 (agelaphus eur) tb
0.120 (yceros) tb gr
685.99 122.27 (T) 0 ta
-0.480 (r) tb
-0.040 (agelaphus scr) tb
0.060 (iptus) tb gr
685.99 127.61 (T) 0 ta
-0.480 (r) tb
-0.040 (agelaphus spek) tb
-0.080 (ei) tb gr
685.99 132.95 (T) 0 ta
-0.480 (r) tb
-0.040 (agelaphus imberbis) tb gr
685.99 138.29 (T) 0 ta
-0.480 (r) tb
-0.040 (agelaphus angasi) tb gr
685.99 143.63 (T) 0 ta
-0.480 (r) tb
-0.040 (agelaphus strepsiceros) tb gr
685.99 148.97 (T) 0 ta
-0.480 (aurotr) tb
-0.040 (agus derbian) tb
-0.040 (us) tb gr
685.99 154.31 (T) 0 ta
-0.480 (aurotr) tb
-0.040 (agus or) tb
0.120 (yx) tb gr
685.99 159.65 (T) 0 ta
-0.480 (r) tb
-0.040 (agelaphus b) tb
-0.080 (uxtoni) tb gr
685.99 164.96 (Oreotr) 0 ta
-0.040 (agus oreotr) tb
-0.040 (agus) tb gr
685.99 170.31 (Madoqua kir) 0 ta
0.060 (ki) tb gr
685.99 175.65 (Madoqua saltiana) 0 0 t
685.99 181.02 (Madoqua guenther) 0 ta
0.060 (i) tb gr
685.99 186.33 (Raphicer) 0 ta
0.060 (us shar) tb
0.120 (pie) tb gr
685.99 191.67 (Raphicer) 0 ta
0.060 (us melanotis) tb gr
685.99 197.01 (Raphicer) 0 ta
0.060 (us campestr) tb
0.060 (is) tb gr
685.99 202.38 (Neotr) 0 ta
-0.040 (agus p) tb
-0.120 (ygmaeus) tb gr
685.99 207.72 (Neotr) 0 ta
-0.040 (agus batesi) tb gr
685.99 213.06 (Nesotr) 0 ta
-0.040 (agus moschatus) tb gr
685.99 218.40 (Dorcatr) 0 ta
-0.040 (agus megalotis) tb gr
685.99 223.30 (Ourebia ourebi) 0 0 t
685.99 229.01 (Gaz) 0 ta
-0.060 (ella leptoceros) tb gr
685.99 234.38 (Gaz) 0 ta
-0.060 (ella gr) tb
-0.040 (anti) tb gr
685.99 239.32 (Gaz) 0 ta
-0.060 (ella thomsoni) tb gr
685.99 245.03 (Gaz) 0 ta
-0.060 (ella spek) tb
-0.080 (ei) tb gr
685.99 250.00 (Gaz) 0 ta
-0.060 (ella r) tb
0.060 (ufifrons) tb gr
685.99 255.34 (Gaz) 0 ta
-0.060 (ella dorcas) tb gr
685.99 261.06 (Gaz) 0 ta
-0.060 (ella pelz) tb
-0.060 (eni) tb gr
685.99 266.42 (Gaz) 0 ta
-0.060 (ella soemmer) tb
0.060 (ingi) tb gr
685.99 271.36 (Gaz) 0 ta
-0.060 (ella dama) tb gr
685.99 277.11 (Antidorcas marsupialis) 0 0 t
685.99 282.07 (Ammodorcas clar) 0 ta
0.060 (k) tb
-0.080 (ei) tb gr
685.99 287.41 (Litocr) 0 ta
-0.040 (anius w) tb
-0.060 (aller) tb
0.060 (i) tb gr
685.99 293.11 (Or) 0 ta
0.120 (yx dammah) tb gr
685.99 298.46 (Or) 0 ta
0.120 (yx gaz) tb
-0.060 (ella) tb gr
685.99 303.79 (Or) 0 ta
0.120 (yx beisa) tb gr
685.99 308.77 (Addax nasomaculatus) 0 0 t
685.99 314.52 (Hippotr) 0 ta
-0.040 (agus niger) tb gr
685.99 319.86 (Hippotr) 0 ta
-0.040 (agus equinas) tb gr
685.99 324.79 (Damaliscus dorcas) 0 0 t
685.99 330.13 (Damaliscus lunatus) 0 0 t
685.99 335.88 (Damaliscus k) 0 ta
-0.080 (orr) tb
0.060 (igum) tb gr
685.99 341.22 (Beatr) 0 ta
-0.040 (agus hunter) tb
0.060 (i) tb gr
685.99 346.54 (Alcelaphus b) 0 ta
-0.080 (uselaphus) tb gr
685.99 351.88 (Alcelaphus caama) 0 0 t
685.99 357.22 (Alcelaphus lichtensteini) 0 0 t
685.99 362.14 (Connochaetes taur) 0 ta
0.060 (in) tb
-0.040 (us) tb gr
685.99 367.89 (Connochaetes gnou) 0 0 t
685.99 373.25 (Aep) 0 ta
-0.120 (yceros melampus) tb gr
685.99 378.57 (Sylvicapr) 0 ta
-0.040 (a gr) tb
0.060 (immia) tb gr
685.99 383.88 (Cephalophus monticola) 0 0 t
685.99 389.22 (Cephalophus natalensis) 0 0 t
685.99 394.59 (Cephalophus nigr) 0 ta
0.060 (ifrons) tb gr
685.99 399.90 (Cephalophus r) 0 ta
0.060 (ufilatus) tb gr
685.99 405.24 (Cephalophus z) 0 ta
-0.060 (ebr) tb
-0.040 (a) tb gr
685.99 410.61 (Cephalophus leucogaster) 0 0 t
685.99 415.93 (Cephalophus jentinki) 0 0 t
685.99 421.26 (Cephalophus dorsalis) 0 0 t
685.99 426.60 (Cephalophus spadix) 0 0 t
685.99 431.94 (Cephalophus silvicultor) 0 0 t
685.99 437.31 (Cephalophus niger) 0 0 t
685.99 442.65 (Cephalophus ogilb) 0 ta
-0.080 (yi) tb gr
685.99 447.99 (Cephalophus callip) 0 ta
-0.120 (ygus) tb gr
685.99 453.34 (P) 0 ta
-0.200 (elea capreolus) tb gr
685.99 458.71 (K) 0 ta
-0.160 (ob) tb
-0.080 (us megaceros) tb gr
685.99 463.64 (K) 0 ta
-0.160 (ob) tb
-0.080 (us leche) tb gr
685.99 469.38 (K) 0 ta
-0.160 (ob) tb
-0.080 (us ellipsipr) tb
0.120 (ymn) tb
-0.040 (us) tb gr
685.99 474.30 (K) 0 ta
-0.160 (ob) tb
-0.080 (us def) tb
-0.120 (assa) tb gr
685.99 479.66 (K) 0 ta
-0.160 (ob) tb
-0.080 (us k) tb
-0.080 (ob) tb gr
685.99 485.00 (K) 0 ta
-0.160 (ob) tb
-0.080 (us v) tb
-0.100 (ardoni) tb gr
685.99 490.32 (Redunca fulv) 0 ta
-0.100 (or) tb
0.060 (ufula) tb gr
685.99 495.68 (Redunca ar) 0 ta
0.060 (undin) tb
-0.040 (um) tb gr
685.99 501.02 (Redunca redunca) 0 0 t
ep
%%Trailer
%%Pages: 1
%%EOF
