%!PS-Adobe-3.0
%%DocumentNeededResources: font Helvetica
%%+ font Helvetica-Bold
%%+ font Helvetica-Oblique
%%+ font Helvetica-BoldOblique
%%+ font Symbol
%%DocumentMedia: a4 595 841 0 () ()
%%Title: R Graphics Output
%%Creator: R Software
%%Pages: (atend)
%%Orientation: Landscape
%%BoundingBox: 18 18 577 824
%%EndComments
%%BeginProlog
/bp  { gs sRGB 595.00 0 translate 90 rotate gs } def
% begin .ps.prolog
/gs  { gsave } bind def
/gr  { grestore } bind def
/ep  { showpage gr gr } bind def
/m   { moveto } bind def
/l  { rlineto } bind def
/np  { newpath } bind def
/cp  { closepath } bind def
/f   { fill } bind def
/o   { stroke } bind def
/c   { newpath 0 360 arc } bind def
/r   { 4 2 roll moveto 1 copy 3 -1 roll exch 0 exch rlineto 0 rlineto -1 mul 0 exch rlineto closepath } bind def
/p1  { stroke } bind def
/p2  { gsave bg fill grestore newpath } bind def
/p3  { gsave bg fill grestore stroke } bind def
/p6  { gsave bg eofill grestore newpath } bind def
/p7  { gsave bg eofill grestore stroke } bind def
/t   { 5 -2 roll moveto gsave rotate
       1 index stringwidth pop
       mul neg 0 rmoveto show grestore } bind def
/ta  { 4 -2 roll moveto gsave rotate show } bind def
/tb  { 2 -1 roll 0 rmoveto show } bind def
/cl  { grestore gsave newpath 3 index 3 index moveto 1 index
       4 -1 roll lineto  exch 1 index lineto lineto
       closepath clip newpath } bind def
/rgb { setrgbcolor } bind def
/s   { scalefont setfont } bind def
% end   .ps.prolog
/sRGB { [ /CIEBasedABC
          << /DecodeLMN
               [ { dup 0.03928 le
                        {12.92321 div}
                        {0.055 add 1.055 div 2.4 exp }
                     ifelse
                 } bind dup dup
               ]
             /MatrixLMN [0.412457 0.212673 0.019334
                         0.357576 0.715152 0.119192
                         0.180437 0.072175 0.950301]
             /WhitePoint [0.9505 1.0 1.0890]
           >>
         ] setcolorspace } bind def
/srgb { setcolor } bind def
%%IncludeResource: font Helvetica
/Helvetica findfont
dup length dict begin
  {1 index /FID ne {def} {pop pop} ifelse} forall
  /Encoding ISOLatin1Encoding def
  currentdict
  end
/Font1 exch definefont pop
%%IncludeResource: font Helvetica-Bold
/Helvetica-Bold findfont
dup length dict begin
  {1 index /FID ne {def} {pop pop} ifelse} forall
  /Encoding ISOLatin1Encoding def
  currentdict
  end
/Font2 exch definefont pop
%%IncludeResource: font Helvetica-Oblique
/Helvetica-Oblique findfont
dup length dict begin
  {1 index /FID ne {def} {pop pop} ifelse} forall
  /Encoding ISOLatin1Encoding def
  currentdict
  end
/Font3 exch definefont pop
%%IncludeResource: font Helvetica-BoldOblique
/Helvetica-BoldOblique findfont
dup length dict begin
  {1 index /FID ne {def} {pop pop} ifelse} forall
  /Encoding ISOLatin1Encoding def
  currentdict
  end
/Font4 exch definefont pop
%%IncludeResource: font Symbol
/Symbol findfont
dup length dict begin
  {1 index /FID ne {def} {pop pop} ifelse} forall
  currentdict
  end
/Font5 exch definefont pop
%%EndProlog
%%Page: 1 1
bp
91.44 105.84 779.25 503.84 cl
0 0 0 srgb
0.75 setlinewidth
[] 0 setdash
1 setlinecap
1 setlinejoin
10.00 setmiterlimit
np
753.78 489.10 m
-15.93 0 l
-127.37 0 l
-127.37 0 l
-31.84 0 l
-47.77 0 l
0 0 l
0 0 l
-15.92 0 l
-15.92 0 l
0 -10.53 l
0 0 l
0 0 l
0 0 l
-47.77 0 l
0 0 l
0 0 l
0 0 l
0 0 l
-15.92 -10.53 l
0 0 l
0 0 l
0 0 l
0 0 l
0 0 l
0 0 l
0 0 l
0 0 l
0 0 l
0 0 l
-15.92 0 l
0 0 l
0 0 l
0 0 l
-15.92 0 l
0 0 l
0 0 l
0 0 l
-15.92 0 l
0 0 l
-15.92 0 l
-15.92 0 l
0 -10.53 l
-15.93 0 l
0 0 l
-15.92 0 l
0 0 l
0 0 l
0 0 l
0 0 l
0 0 l
-15.92 0 l
0 0 l
0 0 l
0 -10.53 l
0 0 l
0 -21.06 l
0 0 l
0 0 l
0 0 l
0 -10.53 l
0 -10.53 l
0 -10.53 l
0 0 l
0 -21.05 l
0 0 l
0 -21.06 l
0 0 l
-15.92 -10.53 l
0 0 l
0 0 l
0 -10.53 l
0 -21.06 l
-31.84 -42.11 l
-15.93 -21.06 l
0 0 l
0 -10.53 l
0 0 l
0 0 l
0 0 l
0 0 l
0 0 l
0 -21.06 l
0 0 l
0 0 l
0 0 l
0 0 l
0 0 l
0 0 l
0 0 l
0 0 l
0 0 l
0 0 l
0 0 l
0 0 l
0 0 l
0 0 l
0 0 l
0 0 l
0 -94.76 l
o
18.00 18.00 823.89 577.28 cl
0 0 0 srgb
0.75 setlinewidth
[] 0 setdash
1 setlinecap
1 setlinejoin
10.00 setmiterlimit
np
116.91 105.84 m
636.87 0 l
o
np
116.91 105.84 m
0 -7.20 l
o
np
244.29 105.84 m
0 -7.20 l
o
np
371.66 105.84 m
0 -7.20 l
o
np
499.03 105.84 m
0 -7.20 l
o
np
626.40 105.84 m
0 -7.20 l
o
np
753.78 105.84 m
0 -7.20 l
o
/Font1 findfont 12 s
116.91 79.92 (0.0) .5 0 t
244.29 79.92 (0.2) .5 0 t
371.66 79.92 (0.4) .5 0 t
499.03 79.92 (0.6) .5 0 t
626.40 79.92 (0.8) .5 0 t
753.78 79.92 (1.0) .5 0 t
np
91.44 120.58 m
0 368.52 l
o
np
91.44 120.58 m
-7.20 0 l
o
np
91.44 194.28 m
-7.20 0 l
o
np
91.44 267.99 m
-7.20 0 l
o
np
91.44 341.69 m
-7.20 0 l
o
np
91.44 415.39 m
-7.20 0 l
o
np
91.44 489.10 m
-7.20 0 l
o
74.16 120.58 (0.0) .5 90 t
74.16 194.28 (0.2) .5 90 t
74.16 267.99 (0.4) .5 90 t
74.16 341.69 (0.6) .5 90 t
74.16 415.39 (0.8) .5 90 t
74.16 489.10 (1.0) .5 90 t
np
91.44 105.84 m
687.81 0 l
0 398.00 l
-687.81 0 l
0 -398.00 l
o
32.40 32.40 809.49 562.88 cl
/Font1 findfont 12 s
0 0 0 srgb
386.66 51.12 (F) 0 ta
-0.600 (alse positiv) tb
-0.300 (e r) tb
-0.120 (ate) tb gr
45.36 258.49 (T) 90 ta
-1.440 (r) tb
0.180 (ue positiv) tb
-0.300 (e r) tb
-0.120 (ate) tb gr
91.44 105.84 779.25 503.84 cl
0 0 0 srgb
0.75 setlinewidth
[ 2.25 3.75] 0 setdash
1 setlinecap
1 setlinejoin
10.00 setmiterlimit
np
116.91 120.58 m
636.87 368.52 l
o
32.40 32.40 809.49 562.88 cl
/Font2 findfont 14 s
0 0 0 srgb
387.11 528.33 (NB R) 0 ta
-0.280 (OC cur) tb
0.140 (ve) tb gr
ep
%%Trailer
%%Pages: 1
%%EOF
