MSW_TAXON;TAXON;ORDER;FAMILY;HYP;LOP;FCT_HOD;FCT_AL;FCT_OL;FCT_SF;FCT_OT;FCT_CM;ETH;ADI;OCC;CUR;LOPT;ETH;MASS_KG;LENGTH_MM;MASS_G;DIET_EIS;last_update
Antilocapra americana;Antilocapra americana;Artiodactyla;Antilocapridae;3;2;1;0;1;0;0;0;0;3;NA;NA;0;0;NA;1250;45375;Herbivore-Mixed-Feeder;NA
Addax nasomaculatus;Addax nasomaculatus;Artiodactyla;Bovidae;3;2;1;0;1;1;0;0;0;2;NA;NA;0;0;NA;1600;111000;Herbivore-grazer;Espoo2018Apr
Aepyceros melampus;Aepyceros melampus;Artiodactyla;Bovidae;3;2;1;0;1;0;0;0;0;3;NA;NA;0;0;52.5;1300;50350;Herbivore-browser;NA
Alcelaphus buselaphus;Alcelaphus buselaphus;Artiodactyla;Bovidae;3;2;1;0;1;0;1;0;0;2;NA;NA;0;0;171;1975;136144;Herbivore-grazer;NA
Alcelaphus caama;Alcelaphus caama;Artiodactyla;Bovidae;3;2;1;0;1;0;1;0;0;2;NA;NA;0;0;NA;1815;176115.97;Herbivore-grazer;NA
Alcelaphus lichtensteinii;Alcelaphus lichtensteinii;Artiodactyla;Bovidae;3;2;1;0;1;0;1;0;0;2;NA;NA;0;0;NA;1815;153000;Herbivore-grazer;NA
Ammodorcas clarkei;Ammodorcas clarkei;Artiodactyla;Bovidae;3;2;1;0;1;0;0;0;0;3;NA;NA;0;0;NA;1170;28000;Herbivore-browser;NA
Ammotragus lervia;Ammotragus lervia;Artiodactyla;Bovidae;3;2;1;0;1;0;0;0;0;3;NA;NA;0;0;NA;1475;81700;Herbivore-browser;NA
Antidorcas marsupialis;Antidorcas marsupialis;Artiodactyla;Bovidae;3;2;1;0;1;0;0;0;0;3;NA;NA;0;0;NA;1300;31000;Herbivore-browser;NA
Antilope cervicapra;Antilope cervicapra;Artiodactyla;Bovidae;3;2;1;0;1;0;0;0;0;3;NA;NA;0;0;NA;1200;37300;Herbivore-grazer;NA
Beatragus hunteri;Beatragus hunteri;Artiodactyla;Bovidae;3;2;1;0;1;0;1;0;0;2;NA;NA;0;0;80;NA;88500;Herbivore-grazer;NA
Bison bison;Bison bison;Artiodactyla;Bovidae;3;2;1;0;1;1;0;0;0;2;NA;NA;0;0;NA;2454.5;624050;Herbivore-grazer;NA
Bison bonasus;Bison bonasus;Artiodactyla;Bovidae;3;2;1;0;1;1;0;0;0;2;NA;NA;0;0;NA;2800;570500;Herbivore-grazer;NA
Bos frontalis;Bos frontalis;Artiodactyla;Bovidae;3;2;1;0;1;1;0;1;0;2;NA;NA;0;0;NA;2750;775150;Herbivore-grazer;NA
Bos grunniens;Bos grunniens;Artiodactyla;Bovidae;3;2;1;0;1;1;0;1;0;2;NA;NA;0;0;NA;3250;333000;Herbivore-grazer;NA
Bos javanicus;Bos javanicus;Artiodactyla;Bovidae;3;2;1;0;1;1;0;1;0;2;NA;NA;0;0;NA;1900;6e+05;Herbivore-grazer;NA
Bos sauveli;Bos sauveli;Artiodactyla;Bovidae;3;2;1;0;1;1;0;1;0;2;NA;NA;0;0;NA;2162.5;8e+05;Herbivore-grazer;NA
Bos taurus;Bos taurus;Artiodactyla;Bovidae;3;2;1;0;1;1;0;1;0;2;NA;NA;0;0;180;2900;6e+05;Herbivore-grazer;NA
Boselaphus tragocamelus;Boselaphus tragocamelus;Artiodactyla;Bovidae;3;2;1;0;1;1;0;0;0;2;NA;NA;0;0;NA;1950;194800;Herbivore-Mixed-Feeder;NA
Bubalus bubalis;Bubalus bubalis;Artiodactyla;Bovidae;3;2;1;0;1;1;0;1;0;2;NA;NA;0;0;NA;2700;950000;Herbivore-grazer;NA
Bubalus depressicornis;Bubalus depressicornis;Artiodactyla;Bovidae;3;2;1;0;1;1;0;1;0;2;NA;NA;0;0;NA;1660;150000;Herbivore-browser;NA
Bubalus mindorensis;Bubalus mindorensis;Artiodactyla;Bovidae;3;2;1;0;1;1;0;1;0;2;NA;NA;0;0;NA;NA;233333.33;;NA
Bubalus quarlesi;Bubalus quarlesi;Artiodactyla;Bovidae;3;2;1;0;1;1;0;1;0;2;NA;NA;0;0;NA;1660;225000;;NA
Budorcas taxicolor;Budorcas taxicolor;Artiodactyla;Bovidae;3;2;1;0;1;0;0;0;0;2;NA;NA;0;0;NA;1685;250000;Herbivore-Mixed-Feeder;NA
Capra caucasica;Capra caucasica;Artiodactyla;Bovidae;3;2;1;0;1;0;0;0;0;3;NA;NA;0;0;NA;NA;55000;Herbivore-Mixed-Feeder;NA
Capra caucasica cylindricornis;Capra cylindricornis;Artiodactyla;Bovidae;3;2;1;0;1;0;0;0;0;3;NA;NA;0;0;NA;NA;NA;NA;NA
Capra falconeri;Capra falconeri;Artiodactyla;Bovidae;3;2;1;0;1;0;0;0;0;3;NA;NA;0;0;NA;1600;41000;Herbivore-Mixed-Feeder;NA
Capra hircus;Capra hircus;Artiodactyla;Bovidae;3;2;1;0;1;0;0;0;0;3;NA;NA;0;0;75;1350;45800;Herbivore-Mixed-Feeder;NA
Capra ibex;Capra ibex;Artiodactyla;Bovidae;3;2;1;0;1;0;0;0;0;3;NA;NA;0;0;NA;1425;71500;Herbivore-browser;NA
Capra nubiana;Capra nubiana;Artiodactyla;Bovidae;3;2;1;0;1;0;0;0;0;3;NA;NA;0;0;NA;NA;65000;Herbivore-browser;NA
Capra pyrenaica;Capra pyrenaica;Artiodactyla;Bovidae;3;2;1;0;1;0;0;0;0;3;NA;NA;0;0;NA;1200;56250;Herbivore-Mixed-Feeder;NA
Capra sibirica;Capra sibirica;Artiodactyla;Bovidae;3;2;1;0;1;0;0;0;0;3;NA;NA;0;0;NA;NA;67100;Herbivore-browser;NA
Capra walie;Capra walie;Artiodactyla;Bovidae;3;2;1;0;1;0;0;0;0;3;NA;NA;0;0;NA;NA;101250;Herbivore-browser;NA
Capricornis crispus;Capricornis crispus;Artiodactyla;Bovidae;3;2;1;0;1;0;0;0;0;3;NA;NA;0;0;NA;1600;37150;Herbivore-browser;NA
Capricornis milneedwardsii;Capricornis milneedwardsii;Artiodactyla;Bovidae;3;2;1;0;1;0;0;0;0;3;NA;NA;0;0;NA;1600;95000;Herbivore-browser;NA
Capricornis rubidus;Capricornis rubidus;Artiodactyla;Bovidae;3;2;1;0;1;0;0;0;0;3;NA;NA;0;0;NA;1600;95000;Herbivore-browser;NA
Capricornis sumatraensis;Capricornis sumatraensis;Artiodactyla;Bovidae;3;2;1;0;1;0;0;0;0;3;NA;NA;0;0;NA;1550;102000;Herbivore-browser;NA
Capricornis swinhoei;Capricornis swinhoei;Artiodactyla;Bovidae;2;2;1;1;1;0;0;0;0;3;NA;NA;0;0;NA;1600;37000;Herbivore-browser;Espoo2018Apr
Capricornis thar;Capricornis thar;Artiodactyla;Bovidae;3;2;1;0;1;0;0;0;0;3;NA;NA;0;0;NA;1600;95000;Herbivore-browser;NA
Cephalophus adersi;Cephalophus adersi;Artiodactyla;Bovidae;2;2;1;0;1;1;0;0;0;4;NA;NA;0;0;9.2;NA;9550;Frugivore-granivore;NA
Cephalophus brookei;Cephalophus brookei;Artiodactyla;Bovidae;2;2;1;0;1;1;0;0;0;4;NA;NA;0;0;NA;NA;NA;Frugivore-granivore;NA
Cephalophus callipygus;Cephalophus callipygus;Artiodactyla;Bovidae;2;2;1;0;1;1;0;0;0;4;NA;NA;0;0;NA;1005;18500;Frugivore-herbivore;NA
Cephalophus dorsalis;Cephalophus dorsalis;Artiodactyla;Bovidae;2;2;1;0;1;1;0;0;0;4;NA;NA;0;0;NA;800;19900;Frugivore-granivore;NA
Cephalophus natalensis harveyi;Cephalophus harveyi;Artiodactyla;Bovidae;2;2;1;0;1;1;0;0;0;4;NA;NA;0;0;14.5;NA;NA;NA;NA
Cephalophus jentinki;Cephalophus jentinki;Artiodactyla;Bovidae;2;2;1;1;1;0;0;0;0;4;NA;NA;0;0;NA;1162.5;75400;Frugivore-granivore;Espoo2018Apr
Cephalophus leucogaster;Cephalophus leucogaster;Artiodactyla;Bovidae;2;2;1;0;1;1;0;0;0;4;NA;NA;0;0;NA;865;12700;Frugivore-granivore;NA
Cephalophus maxwellii;Cephalophus maxwellii;Artiodactyla;Bovidae;1;2;1;0;1;1;0;0;0;4;NA;NA;0;0;NA;NA;NA;NA;Espoo2018Apr
Cephalophus natalensis;Cephalophus natalensis;Artiodactyla;Bovidae;2;2;1;1;1;0;0;0;0;4;NA;NA;0;0;NA;810;10000;Frugivore-granivore;Espoo2018Apr
Cephalophus niger;Cephalophus niger;Artiodactyla;Bovidae;2;2;1;0;1;1;0;0;0;4;NA;NA;0;0;NA;1162.5;18100;Frugivore-herbivore;NA
Cephalophus nigrifrons;Cephalophus nigrifrons;Artiodactyla;Bovidae;2;2;1;0;1;1;0;0;0;4;NA;NA;0;0;13.9;920;14150;Frugivore-herbivore;NA
Cephalophus ogilbyi;Cephalophus ogilbyi;Artiodactyla;Bovidae;2;2;1;0;1;1;0;0;0;4;NA;NA;0;0;NA;1162.5;20000;Frugivore-herbivore;NA
Cephalophus rufilatus;Cephalophus rufilatus;Artiodactyla;Bovidae;2;2;1;0;1;1;0;0;0;4;NA;NA;0;0;NA;775;10200;Frugivore-herbivore;NA
Cephalophus silvicultor;Cephalophus silvicultor;Artiodactyla;Bovidae;2;2;1;0;1;1;0;0;0;4;NA;NA;0;0;72.5;1700;62250;Frugivore-granivore;NA
Cephalophus spadix;Cephalophus spadix;Artiodactyla;Bovidae;2;2;1;0;1;1;0;0;0;4;NA;NA;0;0;NA;NA;57000;Frugivore-herbivore;NA
Cephalophus weynsi;Cephalophus weynsi;Artiodactyla;Bovidae;2;2;1;1;1;0;0;0;0;4;NA;NA;0;0;17;NA;NA;Frugivore-granivore;Espoo2018Apr
Cephalophus zebra;Cephalophus zebra;Artiodactyla;Bovidae;2;2;1;0;1;0;0;0;0;4;NA;NA;0;0;NA;1162.5;14300;Frugivore-granivore;Espoo2018Apr
Connochaetes gnou;Connochaetes gnou;Artiodactyla;Bovidae;3;2;1;0;1;0;1;0;0;2;NA;NA;0;0;NA;1950;136000;Herbivore-grazer;NA
Connochaetes taurinus;Connochaetes taurinus;Artiodactyla;Bovidae;3;2;1;0;1;0;1;0;0;2;NA;NA;0;0;180;1782.5;164500;Herbivore-grazer;NA
Damaliscus korrigum;Damaliscus korrigum;Artiodactyla;Bovidae;3;2;1;0;1;0;1;0;0;2;NA;NA;0;0;112;1625;127194.87;Herbivore-grazer;NA
Damaliscus lunatus;Damaliscus lunatus;Artiodactyla;Bovidae;3;2;1;0;1;0;1;0;0;2;NA;NA;0;0;NA;1700;128550;Herbivore-grazer;NA
Damaliscus pygargus;Damaliscus pygargus;Artiodactyla;Bovidae;3;2;1;0;1;0;1;0;0;2;NA;NA;0;0;NA;1625;69000;Herbivore-grazer;NA
Damaliscus superstes;Damaliscus superstes;Artiodactyla;Bovidae;3;2;1;0;1;0;1;0;0;2;NA;NA;0;0;NA;1625;111500;Herbivore-grazer;NA
Dorcatragus megalotis;Dorcatragus megalotis;Artiodactyla;Bovidae;3;2;1;1;1;0;0;0;0;3;NA;NA;0;0;NA;813.5;9000;Herbivore-browser;Espoo2018Apr
Eudorcas rufifrons;Eudorcas rufifrons;Artiodactyla;Bovidae;3;2;1;1;1;0;0;0;0;3;NA;NA;0;0;NA;1275;23850;;Espoo2018Apr
Eudorcas rufina;Eudorcas rufina;Artiodactyla;Bovidae;3;2;1;0;1;0;0;0;0;3;NA;NA;0;0;NA;NA;39999.99;;NA
Eudorcas thomsonii;Eudorcas thomsonii;Artiodactyla;Bovidae;3;2;1;0;1;0;0;0;0;3;NA;NA;0;0;20.5;980;20000;;NA
Gazella arabica;Gazella arabica;Artiodactyla;Bovidae;3;2;1;0;1;0;0;0;0;3;NA;NA;0;0;NA;1275;24124.67;Herbivore-Mixed-Feeder;NA
Gazella bennettii;Gazella bennettii;Artiodactyla;Bovidae;3;2;1;0;1;0;0;0;0;3;NA;NA;0;0;NA;1275;18916.67;Herbivore-Mixed-Feeder;NA
Gazella cuvieri;Gazella cuvieri;Artiodactyla;Bovidae;2;2;1;0;1;0;0;0;0;3;NA;NA;0;0;NA;1275;17500;Herbivore-Mixed-Feeder;NA
Gazella dorcas;Gazella dorcas;Artiodactyla;Bovidae;3;2;1;0;1;0;0;0;0;3;NA;NA;0;0;NA;1275;16985;Herbivore-browser;NA
Gazella erlangeri;Gazella erlangeri;Artiodactyla;Bovidae;3;2;1;0;1;0;0;0;0;3;NA;NA;0;0;NA;1275;48500;Herbivore-Mixed-Feeder;NA
Gazella gazella;Gazella gazella;Artiodactyla;Bovidae;2;2;1;0;1;0;0;0;0;3;NA;NA;0;0;NA;1275;20750;Herbivore-Mixed-Feeder;NA
Gazella leptoceros;Gazella leptoceros;Artiodactyla;Bovidae;3;2;1;0;1;0;0;0;0;3;NA;NA;0;0;NA;1275;23600;Herbivore-Mixed-Feeder;NA
Gazella saudiya;Gazella saudiya;Artiodactyla;Bovidae;3;2;1;0;1;0;0;0;0;3;NA;NA;0;0;NA;1275;16000;Herbivore-Mixed-Feeder;NA
Gazella spekei;Gazella spekei;Artiodactyla;Bovidae;3;2;1;0;1;0;0;0;0;3;NA;NA;0;0;NA;1275;18950;Herbivore-Mixed-Feeder;NA
Gazella subgutturosa;Gazella subgutturosa;Artiodactyla;Bovidae;3;2;1;0;1;0;0;0;0;3;NA;NA;0;0;NA;1275;25300;Herbivore-Mixed-Feeder;NA
Hemitragus hylocrius;Hemitragus hylocrius;Artiodactyla;Bovidae;3;2;1;0;1;0;0;0;0;3;NA;NA;0;0;NA;1150;75000;;NA
Hemitragus jayakari;Hemitragus jayakari;Artiodactyla;Bovidae;3;2;1;0;1;0;0;0;0;3;NA;NA;0;0;NA;1150;22210.18;;NA
Hemitragus jemlahicus;Hemitragus jemlahicus;Artiodactyla;Bovidae;3;2;1;0;1;0;0;0;0;3;NA;NA;0;0;NA;1150;79650;Herbivore-grazer;NA
Hippotragus equinus;Hippotragus equinus;Artiodactyla;Bovidae;3;2;1;0;1;1;0;0;0;3;NA;NA;0;0;270;2150;265400;Herbivore-grazer;NA
Hippotragus leucophaeus;Hippotragus leucophaeus;Artiodactyla;Bovidae;3;2;1;0;1;1;0;0;0;3;NA;NA;0;0;NA;2275;149999.99;Herbivore-grazer;NA
Hippotragus niger;Hippotragus niger;Artiodactyla;Bovidae;3;2;1;0;1;1;0;0;0;3;NA;NA;0;0;227.5;2035;225900;Herbivore-grazer;NA
Kobus ellipsiprymnus;Kobus ellipsiprymnus;Artiodactyla;Bovidae;3;2;1;0;1;1;0;0;0;3;NA;NA;0;0;210;2060;175333.33;Herbivore-grazer;NA
Kobus kob;Kobus kob;Artiodactyla;Bovidae;3;2;1;0;1;1;0;1;0;3;NA;NA;0;0;NA;1700;58600;Herbivore-grazer;NA
Kobus leche;Kobus leche;Artiodactyla;Bovidae;3;2;1;0;1;1;0;1;0;3;NA;NA;0;0;NA;1647.5;87000;Herbivore-grazer;NA
Kobus megaceros;Kobus megaceros;Artiodactyla;Bovidae;3;2;1;0;1;1;0;0;0;3;NA;NA;0;0;NA;1800;17500;Herbivore-grazer;NA
Kobus vardonii;Kobus vardonii;Artiodactyla;Bovidae;3;2;1;0;1;1;0;0;0;3;NA;NA;0;0;NA;1800;69750;Herbivore-grazer;NA
Litocranius walleri;Litocranius walleri;Artiodactyla;Bovidae;2;2;1;0;1;0;0;0;0;3;NA;NA;0;0;38;1500;41333.33;Herbivore-browser;NA
Madoqua guentheri;Madoqua guentheri;Artiodactyla;Bovidae;2;2;1;0;1;0;0;0;0;4;NA;NA;0;0;7.5;620;4100;Herbivore-browser;NA
Madoqua kirkii;Madoqua kirkii;Artiodactyla;Bovidae;2;2;1;0;1;0;0;0;0;4;NA;NA;0;0;5.3;607.5;4876.67;Frugivore-granivore;NA
Madoqua piacentinii;Madoqua piacentinii;Artiodactyla;Bovidae;2;2;1;0;1;0;0;0;0;4;NA;NA;0;0;NA;620;2500;Herbivore-browser;NA
Madoqua saltiana;Madoqua saltiana;Artiodactyla;Bovidae;2;2;1;0;1;0;0;0;0;4;NA;NA;0;0;NA;620;2450;Herbivore-browser;NA
Naemorhedus baileyi;Naemorhedus baileyi;Artiodactyla;Bovidae;3;2;1;0;1;0;0;0;0;3;NA;NA;0;0;NA;1060;28500;;NA
Naemorhedus caudatus;Naemorhedus caudatus;Artiodactyla;Bovidae;3;2;1;0;1;0;0;0;0;3;NA;NA;0;0;NA;1060;26999.99;;NA
Naemorhedus goral;Naemorhedus goral;Artiodactyla;Bovidae;3;2;1;0;1;0;0;0;0;3;NA;NA;0;0;NA;1060;27666.67;Herbivore-browser;NA
Naemorhedus griseus;Naemorhedus griseus;Artiodactyla;Bovidae;3;2;1;0;1;0;0;0;0;3;NA;NA;0;0;NA;1060;28500;;NA
Naemorhedus sumatraensis;Naemorhedus sumatraensis;Artiodactyla;Bovidae;3;2;1;0;1;0;0;0;0;3;NA;NA;0;0;NA;NA;NA;NA;NA
Nanger dama;Nanger dama;Artiodactyla;Bovidae;3;2;1;0;1;0;0;0;0;3;NA;NA;0;0;NA;1275;59500;Herbivore-Mixed-Feeder;NA
Nanger granti;Nanger granti;Artiodactyla;Bovidae;3;2;1;0;1;0;0;0;0;3;NA;NA;0;0;55;1525;59050;;NA
Nanger soemmerringii;Nanger soemmerringii;Artiodactyla;Bovidae;3;2;1;0;1;0;0;0;0;3;NA;NA;0;0;NA;NA;39500;Herbivore-Mixed-Feeder;NA
Neotragus batesi;Neotragus batesi;Artiodactyla;Bovidae;2;2;1;0;1;0;0;0;0;3;NA;NA;0;0;NA;537.5;2500;Herbivore-browser;NA
Neotragus moschatus;Neotragus moschatus;Artiodactyla;Bovidae;2;2;1;0;1;0;0;0;0;3;NA;NA;0;0;6.5;600;5000;Frugivore-herbivore;NA
Neotragus pygmaeus;Neotragus pygmaeus;Artiodactyla;Bovidae;2;2;1;0;1;0;0;0;0;3;NA;NA;0;0;NA;500;2100;Herbivore-browser;NA
Oreamnos americanus;Oreamnos americanus;Artiodactyla;Bovidae;3;2;1;0;1;0;0;0;0;3;NA;NA;0;0;NA;1400;78450;Herbivore-Mixed-Feeder;NA
Oreotragus oreotragus;Oreotragus oreotragus;Artiodactyla;Bovidae;3;2;1;0;1;0;0;0;0;3;NA;NA;0;0;13;960;12150;Herbivore-browser;NA
Oryx beisa;Oryx beisa;Artiodactyla;Bovidae;3;2;1;0;1;1;0;0;0;2;NA;NA;0;0;169;1940;200576.52;Herbivore-grazer;NA
Oryx dammah;Oryx dammah;Artiodactyla;Bovidae;3;2;1;0;1;1;0;0;0;2;NA;NA;0;0;NA;1940;157500;Herbivore-grazer;NA
Oryx gazella;Oryx gazella;Artiodactyla;Bovidae;3;2;1;0;1;1;0;0;0;2;NA;NA;0;0;NA;1615;172200;Herbivore-grazer;NA
Oryx leucoryx;Oryx leucoryx;Artiodactyla;Bovidae;3;2;1;0;1;1;0;0;0;2;NA;NA;0;0;NA;1940;83000;Herbivore-grazer;NA
Ourebia ourebi;Ourebia ourebi;Artiodactyla;Bovidae;3;2;1;0;1;1;0;0;0;3;NA;NA;0;0;17.2;1160;17500;Herbivore-grazer;NA
Ovibos moschatus;Ovibos moschatus;Artiodactyla;Bovidae;3;2;1;0;1;0;0;0;0;3;NA;NA;0;0;NA;2100;301650;Herbivore-grazer;NA
Ovis ammon;Ovis ammon;Artiodactyla;Bovidae;3;2;1;0;1;0;0;0;0;3;NA;NA;0;0;NA;1500;91950;Herbivore-grazer;NA
Ovis aries;Ovis aries;Artiodactyla;Bovidae;3;2;1;0;1;0;0;0;0;3;NA;NA;0;0;50;1500;50000;Herbivore-grazer;NA
Ovis canadensis;Ovis canadensis;Artiodactyla;Bovidae;3;2;1;0;1;0;0;0;0;3;NA;NA;0;0;NA;1476.3;65000;Herbivore-Mixed-Feeder;NA
Ovis dalli;Ovis dalli;Artiodactyla;Bovidae;3;2;1;0;1;0;0;0;0;3;NA;NA;0;0;NA;1353.8;66850;Herbivore-grazer;NA
Ovis nivicola;Ovis nivicola;Artiodactyla;Bovidae;3;2;1;0;1;0;0;0;0;3;NA;NA;0;0;NA;1500;50500;Herbivore-grazer;NA
Pantholops hodgsonii;Pantholops hodgsonii;Artiodactyla;Bovidae;3;2;1;0;1;0;0;0;0;3;NA;NA;0;0;NA;1350;34050;Herbivore-grazer;NA
Pelea capreolus;Pelea capreolus;Artiodactyla;Bovidae;3;2;1;0;1;0;0;0;0;3;NA;NA;0;0;NA;1200;24500;Herbivore-browser;NA
Philantomba maxwellii;Philantomba maxwellii;Artiodactyla;Bovidae;1;2;1;0;1;1;0;0;0;4;NA;NA;0;0;NA;1162.5;6850;;Espoo2018Apr
Philantomba monticola;Philantomba monticola;Artiodactyla;Bovidae;1;2;1;0;1;1;0;0;0;4;NA;NA;0;0;6.2;625;6000;;Espoo2018Apr
Procapra gutturosa;Procapra gutturosa;Artiodactyla;Bovidae;3;2;1;0;1;0;0;0;0;3;NA;NA;0;0;NA;1215;27750;Herbivore-grazer;NA
Procapra picticaudata;Procapra picticaudata;Artiodactyla;Bovidae;3;2;1;0;1;0;0;0;0;3;NA;NA;0;0;NA;1215;23197.67;;NA
Procapra przewalskii;Procapra przewalskii;Artiodactyla;Bovidae;3;2;1;0;1;0;0;0;0;3;NA;NA;0;0;NA;1215;27499.99;;NA
Pseudois nayaur;Pseudois nayaur;Artiodactyla;Bovidae;3;2;1;0;1;0;0;0;0;3;NA;NA;0;0;NA;1400;49750;Herbivore-grazer;NA
Pseudois schaeferi;Pseudois schaeferi;Artiodactyla;Bovidae;3;2;1;0;1;0;0;0;0;3;NA;NA;0;0;NA;1400;29249.99;;NA
Pseudoryx nghetinhensis;Pseudoryx nghetinhensis;Artiodactyla;Bovidae;NA;2;1;0;1;NA;NA;NA;0;3;NA;NA;0;0;NA;NA;92500;;NA
Raphicerus campestris;Raphicerus campestris;Artiodactyla;Bovidae;3;2;1;0;1;0;0;0;0;4;NA;NA;0;0;10.5;751.5;11298;Herbivore-browser;NA
Raphicerus melanotis;Raphicerus melanotis;Artiodactyla;Bovidae;3;2;1;0;1;0;0;0;0;4;NA;NA;0;0;NA;780;10257;Herbivore-browser;NA
Raphicerus sharpei;Raphicerus sharpei;Artiodactyla;Bovidae;3;2;1;0;1;0;0;0;0;4;NA;NA;0;0;NA;680;7600;Herbivore-browser;NA
Redunca arundinum;Redunca arundinum;Artiodactyla;Bovidae;3;2;1;0;1;1;0;1;0;3;NA;NA;0;0;NA;1395.8;50750;Herbivore-grazer;NA
Redunca fulvorufula;Redunca fulvorufula;Artiodactyla;Bovidae;3;2;1;0;1;1;0;1;0;3;NA;NA;0;0;29.5;1230;30000;Herbivore-grazer;NA
Redunca redunca;Redunca redunca;Artiodactyla;Bovidae;3;2;1;0;1;1;0;1;0;3;NA;NA;0;0;44.1;1150;40000;Herbivore-grazer;NA
Rupicapra pyrenaica;Rupicapra pyrenaica;Artiodactyla;Bovidae;3;2;1;0;1;0;0;0;0;3;NA;NA;0;0;NA;1100;29999.99;Herbivore-Mixed-Feeder;NA
Rupicapra rupicapra;Rupicapra rupicapra;Artiodactyla;Bovidae;3;2;1;0;1;0;0;0;0;3;NA;NA;0;0;NA;1100;36000;Herbivore-browser;NA
Saiga borealis;Saiga borealis;Artiodactyla;Bovidae;3;2;1;0;1;0;0;0;0;3;NA;NA;0;0;NA;1200;47500;;NA
Saiga tatarica;Saiga tatarica;Artiodactyla;Bovidae;3;2;1;0;1;0;0;0;0;3;NA;NA;0;0;NA;1200;38250;Herbivore-grazer;NA
Sylvicapra grimmia;Sylvicapra grimmia;Artiodactyla;Bovidae;2;2;1;0;1;0;0;0;0;4;NA;NA;0;0;19.5;925;16106;Frugivore-herbivore;NA
Syncerus caffer;Syncerus caffer;Artiodactyla;Bovidae;3;2;1;0;1;1;0;0;0;2;NA;NA;0;0;580;2750;555200;Herbivore-grazer;NA
Taurotragus derbianus;Taurotragus derbianus;Artiodactyla;Bovidae;3;2;1;0;1;0;0;0;0;2;NA;NA;0;0;NA;2625;560000;Herbivore-browser;NA
Taurotragus oryx;Taurotragus oryx;Artiodactyla;Bovidae;3;2;1;0;1;0;0;0;0;2;NA;NA;0;0;570;2675;432500;Herbivore-browser;NA
Tetracerus quadricornis;Tetracerus quadricornis;Artiodactyla;Bovidae;3;2;1;0;1;1;0;0;0;3;NA;NA;0;0;NA;900;17500;Herbivore-Mixed-Feeder;Espoo2018Apr
Tragelaphus angasii;Tragelaphus angasii;Artiodactyla;Bovidae;2;2;1;0;1;0;0;0;0;3;NA;NA;0;0;NA;1450;91000;Herbivore-browser;NA
Tragelaphus buxtoni;Tragelaphus buxtoni;Artiodactyla;Bovidae;1;2;1;1;1;0;0;0;0;3;NA;NA;0;0;NA;2250;199350;Herbivore-browser;Espoo2018Apr
Tragelaphus eurycerus;Tragelaphus eurycerus;Artiodactyla;Bovidae;2;2;1;1;1;0;0;0;0;3;NA;NA;0;0;329;2100;205000;Herbivore-browser;Espoo2018Apr
Tragelaphus imberbis;Tragelaphus imberbis;Artiodactyla;Bovidae;2;2;1;0;1;0;0;0;0;3;NA;NA;0;0;70;1425;77000;Herbivore-browser;NA
Tragelaphus scriptus;Tragelaphus scriptus;Artiodactyla;Bovidae;2;2;1;1;1;0;0;0;0;3;NA;NA;0;0;43.3;1275;40400;Herbivore-browser;Espoo2018Apr
Tragelaphus spekii;Tragelaphus spekii;Artiodactyla;Bovidae;2;2;1;0;1;0;0;0;0;3;NA;NA;0;0;78;1425;81250;Herbivore-browser;NA
Tragelaphus strepsiceros;Tragelaphus strepsiceros;Artiodactyla;Bovidae;2;2;1;1;1;0;0;0;0;3;NA;NA;0;0;213.5;2200;2e+05;Herbivore-browser;Espoo2018Apr
Camelus bactrianus;Camelus bactrianus;Artiodactyla;Camelidae;3;2;1;0;1;0;0;0;0;2;NA;NA;NA;0;NA;2850;550000;Herbivore-Mixed-Feeder;NA
Camelus dromedarius;Camelus dromedarius;Artiodactyla;Camelidae;3;2;1;0;1;0;0;0;0;2;NA;NA;NA;0;450;3000;434000;Herbivore-browser;NA
Lama glama;Lama glama;Artiodactyla;Camelidae;3;2;1;0;1;0;0;0;0;3;NA;NA;NA;0;NA;1450;110000;Herbivore-Mixed-Feeder;NA
Lama glama guanicoe;Lama guanicoe;Artiodactyla;Camelidae;3;2;1;0;1;0;0;0;0;3;NA;NA;NA;0;NA;NA;NA;NA;NA
Lama glama glama;Lama pacos;Artiodactyla;Camelidae;3;2;1;0;1;0;0;0;0;3;NA;NA;NA;0;NA;NA;NA;NA;NA
Vicugna vicugna;Vicugna vicugna;Artiodactyla;Camelidae;3;2;1;0;1;0;0;0;0;3;NA;NA;NA;0;NA;1575;50000;Herbivore-Mixed-Feeder;NA
Alces alces;Alces alces;Artiodactyla;Cervidae;1;2;1;1;1;0;0;0;0;2;NA;NA;NA;0;NA;2750;351000;Herbivore-browser;Espoo2018Apr
Alces americanus;Alces americanus;Artiodactyla;Cervidae;1;2;1;1;1;0;0;0;0;2;NA;NA;NA;0;NA;2750;541460.44;Herbivore-browser;Espoo2018Apr
Axis axis;Axis axis;Artiodactyla;Cervidae;2;2;1;0;1;1;0;0;0;3;NA;NA;NA;0;NA;1600;55000;Herbivore-grazer;NA
Axis calamianensis;Axis calamianensis;Artiodactyla;Cervidae;2;2;1;0;1;1;0;0;0;3;NA;NA;NA;0;NA;1375;39812.6;;NA
Axis kuhlii;Axis kuhlii;Artiodactyla;Cervidae;2;2;1;0;1;1;0;0;0;3;NA;NA;NA;0;NA;1375;54999.99;;NA
Axis porcinus;Axis porcinus;Artiodactyla;Cervidae;2;2;1;0;1;1;0;0;0;3;NA;NA;NA;0;NA;1300;33500;Herbivore-grazer;NA
Blastocerus dichotomus;Blastocerus dichotomus;Artiodactyla;Cervidae;1;2;1;1;1;0;0;0;0;3;NA;NA;NA;0;NA;1875;102500;Herbivore-browser;Espoo2018Apr
Capreolus capreolus;Capreolus capreolus;Artiodactyla;Cervidae;1;2;1;1;1;0;0;0;0;3;NA;NA;NA;0;NA;1230;21500;Herbivore-browser;Espoo2018Apr
Capreolus pygargus;Capreolus pygargus;Artiodactyla;Cervidae;1;2;1;1;1;0;0;0;0;3;NA;NA;NA;0;NA;1230;39450;Herbivore-browser;Espoo2018Apr
Cervus duvaucelii;Cervus duvaucelii;Artiodactyla;Cervidae;2;2;1;0;1;1;0;0;0;3;NA;NA;NA;0;NA;NA;NA;NA;NA
Cervus elaphus;Cervus elaphus;Artiodactyla;Cervidae;2;2;1;1;1;0;0;0;0;3;NA;NA;NA;0;NA;1950;149968;Herbivore-Mixed-Feeder;Espoo2018Apr
Cervus nippon;Cervus nippon;Artiodactyla;Cervidae;2;2;1;0;1;1;0;0;0;3;NA;NA;NA;0;NA;1375;53000;Herbivore-Mixed-Feeder;NA
Dama dama;Dama dama;Artiodactyla;Cervidae;1;2;1;1;1;0;0;0;0;3;NA;NA;NA;0;NA;1450;54500;Herbivore-Mixed-Feeder;Espoo2018Apr
Dama mesopotamica;Dama mesopotamica;Artiodactyla;Cervidae;1;2;1;1;1;0;0;0;0;3;NA;NA;NA;0;NA;NA;NA;NA;Espoo2018Apr
Elaphodus cephalophus;Elaphodus cephalophus;Artiodactyla;Cervidae;1;2;1;1;1;0;0;0;0;3;NA;NA;NA;0;NA;1350;18000;Herbivore-browser;Espoo2018Apr
Elaphurus davidianus;Elaphurus davidianus;Artiodactyla;Cervidae;1;2;1;0;1;1;0;0;0;3;NA;NA;NA;0;NA;1995;149000;Herbivore-grazer;NA
Hippocamelus antisensis;Hippocamelus antisensis;Artiodactyla;Cervidae;1;2;1;1;1;0;0;0;0;3;NA;NA;NA;0;NA;1530;68600;Herbivore-grazer;Espoo2018Apr
Hippocamelus bisulcus;Hippocamelus bisulcus;Artiodactyla;Cervidae;1;2;1;1;1;0;0;0;0;3;NA;NA;NA;0;NA;1530;69984;Herbivore-Mixed-Feeder;Espoo2018Apr
Hydropotes inermis;Hydropotes inermis;Artiodactyla;Cervidae;1;2;1;1;1;0;0;0;0;3;NA;NA;NA;0;NA;887.5;11000;Herbivore-browser;Espoo2018Apr
Mazama americana;Mazama americana;Artiodactyla;Cervidae;1;2;1;1;1;0;0;0;0;3;NA;NA;NA;0;NA;1100;26100;Frugivore-granivore;Espoo2018Apr
Mazama bororo;Mazama bororo;Artiodactyla;Cervidae;1;2;1;1;1;0;0;0;0;3;NA;NA;NA;0;NA;1035;25000;Frugivore-herbivore;Espoo2018Apr
Mazama bricenii;Mazama bricenii;Artiodactyla;Cervidae;1;2;1;1;1;0;0;0;0;3;NA;NA;NA;0;NA;1035;16499.85;Frugivore-granivore;Espoo2018Apr
Mazama chunyi;Mazama chunyi;Artiodactyla;Cervidae;1;2;1;1;1;0;0;0;0;3;NA;NA;NA;0;NA;1035;16071.74;Frugivore-granivore;Espoo2018Apr
Mazama gouazoubira;Mazama gouazoubira;Artiodactyla;Cervidae;1;2;1;1;1;0;0;0;0;3;NA;NA;NA;0;NA;1060;20000;Frugivore-herbivore;Espoo2018Apr
Mazama nana;Mazama nana;Artiodactyla;Cervidae;1;2;1;1;1;0;0;0;0;3;NA;NA;NA;0;NA;1035;17500;Frugivore-herbivore;Espoo2018Apr
Mazama pandora;Mazama pandora;Artiodactyla;Cervidae;1;2;1;1;1;0;0;0;0;3;NA;NA;NA;0;NA;1035;16500;Frugivore-granivore;Espoo2018Apr
Mazama rufina;Mazama rufina;Artiodactyla;Cervidae;1;2;1;1;1;0;0;0;0;3;NA;NA;NA;0;NA;775;8200;Frugivore-granivore;Espoo2018Apr
Mazama temama;Mazama temama;Artiodactyla;Cervidae;1;2;1;1;1;0;0;0;0;3;NA;NA;NA;0;NA;1035;16500;Frugivore-granivore;Espoo2018Apr
Muntiacus atherodes;Muntiacus atherodes;Artiodactyla;Cervidae;1;2;1;1;1;0;0;0;0;3;NA;NA;NA;0;NA;980;18939.1;Frugivore-granivore;Espoo2018Apr
Muntiacus crinifrons;Muntiacus crinifrons;Artiodactyla;Cervidae;1;2;1;0;1;0;0;0;0;3;NA;NA;NA;0;NA;980;18590.01;Frugivore-granivore;NA
Muntiacus feae;Muntiacus feae;Artiodactyla;Cervidae;1;2;1;1;1;0;0;0;0;3;NA;NA;NA;0;NA;980;21999.99;Frugivore-granivore;Espoo2018Apr
Muntiacus gongshanensis;Muntiacus gongshanensis;Artiodactyla;Cervidae;1;2;1;1;1;0;0;0;0;3;NA;NA;NA;0;NA;980;18590.01;Frugivore-granivore;Espoo2018Apr
Muntiacus muntjak;Muntiacus muntjak;Artiodactyla;Cervidae;1;2;1;1;1;0;0;0;0;3;NA;NA;NA;0;NA;981.2;14000;Herbivore-browser;Espoo2018Apr
Muntiacus puhoatensis;Muntiacus puhoatensis;Artiodactyla;Cervidae;1;2;1;1;1;0;0;0;0;3;NA;NA;NA;0;NA;980;21000;Frugivore-granivore;Espoo2018Apr
Muntiacus putaoensis;Muntiacus putaoensis;Artiodactyla;Cervidae;1;2;1;1;1;0;0;0;0;3;NA;NA;NA;0;NA;980;21000;Frugivore-granivore;Espoo2018Apr
Muntiacus reevesi;Muntiacus reevesi;Artiodactyla;Cervidae;1;2;1;1;1;0;0;0;0;3;NA;NA;NA;0;NA;718;12000;Frugivore-omnivore;Espoo2018Apr
Muntiacus rooseveltorum;Muntiacus rooseveltorum;Artiodactyla;Cervidae;1;2;1;1;1;0;0;0;0;3;NA;NA;NA;0;NA;980;10762.64;Frugivore-granivore;Espoo2018Apr
Muntiacus truongsonensis;Muntiacus truongsonensis;Artiodactyla;Cervidae;1;2;1;1;1;0;0;0;0;3;NA;NA;NA;0;NA;980;21000;Frugivore-granivore;Espoo2018Apr
Muntiacus vuquangensis;Muntiacus vuquangensis;Artiodactyla;Cervidae;1;2;1;1;1;0;0;0;0;3;NA;NA;NA;0;NA;980;36690.82;Frugivore-granivore;Espoo2018Apr
Odocoileus hemionus;Odocoileus hemionus;Artiodactyla;Cervidae;1;2;1;1;1;0;0;0;0;3;NA;NA;NA;0;NA;1369.8;55766.67;Herbivore-browser;Espoo2018Apr
Odocoileus virginianus;Odocoileus virginianus;Artiodactyla;Cervidae;1;2;1;1;1;0;0;0;0;3;NA;NA;NA;0;NA;1460;52000;Herbivore-browser;Espoo2018Apr
Ozotoceros bezoarticus;Ozotoceros bezoarticus;Artiodactyla;Cervidae;1;2;1;1;1;0;0;0;0;3;NA;NA;NA;0;NA;1250;35000;Herbivore-grazer;Espoo2018Apr
Przewalskium albirostris;Przewalskium albirostris;Artiodactyla;Cervidae;2;2;1;0;1;1;0;0;0;3;NA;NA;NA;0;NA;NA;125000;;NA
Pudu mephistophiles;Pudu mephistophiles;Artiodactyla;Cervidae;1;2;1;1;1;0;0;0;0;3;NA;NA;NA;0;NA;712.5;9000;Herbivore-browser;Espoo2018Apr
Pudu puda;Pudu puda;Artiodactyla;Cervidae;1;2;1;1;1;0;0;0;0;3;NA;NA;NA;0;NA;712.5;9000;Frugivore-granivore;Espoo2018Apr
Rangifer tarandus;Rangifer tarandus;Artiodactyla;Cervidae;1;2;1;0;1;0;0;0;0;3;NA;NA;NA;0;NA;1700;113200;Herbivore-Mixed-Feeder;NA
Rucervus duvaucelii;Rucervus duvaucelii;Artiodactyla;Cervidae;2;2;1;0;1;1;0;0;0;3;NA;NA;NA;0;NA;NA;143000;Herbivore-grazer;NA
Rucervus eldii;Rucervus eldii;Artiodactyla;Cervidae;2;2;1;0;1;1;0;0;0;3;NA;NA;NA;0;NA;1600;122500;;NA
Rucervus schomburgki;Rucervus schomburgki;Artiodactyla;Cervidae;2;2;1;0;1;1;0;0;0;3;NA;NA;NA;0;NA;NA;107626.42;;NA
Rusa alfredi;Rusa alfredi;Artiodactyla;Cervidae;2;2;1;0;1;1;0;0;0;3;NA;NA;NA;0;NA;NA;46475.04;;NA
Rusa marianna;Rusa marianna;Artiodactyla;Cervidae;2;2;1;0;1;1;0;0;0;3;NA;NA;NA;0;NA;1255;50000;;NA
Rusa timorensis;Rusa timorensis;Artiodactyla;Cervidae;1;2;1;0;1;1;0;0;0;3;NA;NA;NA;0;NA;1635;53000;;NA
Rusa unicolor;Rusa unicolor;Artiodactyla;Cervidae;2;2;1;0;1;1;0;0;0;3;NA;NA;NA;0;NA;2040;171000;;NA
Giraffa camelopardalis;Giraffa camelopardalis;Artiodactyla;Giraffidae;1;2;1;1;1;0;0;0;0;2;NA;NA;NA;0;850;3398.5;8e+05;Herbivore-browser;Espoo2018Apr
Okapia johnstoni;Okapia johnstoni;Artiodactyla;Giraffidae;1;2;1;1;1;0;0;0;0;2;NA;NA;NA;0;NA;2060;250000;Herbivore-browser;Espoo2018Apr
Hexaprotodon liberiensis;Hexaprotodon liberiensis;Artiodactyla;Hippopotamidae;1;0;1;0;1;1;0;0;1;2;NA;NA;NA;1;NA;1625;215000;Herbivore-browser;NA
Hippopotamus amphibius;Hippopotamus amphibius;Artiodactyla;Hippopotamidae;2;0;1;0;1;1;0;0;1;2;NA;NA;NA;1;1417.5;3975;1258333.33;Herbivore-grazer;NA
Moschus anhuiensis;Moschus anhuiensis;Artiodactyla;Moschidae;1;2;1;1;1;0;0;0;0;3;NA;NA;NA;0;NA;850;12000;;Espoo2018Apr
Moschus berezovskii;Moschus berezovskii;Artiodactyla;Moschidae;1;2;1;1;1;0;0;0;0;3;NA;NA;NA;0;NA;670;10900;Herbivore-browser;Espoo2018Apr
Moschus chrysogaster;Moschus chrysogaster;Artiodactyla;Moschidae;1;2;1;1;1;0;0;0;0;3;NA;NA;NA;0;NA;850;11000;Herbivore-Mixed-Feeder;Espoo2018Apr
Moschus cupreus;Moschus cupreus;Artiodactyla;Moschidae;1;2;1;1;1;0;0;0;0;3;NA;NA;NA;0;NA;850;12000;;Espoo2018Apr
Moschus fuscus;Moschus fuscus;Artiodactyla;Moschidae;1;2;1;1;1;0;0;0;0;3;NA;NA;NA;0;NA;850;13697.9;;Espoo2018Apr
Moschus leucogaster;Moschus leucogaster;Artiodactyla;Moschidae;1;2;1;1;1;0;0;0;0;3;NA;NA;NA;0;NA;850;12000;;Espoo2018Apr
Moschus moschiferus;Moschus moschiferus;Artiodactyla;Moschidae;1;2;1;1;1;0;0;0;0;3;NA;NA;NA;0;NA;850;12000;Herbivore-browser;Espoo2018Apr
Babyrousa babyrussa;Babyrousa babyrussa;Artiodactyla;Suidae;1;0;1;0;0;0;0;0;0;2;NA;NA;NA;0;NA;970;85000;Frugivore-omnivore;NA
Babyrousa bolabatuensis;Babyrousa bolabatuensis;Artiodactyla;Suidae;1;0;1;0;0;0;0;0;0;2;NA;NA;NA;0;NA;970;1e+05;;NA
Babyrousa celebensis;Babyrousa celebensis;Artiodactyla;Suidae;1;0;1;0;0;0;0;0;0;2;NA;NA;NA;0;NA;970;1e+05;;NA
Babyrousa togeanensis;Babyrousa togeanensis;Artiodactyla;Suidae;1;0;1;0;0;0;0;0;0;2;NA;NA;NA;0;NA;970;1e+05;;NA
Hylochoerus meinertzhageni;Hylochoerus meinertzhageni;Artiodactyla;Suidae;2;0;2;0;1;1;0;1;0;2;NA;NA;NA;0;188.5;1700;202500;Herbivore-Mixed-Feeder;NA
Phacochoerus aethiopicus;Phacochoerus aethiopicus;Artiodactyla;Suidae;3;0;3;0;0;0;1;1;0;2;NA;NA;NA;0;50;1200;71000;Herbivore-grazer;NA
Phacochoerus africanus;Phacochoerus africanus;Artiodactyla;Suidae;3;0;3;0;0;0;1;1;0;2;NA;NA;NA;0;82.5;1200;82499.99;Herbivore-grazer;NA
Potamochoerus larvatus;Potamochoerus larvatus;Artiodactyla;Suidae;1;0;1;0;1;0;0;0;1;2;NA;NA;NA;1;97.5;1250;69063.79;Frugivore-omnivore;Espoo2018Apr
Potamochoerus porcus;Potamochoerus porcus;Artiodactyla;Suidae;1;0;1;0;1;0;0;0;1;2;NA;NA;NA;1;NA;1250;71000;Frugivore-omnivore;Espoo2018Apr
Sus ahoenobarbus;Sus ahoenobarbus;Artiodactyla;Suidae;1;0;1;0;0;0;0;0;1;2;NA;NA;NA;1;NA;NA;2e+05;Frugivore-omnivore;Espoo2018Apr
Sus barbatus;Sus barbatus;Artiodactyla;Suidae;1;0;1;0;0;0;0;0;1;2;NA;NA;NA;1;NA;1350;102750;Frugivore-omnivore;Espoo2018Apr
Sus bucculentus;Sus bucculentus;Artiodactyla;Suidae;1;0;1;0;0;0;0;0;1;2;NA;NA;NA;1;NA;NA;2e+05;Frugivore-omnivore;Espoo2018Apr
Sus cebifrons;Sus cebifrons;Artiodactyla;Suidae;1;0;1;0;0;0;0;0;1;2;NA;NA;NA;1;NA;NA;190792.3;Frugivore-omnivore;Espoo2018Apr
Sus celebensis;Sus celebensis;Artiodactyla;Suidae;1;0;1;0;0;0;0;0;1;2;NA;NA;NA;1;NA;1350;53813.21;Frugivore-omnivore;Espoo2018Apr
Sus oliveri;Sus oliveri;Artiodactyla;Suidae;1;0;1;0;0;0;0;0;1;2;NA;NA;NA;1;NA;NA;2e+05;Frugivore-omnivore;Espoo2018Apr
Sus philippensis;Sus philippensis;Artiodactyla;Suidae;1;0;1;0;0;0;0;0;1;2;NA;NA;NA;1;NA;NA;190792.3;Frugivore-omnivore;Espoo2018Apr
Sus salvanius;Sus salvanius;Artiodactyla;Suidae;1;0;1;0;0;0;0;0;1;2;NA;NA;NA;1;NA;575;8150;Frugivore-omnivore;Espoo2018Apr
Sus scrofa;Sus scrofa;Artiodactyla;Suidae;1;0;1;0;0;0;0;0;1;2;NA;NA;NA;1;NA;1250;80000;Herbivore-browser;Espoo2018Apr
Sus verrucosus;Sus verrucosus;Artiodactyla;Suidae;1;0;1;0;0;0;0;0;1;2;NA;NA;NA;1;NA;1350;89406.23;Frugivore-omnivore;Espoo2018Apr
Catagonus wagneri;Catagonus wagneri;Artiodactyla;Tayassuidae;1;0;1;0;1;0;0;0;0;1;NA;NA;NA;0;NA;1006;35300;Frugivore-omnivore;Espoo2018Apr
Pecari tajacu;Pecari tajacu;Artiodactyla;Tayassuidae;1;0;1;0;1;0;0;0;0;1;NA;NA;NA;0;NA;858;20200;Frugivore-granivore;Espoo2018Apr
Tayassu pecari;Tayassu pecari;Artiodactyla;Tayassuidae;1;0;1;0;1;0;0;0;0;1;NA;NA;NA;0;NA;1025;32000;Frugivore-herbivore;Espoo2018Apr
Hyemoschus aquaticus;Hyemoschus aquaticus;Artiodactyla;Tragulidae;1;2;1;1;1;0;0;0;0;3;NA;NA;NA;0;NA;725;12250;Frugivore-granivore;Espoo2018Apr
Moschiola meminna;Moschiola meminna;Artiodactyla;Tragulidae;1;2;1;1;1;0;0;0;0;3;NA;NA;NA;0;NA;526.8;2450;;Espoo2018Apr
Tragulus javanicus;Tragulus javanicus;Artiodactyla;Tragulidae;1;2;1;1;1;0;0;0;0;3;NA;NA;NA;0;NA;430;3000;Frugivore-granivore;Espoo2018Apr
Tragulus kanchil;Tragulus kanchil;Artiodactyla;Tragulidae;1;2;1;1;1;0;0;0;0;3;NA;NA;NA;0;NA;575;4350;Frugivore-granivore;Espoo2018Apr
Tragulus napu;Tragulus napu;Artiodactyla;Tragulidae;1;2;1;1;1;0;0;0;0;3;NA;NA;NA;0;NA;480;5900;Frugivore-granivore;Espoo2018Apr
Tragulus nigricans;Tragulus nigricans;Artiodactyla;Tragulidae;1;2;1;1;1;0;0;0;0;3;NA;NA;NA;0;NA;575;4350;Frugivore-granivore;Espoo2018Apr
Tragulus versicolor;Tragulus versicolor;Artiodactyla;Tragulidae;1;2;1;1;1;0;0;0;0;3;NA;NA;NA;0;NA;575;4350;Frugivore-granivore;Espoo2018Apr
Tragulus williamsoni;Tragulus williamsoni;Artiodactyla;Tragulidae;1;2;1;1;1;0;0;0;0;3;NA;NA;NA;0;NA;575;4350;Frugivore-granivore;Espoo2018Apr
Equus asinus;Equus asinus;Perissodactyla;Equidae;3;2;1;0;1;0;1;1;0;3;NA;NA;NA;0;100;2000;220000;Herbivore-grazer;NA
Equus burchellii;Equus burchellii;Perissodactyla;Equidae;3;2;1;0;1;0;1;1;0;3;NA;NA;NA;0;276;2315;235000;Herbivore-grazer;NA
Equus caballus;Equus caballus;Perissodactyla;Equidae;3;2;1;0;1;0;1;1;0;3;NA;NA;NA;0;600;2000;350000;Herbivore-grazer;NA
Equus grevyi;Equus grevyi;Perissodactyla;Equidae;3;2;1;0;1;0;1;1;0;3;NA;NA;NA;0;408;2750;384000;Herbivore-grazer;NA
Equus hemionus;Equus hemionus;Perissodactyla;Equidae;3;2;1;0;1;0;1;1;0;3;NA;NA;NA;0;NA;2250;230000;Herbivore-grazer;NA
Equus kiang;Equus kiang;Perissodactyla;Equidae;3;2;1;0;1;0;1;1;0;3;NA;NA;NA;0;NA;NA;275000;Herbivore-grazer;NA
Equus onager;Equus onager;Perissodactyla;Equidae;3;2;1;0;1;0;1;1;0;3;NA;NA;NA;0;NA;NA;NA;NA;NA
Equus quagga;Equus quagga;Perissodactyla;Equidae;3;2;1;0;1;0;1;1;0;3;NA;NA;NA;0;NA;2570;4e+05;Herbivore-grazer;NA
Equus zebra;Equus zebra;Perissodactyla;Equidae;3;2;1;0;1;0;1;1;0;3;NA;NA;NA;0;NA;2350;260000;Herbivore-grazer;NA
Diceros bicornis;Diceros bicornis;Perissodactyla;Rhinocerotidae;2;1;1;1;1;0;0;0;0;4;NA;NA;NA;0;1180.5;3375;868960;Herbivore-browser;NA
Ceratotherium simum;Ceratotherium simum;Perissodactyla;Rhinocerotidae;3;2;1;0;1;0;1;1;0;5;NA;NA;NA;0;2177.6;3775;2233333.33;Herbivore-grazer;NA
Dicerorhinus sumatrensis;Dicerorhinus sumatrensis;Perissodactyla;Rhinocerotidae;1;1;1;1;1;0;0;0;0;5;NA;NA;NA;0;NA;2770;8e+05;Herbivore-browser;NA
Rhinoceros sondaicus;Rhinoceros sondaicus;Perissodactyla;Rhinocerotidae;1;1;1;1;1;0;0;0;0;5;NA;NA;NA;0;NA;3100;1400000;Herbivore-browser;NA
Rhinoceros unicornis;Rhinoceros unicornis;Perissodactyla;Rhinocerotidae;1;2;1;1;1;0;0;0;0;5;NA;NA;NA;0;NA;NA;1602333.33;Herbivore-Mixed-Feeder;NA
Tapirus bairdii;Tapirus bairdii;Perissodactyla;Tapiridae;1;0;1;1;0;0;0;0;0;3;NA;NA;NA;0;NA;1950;3e+05;Frugivore-herbivore;NA
Tapirus indicus;Tapirus indicus;Perissodactyla;Tapiridae;1;0;1;1;0;0;0;0;0;3;NA;NA;NA;0;NA;2000;275000;Herbivore-browser;NA
Tapirus pinchaque;Tapirus pinchaque;Perissodactyla;Tapiridae;1;0;1;1;0;0;0;0;0;3;NA;NA;NA;0;NA;2150;148950;Herbivore-Mixed-Feeder;NA
Tapirus terrestris;Tapirus terrestris;Perissodactyla;Tapiridae;1;0;1;1;0;0;0;0;0;3;NA;NA;NA;0;NA;1855;2e+05;Frugivore-herbivore;NA
Aotus nigriceps;Aotus nigriceps;Primates;Cebidae;1;0;1;0;0;0;0;0;0;3;NA;NA;NA;0;NA;357.5;950;Frugivore-omnivore;NA
Ateles geoffroyi;Ateles geoffroyi;Primates;Cebidae;1;0;1;0;0;0;0;0;0;3;NA;NA;NA;0;NA;435.5;7500;Frugivore-herbivore;NA
Lagothrix poeppigii;Lagothrix poeppigii;Primates;Cebidae;1;0;1;0;0;0;0;0;0;3;NA;NA;NA;0;NA;597;8500;Frugivore-herbivore;NA
Oreonax flavicauda;Oreonax flavicauda;Primates;Cebidae;1;0;1;0;0;0;0;0;0;3;NA;NA;NA;0;NA;NA;10000;;NA
Callimico goeldii;Callimico goeldii;Primates;Callitrichidae;1;0;1;0;0;0;0;0;0;2;NA;NA;NA;0;NA;222;533;Frugivore-omnivore;NA
Callithrix acariensis;Callithrix acariensis;Primates;Callitrichidae;1;0;1;0;0;0;0;0;0;2;NA;NA;NA;0;NA;134.5;420;Frugivore-omnivore;NA
Callithrix argentata;Callithrix argentata;Primates;Callitrichidae;1;0;1;0;0;0;0;0;0;2;NA;NA;NA;0;NA;230;355;Frugivore-omnivore;NA
Callithrix aurita;Callithrix aurita;Primates;Callitrichidae;1;0;1;0;0;0;0;0;0;2;NA;NA;NA;0;NA;134.5;400;Frugivore-omnivore;NA
Callithrix chrysoleuca;Callithrix chrysoleuca;Primates;Callitrichidae;1;0;1;0;0;0;0;0;0;2;NA;NA;NA;0;NA;134.5;350;Frugivore-omnivore;NA
Callithrix emiliae;Callithrix emiliae;Primates;Callitrichidae;1;0;1;0;0;0;0;0;0;2;NA;NA;NA;0;NA;134.5;313;Frugivore-omnivore;NA
Callithrix flaviceps;Callithrix flaviceps;Primates;Callitrichidae;1;0;1;0;0;0;0;0;0;2;NA;NA;NA;0;NA;134.5;406;Frugivore-omnivore;NA
Callithrix geoffroyi;Callithrix geoffroyi;Primates;Callitrichidae;1;0;1;0;0;0;0;0;0;2;NA;NA;NA;0;NA;134.5;290;Frugivore-omnivore;NA
Callithrix humeralifera;Callithrix humeralifera;Primates;Callitrichidae;1;0;1;0;0;0;0;0;0;2;NA;NA;NA;0;NA;134.5;343.33;Frugivore-omnivore;NA
Callithrix humilis;Callithrix humilis;Primates;Callitrichidae;1;0;1;0;0;0;0;0;0;2;NA;NA;NA;0;NA;134.5;165;Insectivore-omnivore;NA
Callithrix intermedia;Callithrix intermedia;Primates;Callitrichidae;1;0;1;0;0;0;0;0;0;2;NA;NA;NA;0;NA;134.5;350;Frugivore-omnivore;NA
Callithrix jacchus;Callithrix jacchus;Primates;Callitrichidae;1;0;1;0;0;0;0;0;0;2;NA;NA;NA;0;NA;219;290;Frugivore-omnivore;NA
Callithrix kuhlii;Callithrix kuhlii;Primates;Callitrichidae;1;0;1;0;0;0;0;0;0;2;NA;NA;NA;0;NA;134.5;315;Frugivore-omnivore;NA
Callithrix leucippe;Callithrix leucippe;Primates;Callitrichidae;1;0;1;0;0;0;0;0;0;2;NA;NA;NA;0;NA;134.5;420;Frugivore-omnivore;NA
Callithrix manicorensis;Callithrix manicorensis;Primates;Callitrichidae;1;0;1;0;0;0;0;0;0;2;NA;NA;NA;0;NA;134.5;135;Frugivore-omnivore;NA
Callithrix marcai;Callithrix marcai;Primates;Callitrichidae;1;0;1;0;0;0;0;0;0;2;NA;NA;NA;0;NA;134.5;350;Frugivore-omnivore;NA
Callithrix mauesi;Callithrix mauesi;Primates;Callitrichidae;1;0;1;0;0;0;0;0;0;2;NA;NA;NA;0;NA;134.5;360;Frugivore-omnivore;NA
Callithrix melanura;Callithrix melanura;Primates;Callitrichidae;1;0;1;0;0;0;0;0;0;2;NA;NA;NA;0;NA;134.5;260;Frugivore-omnivore;NA
Callithrix nigriceps;Callithrix nigriceps;Primates;Callitrichidae;1;0;1;0;0;0;0;0;0;2;NA;NA;NA;0;NA;134.5;370;Frugivore-omnivore;NA
Callithrix penicillata;Callithrix penicillata;Primates;Callitrichidae;1;0;1;0;0;0;0;0;0;2;NA;NA;NA;0;NA;134.5;307;Frugivore-omnivore;NA
Callithrix pygmaea;Callithrix pygmaea;Primates;Callitrichidae;1;0;1;0;0;0;0;0;0;2;NA;NA;NA;0;NA;134.5;116.83;Insectivore-omnivore;NA
Callithrix saterei;Callithrix saterei;Primates;Callitrichidae;1;0;1;0;0;0;0;0;0;2;NA;NA;NA;0;NA;134.5;435;Frugivore-omnivore;NA
Leontopithecus caissara;Leontopithecus caissara;Primates;Callitrichidae;1;0;1;0;0;0;0;0;0;2;NA;NA;NA;0;NA;268;570;Frugivore-omnivore;NA
Leontopithecus chrysomelas;Leontopithecus chrysomelas;Primates;Callitrichidae;1;0;1;0;0;0;0;0;0;2;NA;NA;NA;0;NA;268;578;Frugivore-omnivore;NA
Leontopithecus chrysopygus;Leontopithecus chrysopygus;Primates;Callitrichidae;1;0;1;0;0;0;0;0;0;2;NA;NA;NA;0;NA;268;575;Frugivore-omnivore;NA
Leontopithecus rosalia;Leontopithecus rosalia;Primates;Callitrichidae;1;0;1;0;0;0;0;0;0;2;NA;NA;NA;0;NA;268;600;Frugivore-omnivore;NA
Saguinus bicolor;Saguinus bicolor;Primates;Callitrichidae;1;0;1;0;0;0;0;0;0;2;NA;NA;NA;0;NA;242.5;430;Frugivore-omnivore;NA
Saguinus fuscicollis;Saguinus fuscicollis;Primates;Callitrichidae;1;0;1;0;0;0;0;0;0;2;NA;NA;NA;0;NA;222.5;370;Frugivore-omnivore;NA
Saguinus graellsi;Saguinus graellsi;Primates;Callitrichidae;1;0;1;0;0;0;0;0;0;2;NA;NA;NA;0;NA;242.5;562.5;;NA
Saguinus imperator;Saguinus imperator;Primates;Callitrichidae;1;0;1;0;0;0;0;0;0;2;NA;NA;NA;0;NA;244;450;Frugivore-omnivore;NA
Saguinus inustus;Saguinus inustus;Primates;Callitrichidae;1;0;1;0;0;0;0;0;0;2;NA;NA;NA;0;NA;242.5;460;Frugivore-omnivore;NA
Saguinus labiatus;Saguinus labiatus;Primates;Callitrichidae;1;0;1;0;0;0;0;0;0;2;NA;NA;NA;0;NA;267;501.33;Frugivore-omnivore;NA
Saguinus martinsi;Saguinus martinsi;Primates;Callitrichidae;1;0;1;0;0;0;0;0;0;2;NA;NA;NA;0;NA;242.5;350;Frugivore-omnivore;NA
Saguinus melanoleucus;Saguinus melanoleucus;Primates;Callitrichidae;1;0;1;0;0;0;0;0;0;2;NA;NA;NA;0;NA;242.5;562.5;;NA
Saguinus midas;Saguinus midas;Primates;Callitrichidae;1;0;1;0;0;0;0;0;0;2;NA;NA;NA;0;NA;244;500;Frugivore-omnivore;NA
Saguinus mystax;Saguinus mystax;Primates;Callitrichidae;1;0;1;0;0;0;0;0;0;2;NA;NA;NA;0;NA;242.5;525;Frugivore-omnivore;NA
Saguinus niger;Saguinus niger;Primates;Callitrichidae;1;0;1;0;0;0;0;0;0;2;NA;NA;NA;0;NA;242.5;355;Frugivore-omnivore;NA
Saguinus nigricollis;Saguinus nigricollis;Primates;Callitrichidae;1;0;1;0;0;0;0;0;0;2;NA;NA;NA;0;NA;242.5;411;Frugivore-omnivore;NA
Saguinus oedipus;Saguinus oedipus;Primates;Callitrichidae;1;0;1;0;0;0;0;0;0;2;NA;NA;NA;0;NA;242.5;411;Insectivore-omnivore;NA
Saguinus pileatus;Saguinus pileatus;Primates;Callitrichidae;1;0;1;0;0;0;0;0;0;2;NA;NA;NA;0;NA;242.5;562.5;;NA
Saguinus tripartitus;Saguinus tripartitus;Primates;Callitrichidae;1;0;1;0;0;0;0;0;0;2;NA;NA;NA;0;NA;242.5;385.05;;NA
Alouatta belzebul;Alouatta belzebul;Primates;Cebidae;1;1;1;0;0;0;0;0;0;3;NA;NA;NA;0;NA;737;6400;Herbivore-browser;Espoo2016July
Alouatta caraya;Alouatta caraya;Primates;Cebidae;1;1;1;0;0;0;0;0;0;3;NA;NA;NA;0;NA;485;5375;Frugivore-herbivore;Espoo2016July
Alouatta coibensis;Alouatta coibensis;Primates;Cebidae;1;1;1;0;0;0;0;0;0;3;NA;NA;NA;0;NA;737;7000;;Espoo2016July
Alouatta guariba guariba;Alouatta fusca;Primates;Cebidae;1;1;1;0;0;0;0;0;0;3;NA;NA;NA;0;NA;NA;NA;NA;Espoo2016July
Alouatta guariba;Alouatta guariba;Primates;Cebidae;1;1;1;0;0;0;0;0;0;3;NA;NA;NA;0;NA;505;5540;Herbivore-browser;Berlin2016June
Alouatta macconnelli;Alouatta macconnelli;Primates;Cebidae;1;1;1;0;0;0;0;0;0;3;NA;NA;NA;0;NA;737;6000;Herbivore-browser;Espoo2016July
Alouatta nigerrima;Alouatta nigerrima;Primates;Cebidae;1;1;1;0;0;0;0;0;0;3;NA;NA;NA;0;NA;737;6600;Herbivore-browser;Espoo2016July
Alouatta palliata;Alouatta palliata;Primates;Cebidae;1;1;1;0;0;0;0;0;0;3;NA;NA;NA;0;NA;511.5;6679;Frugivore-herbivore;Espoo2016July
Alouatta pigra;Alouatta pigra;Primates;Cebidae;1;1;1;0;0;0;0;0;0;3;NA;NA;NA;0;NA;580;8915;Frugivore-herbivore;Berlin2016June
Alouatta sara;Alouatta sara;Primates;Cebidae;1;1;1;0;0;0;0;0;0;3;NA;NA;NA;0;NA;737;6600;Herbivore-browser;Espoo2016July
Alouatta seniculus;Alouatta seniculus;Primates;Cebidae;1;1;1;0;0;0;0;0;0;3;NA;NA;NA;0;NA;564.5;6185;Frugivore-herbivore;Espoo2016July
Aotus azarae;Aotus azarae;Primates;Cebidae;1;0;1;0;0;0;0;0;0;3;NA;NA;NA;0;NA;357.5;1205;Frugivore-omnivore;NA
Aotus hershkovitzi;Aotus hershkovitzi;Primates;Cebidae;1;0;1;0;0;0;0;0;0;3;NA;NA;NA;0;NA;305;800;;NA
Aotus infulatus;Aotus infulatus;Primates;Cebidae;1;0;1;0;0;0;0;0;0;3;NA;NA;NA;0;NA;NA;NA;NA;NA
Aotus lemurinus;Aotus lemurinus;Primates;Cebidae;1;0;1;0;0;0;0;0;0;3;NA;NA;NA;0;NA;305;874;Frugivore-omnivore;NA
Aotus miconax;Aotus miconax;Primates;Cebidae;1;0;1;0;0;0;0;0;0;3;NA;NA;NA;0;NA;305;800;;NA
Aotus nancymaae;Aotus nancymaae;Primates;Cebidae;1;0;1;0;0;0;0;0;0;3;NA;NA;NA;0;NA;305;787;Frugivore-omnivore;NA
Aotus trivirgatus;Aotus trivirgatus;Primates;Cebidae;1;0;1;0;0;0;0;0;0;3;NA;NA;NA;0;NA;330.4;833.56;Frugivore-omnivore;NA
Aotus vociferans;Aotus vociferans;Primates;Cebidae;1;0;1;0;0;0;0;0;0;3;NA;NA;NA;0;NA;305;700;Frugivore-omnivore;NA
Ateles belzebuth;Ateles belzebuth;Primates;Cebidae;1;0;1;0;0;0;0;0;0;3;NA;NA;NA;0;NA;499;7500;Frugivore-granivore;NA
Ateles chamek;Ateles chamek;Primates;Cebidae;1;0;1;0;0;0;0;0;0;3;NA;NA;NA;0;NA;508.5;7000;Frugivore-herbivore;NA
Ateles fusciceps;Ateles fusciceps;Primates;Cebidae;1;0;1;0;0;0;0;0;0;3;NA;NA;NA;0;NA;508.5;7761.8;;NA
Ateles hybridus;Ateles hybridus;Primates;Cebidae;1;0;1;0;0;0;0;0;0;3;NA;NA;NA;0;NA;508.5;6000;;NA
Ateles marginatus;Ateles marginatus;Primates;Cebidae;1;0;1;0;0;0;0;0;0;3;NA;NA;NA;0;NA;508.5;5500;Frugivore-herbivore;NA
Ateles paniscus;Ateles paniscus;Primates;Cebidae;1;0;1;0;0;0;0;0;0;3;NA;NA;NA;0;NA;430;7758.8;Frugivore-herbivore;NA
Brachyteles arachnoides;Brachyteles arachnoides;Primates;Cebidae;1;0;1;0;0;0;0;0;0;4;NA;NA;NA;0;NA;545;10750;Frugivore-herbivore;NA
Brachyteles hypoxanthus;Brachyteles hypoxanthus;Primates;Cebidae;1;0;1;0;0;0;0;0;0;4;NA;NA;NA;0;NA;545;13000;Frugivore-herbivore;NA
Cacajao calvus;Cacajao calvus;Primates;Cebidae;1;0;1;0;0;0;0;0;0;3;NA;NA;NA;0;NA;540;3165;Frugivore-granivore;NA
Cacajao melanocephalus;Cacajao melanocephalus;Primates;Cebidae;1;0;1;0;0;0;0;0;0;3;NA;NA;NA;0;NA;540;2935;Frugivore-granivore;NA
Callicebus baptista;Callicebus baptista;Primates;Cebidae;1;0;1;0;0;0;0;0;0;3;NA;NA;NA;0;NA;425;950;Frugivore-herbivore;NA
Callicebus barbarabrownae;Callicebus barbarabrownae;Primates;Cebidae;1;0;1;0;0;0;0;0;0;3;NA;NA;NA;0;NA;425;1000;Frugivore-herbivore;NA
Callicebus brunneus;Callicebus brunneus;Primates;Cebidae;1;0;1;0;0;0;0;0;0;3;NA;NA;NA;0;NA;323.5;830;Frugivore-herbivore;NA
Callicebus cinerascens;Callicebus cinerascens;Primates;Cebidae;1;0;1;0;0;0;0;0;0;3;NA;NA;NA;0;NA;425;740;Frugivore-herbivore;NA
Callicebus coimbrai;Callicebus coimbrai;Primates;Cebidae;1;0;1;0;0;0;0;0;0;3;NA;NA;NA;0;NA;425;1020;Frugivore-herbivore;NA
Callicebus cupreus;Callicebus cupreus;Primates;Cebidae;1;0;1;0;0;0;0;0;0;3;NA;NA;NA;0;NA;425;1120;Frugivore-herbivore;NA
Callicebus donacophilus;Callicebus donacophilus;Primates;Cebidae;1;0;1;0;0;0;0;0;0;3;NA;NA;NA;0;NA;425;950;Frugivore-herbivore;NA
Callicebus hoffmannsi;Callicebus hoffmannsi;Primates;Cebidae;1;0;1;0;0;0;0;0;0;3;NA;NA;NA;0;NA;425;920;Frugivore-herbivore;NA
Callicebus medemi;Callicebus medemi;Primates;Cebidae;1;0;1;0;0;0;0;0;0;3;NA;NA;NA;0;NA;425;NA;;NA
Callicebus melanochir;Callicebus melanochir;Primates;Cebidae;1;0;1;0;0;0;0;0;0;3;NA;NA;NA;0;NA;425;1370;Frugivore-herbivore;NA
Callicebus modestus;Callicebus modestus;Primates;Cebidae;1;0;1;0;0;0;0;0;0;3;NA;NA;NA;0;NA;425;992.4;;NA
Callicebus moloch;Callicebus moloch;Primates;Cebidae;1;0;1;0;0;0;0;0;0;3;NA;NA;NA;0;NA;323.5;950;Frugivore-herbivore;NA
Callicebus nigrifrons;Callicebus nigrifrons;Primates;Cebidae;1;0;1;0;0;0;0;0;0;3;NA;NA;NA;0;NA;425;1300;Frugivore-herbivore;NA
Callicebus oenanthe;Callicebus oenanthe;Primates;Cebidae;1;0;1;0;0;0;0;0;0;3;NA;NA;NA;0;NA;425;992.4;;NA
Callicebus olallae;Callicebus olallae;Primates;Cebidae;1;0;1;0;0;0;0;0;0;3;NA;NA;NA;0;NA;425;992.4;;NA
Callicebus ornatus;Callicebus ornatus;Primates;Cebidae;1;0;1;0;0;0;0;0;0;3;NA;NA;NA;0;NA;425;NA;;NA
Callicebus personatus;Callicebus personatus;Primates;Cebidae;1;0;1;0;0;0;0;0;0;3;NA;NA;NA;0;NA;438;1310;Frugivore-herbivore;NA
Callicebus torquatus;Callicebus torquatus;Primates;Cebidae;1;0;1;0;0;0;0;0;0;3;NA;NA;NA;0;NA;425;1050;Frugivore-granivore;NA
Cebus albifrons;Cebus albifrons;Primates;Cebidae;1;0;1;0;0;0;0;0;0;3;NA;NA;NA;0;NA;409;2700;Frugivore-omnivore;NA
Cebus apella;Cebus apella;Primates;Cebidae;1;0;1;0;0;0;0;0;0;3;NA;NA;NA;0;NA;419;3050;Frugivore-omnivore;NA
Cebus capucinus;Cebus capucinus;Primates;Cebidae;1;0;1;0;0;0;0;0;0;3;NA;NA;NA;0;NA;444;3100;Frugivore-omnivore;NA
Cebus kaapori;Cebus kaapori;Primates;Cebidae;1;0;1;0;0;0;0;0;0;3;NA;NA;NA;0;NA;435;3050;Frugivore-omnivore;NA
Cebus libidinosus;Cebus libidinosus;Primates;Cebidae;1;0;1;0;0;0;0;0;0;3;NA;NA;NA;0;NA;435;2750;Frugivore-omnivore;NA
Cebus nigritus;Cebus nigritus;Primates;Cebidae;1;0;1;0;0;0;0;0;0;3;NA;NA;NA;0;NA;435;3500;Frugivore-omnivore;NA
Cebus olivaceus;Cebus olivaceus;Primates;Cebidae;1;0;1;0;0;0;0;0;0;3;NA;NA;NA;0;NA;417;2700;Frugivore-omnivore;NA
Cebus xanthosternos;Cebus xanthosternos;Primates;Cebidae;1;0;1;0;0;0;0;0;0;3;NA;NA;NA;0;NA;435;2950;Frugivore-omnivore;NA
Chiropotes albinasus;Chiropotes albinasus;Primates;Cebidae;1;0;1;0;0;0;0;0;0;3;NA;NA;NA;0;NA;419;2820;Frugivore-granivore;NA
Chiropotes satanas;Chiropotes satanas;Primates;Cebidae;1;0;1;0;0;0;0;0;0;3;NA;NA;NA;0;NA;383.5;2885;Frugivore-granivore;NA
Lagothrix cana;Lagothrix cana;Primates;Cebidae;1;0;1;0;0;0;0;0;0;3;NA;NA;NA;0;NA;597;8500;Frugivore-herbivore;NA
Lagothrix lagotricha;Lagothrix lagotricha;Primates;Cebidae;1;0;1;0;0;0;0;0;0;3;NA;NA;NA;0;NA;485;7150;Frugivore-herbivore;NA
Lagothrix lugens;Lagothrix lugens;Primates;Cebidae;1;0;1;0;0;0;0;0;0;3;NA;NA;NA;0;NA;597;8150;;NA
Pithecia aequatorialis;Pithecia aequatorialis;Primates;Cebidae;1;0;1;0;0;0;0;0;0;3;NA;NA;NA;0;NA;502.5;2250;;NA
Pithecia albicans;Pithecia albicans;Primates;Cebidae;1;0;1;0;0;0;0;0;0;3;NA;NA;NA;0;NA;502.5;3000;Frugivore-granivore;NA
Pithecia irrorata;Pithecia irrorata;Primates;Cebidae;1;0;1;0;0;0;0;0;0;3;NA;NA;NA;0;NA;425;2160;Frugivore-granivore;NA
Pithecia monachus;Pithecia monachus;Primates;Cebidae;1;0;1;0;0;0;0;0;0;3;NA;NA;NA;0;NA;425;1900;Frugivore-granivore;NA
Pithecia pithecia;Pithecia pithecia;Primates;Cebidae;1;0;1;0;0;0;0;0;0;3;NA;NA;NA;0;NA;382.5;1640;Frugivore-granivore;NA
Saguinus geoffroyi;Saguinus geoffroyi;Primates;Cebidae;1;0;1;0;0;0;0;0;0;3;NA;NA;NA;0;NA;242.5;499.33;;NA
Saguinus leucopus;Saguinus leucopus;Primates;Cebidae;1;0;1;0;0;0;0;0;0;3;NA;NA;NA;0;NA;242.5;490;Insectivore-omnivore;NA
Saimiri boliviensis;Saimiri boliviensis;Primates;Cebidae;1;0;1;0;0;0;0;0;0;3;NA;NA;NA;0;NA;310;811;Frugivore-omnivore;NA
Saimiri oerstedii;Saimiri oerstedii;Primates;Cebidae;1;0;1;0;0;0;0;0;0;3;NA;NA;NA;0;NA;310;789;;NA
Saimiri sciureus;Saimiri sciureus;Primates;Cebidae;1;0;1;0;0;0;0;0;0;3;NA;NA;NA;0;NA;285;721;Frugivore-omnivore;NA
Saimiri ustus;Saimiri ustus;Primates;Cebidae;1;0;1;0;0;0;0;0;0;3;NA;NA;NA;0;NA;310;860;Frugivore-omnivore;NA
Saimiri vanzolinii;Saimiri vanzolinii;Primates;Cebidae;1;0;1;0;0;0;0;0;0;3;NA;NA;NA;0;NA;310;800;Frugivore-omnivore;NA
Allenopithecus nigroviridis;Allenopithecus nigroviridis;Primates;Cercopithecidae;1;0;1;0;0;0;0;0;0;2;NA;NA;NA;0;NA;455;3301.67;Frugivore-omnivore;NA
Cercocebus agilis;Cercocebus agilis;Primates;Cercopithecidae;1;0;1;0;0;0;0;0;0;2;NA;NA;NA;0;NA;635;7105.62;;NA
Cercocebus atys;Cercocebus atys;Primates;Cercopithecidae;1;0;1;0;0;0;0;0;0;2;NA;NA;NA;0;NA;635;6941.24;;NA
Cercocebus chrysogaster;Cercocebus chrysogaster;Primates;Cercopithecidae;1;0;1;0;0;0;0;0;0;2;NA;NA;NA;0;NA;635;11500;;NA
Cercocebus galeritus;Cercocebus galeritus;Primates;Cercopithecidae;1;0;1;0;0;0;0;0;0;2;NA;NA;NA;0;7.8;635;5425.75;Frugivore-herbivore;NA
Cercocebus sanjei;Cercocebus sanjei;Primates;Cercopithecidae;1;0;1;0;0;0;0;0;0;2;NA;NA;NA;0;NA;635;11500;;NA
Cercocebus torquatus;Cercocebus torquatus;Primates;Cercopithecidae;1;0;1;0;0;0;0;0;0;2;NA;NA;NA;0;NA;635;7036.67;Frugivore-herbivore;NA
Cercopithecus albogularis;Cercopithecus albogularis;Primates;Cercopithecidae;1;0;1;0;0;0;0;0;0;2;NA;NA;NA;0;NA;512.5;NA;;NA
Cercopithecus ascanius;Cercopithecus ascanius;Primates;Cercopithecidae;1;0;1;0;0;0;0;0;0;2;NA;NA;NA;0;3.5;512.5;3310;Frugivore-omnivore;NA
Cercopithecus campbelli;Cercopithecus campbelli;Primates;Cercopithecidae;1;0;1;0;0;0;0;0;0;2;NA;NA;NA;0;NA;1143.8;3150;;NA
Cercopithecus cephus;Cercopithecus cephus;Primates;Cercopithecidae;1;0;1;0;0;0;0;0;0;2;NA;NA;NA;0;NA;512.5;2866.25;Frugivore-granivore;NA
Cercopithecus denti;Cercopithecus denti;Primates;Cercopithecidae;1;0;1;0;0;0;0;0;0;2;NA;NA;NA;0;NA;512.5;NA;;NA
Cercopithecus diana;Cercopithecus diana;Primates;Cercopithecidae;1;0;1;0;0;0;0;0;0;2;NA;NA;NA;0;NA;512.5;4216.5;;NA
Cercopithecus doggetti;Cercopithecus doggetti;Primates;Cercopithecidae;1;0;1;1;0;0;0;0;0;2;NA;NA;NA;0;NA;512.5;NA;;NA
Cercopithecus dryas;Cercopithecus dryas;Primates;Cercopithecidae;1;0;1;0;0;0;0;0;0;2;NA;NA;NA;0;NA;512.5;3000;;NA
Cercopithecus erythrogaster;Cercopithecus erythrogaster;Primates;Cercopithecidae;1;0;1;0;0;0;0;0;0;2;NA;NA;NA;0;NA;512.5;3250;Frugivore-herbivore;NA
Cercopithecus erythrotis;Cercopithecus erythrotis;Primates;Cercopithecidae;1;0;1;0;0;0;0;0;0;2;NA;NA;NA;0;NA;512.5;3250;Frugivore-herbivore;NA
Cercopithecus hamlyni;Cercopithecus hamlyni;Primates;Cercopithecidae;1;0;1;0;0;0;0;0;0;2;NA;NA;NA;0;NA;512.5;4425;;NA
Cercopithecus kandti;Cercopithecus kandti;Primates;Cercopithecidae;1;0;1;1;0;0;0;0;0;2;NA;NA;NA;0;NA;512.5;NA;;NA
Cercopithecus lhoesti;Cercopithecus lhoesti;Primates;Cercopithecidae;1;0;1;0;0;0;0;0;0;2;NA;NA;NA;0;NA;555;4700;;NA
Cercopithecus lowei;Cercopithecus lowei;Primates;Cercopithecidae;1;0;1;1;0;0;0;0;0;2;NA;NA;NA;0;NA;512.5;NA;;NA
Cercopithecus mitis;Cercopithecus mitis;Primates;Cercopithecidae;1;0;1;0;0;0;0;0;0;2;NA;NA;NA;0;5;493.8;6000;Frugivore-herbivore;NA
Cercopithecus mona;Cercopithecus mona;Primates;Cercopithecidae;1;0;1;1;1;0;0;0;0;2;NA;NA;NA;0;NA;512.5;3833.33;Frugivore-herbivore;Berlin2016June
Cercopithecus neglectus;Cercopithecus neglectus;Primates;Cercopithecidae;1;0;1;0;0;0;0;0;0;2;NA;NA;NA;0;5.5;488.8;4670.17;Frugivore-herbivore;NA
Cercopithecus nictitans;Cercopithecus nictitans;Primates;Cercopithecidae;1;0;1;0;0;0;0;0;0;2;NA;NA;NA;0;NA;512.5;4225.33;Frugivore-granivore;NA
Cercopithecus petaurista;Cercopithecus petaurista;Primates;Cercopithecidae;1;0;1;0;0;0;0;0;0;2;NA;NA;NA;0;NA;512.5;3650;;NA
Cercopithecus pogonias;Cercopithecus pogonias;Primates;Cercopithecidae;1;0;1;0;0;0;0;0;0;2;NA;NA;NA;0;NA;512.5;2973.67;Frugivore-granivore;NA
Cercopithecus preussi;Cercopithecus preussi;Primates;Cercopithecidae;1;0;1;0;0;0;0;0;0;2;NA;NA;NA;0;NA;512.5;5132.57;;Berlin2016June
Cercopithecus roloway;Cercopithecus roloway;Primates;Cercopithecidae;1;0;1;1;0;0;0;0;0;2;NA;NA;NA;0;NA;512.5;NA;;NA
Cercopithecus sclateri;Cercopithecus sclateri;Primates;Cercopithecidae;1;0;1;0;0;0;0;0;0;2;NA;NA;NA;0;NA;512.5;3250;;NA
Cercopithecus solatus;Cercopithecus solatus;Primates;Cercopithecidae;1;0;1;0;0;0;0;0;0;2;NA;NA;NA;0;NA;512.5;3920;;NA
Cercopithecus wolfi;Cercopithecus wolfi;Primates;Cercopithecidae;1;0;1;0;0;0;0;0;0;2;NA;NA;NA;0;NA;512.5;2870;;NA
Chlorocebus aethiops;Chlorocebus aethiops;Primates;Cercopithecidae;1;0;1;0;0;0;0;0;0;2;NA;NA;NA;0;NA;483.5;3732.64;;NA
Chlorocebus cynosuros;Chlorocebus cynosuros;Primates;Cercopithecidae;1;0;1;0;0;0;0;0;0;2;NA;NA;NA;0;NA;NA;NA;;NA
Chlorocebus djamdjamensis;Chlorocebus djamdjamensis;Primates;Cercopithecidae;1;0;1;1;0;0;0;0;0;2;NA;NA;NA;0;NA;NA;NA;;NA
Chlorocebus pygerythrus;Chlorocebus pygerythrus;Primates;Cercopithecidae;1;0;1;0;0;0;0;0;0;2;NA;NA;NA;0;5.2;NA;NA;;NA
Chlorocebus sabaeus;Chlorocebus sabaeus;Primates;Cercopithecidae;1;0;1;0;0;0;0;0;0;2;NA;NA;NA;0;NA;NA;NA;;NA
Chlorocebus tantalus;Chlorocebus tantalus;Primates;Cercopithecidae;1;0;1;0;0;0;0;0;0;2;NA;NA;NA;0;4.2;NA;NA;;NA
Colobus angolensis;Colobus angolensis;Primates;Cercopithecidae;1;0;1;1;0;0;0;0;0;2;NA;NA;NA;0;9.8;585;8625;;NA
Colobus guereza;Colobus guereza;Primates;Cercopithecidae;1;0;1;1;0;0;0;0;0;2;NA;NA;NA;0;10.6;585;8000;Frugivore-granivore;NA
Colobus polykomos;Colobus polykomos;Primates;Cercopithecidae;1;0;1;1;0;0;0;0;0;2;NA;NA;NA;0;NA;585;8508;Frugivore-herbivore;NA
Colobus satanas;Colobus satanas;Primates;Cercopithecidae;1;0;1;1;0;0;0;0;0;2;NA;NA;NA;0;NA;585;8910;;NA
Colobus vellerosus;Colobus vellerosus;Primates;Cercopithecidae;1;0;1;1;0;0;0;0;0;2;NA;NA;NA;0;NA;585;7700.18;;NA
Erythrocebus patas;Erythrocebus patas;Primates;Cercopithecidae;1;0;1;0;0;0;0;0;0;2;NA;NA;NA;0;8.1;737.5;5883.4;Frugivore-herbivore;NA
Lophocebus albigena;Lophocebus albigena;Primates;Cercopithecidae;1;0;1;0;0;0;0;0;0;2;NA;NA;NA;0;NA;NA;7000;;NA
Lophocebus aterrimus;Lophocebus aterrimus;Primates;Cercopithecidae;1;0;1;0;0;0;0;0;0;2;NA;NA;NA;0;NA;NA;6510.37;;NA
Lophocebus opdenboschi;Lophocebus opdenboschi;Primates;Cercopithecidae;1;0;1;0;0;0;0;0;0;2;NA;NA;NA;0;NA;NA;NA;;NA
Macaca arctoides;Macaca arctoides;Primates;Cercopithecidae;1;0;1;0;0;0;0;0;0;2;NA;NA;NA;0;NA;575;7307.67;;NA
Macaca assamensis;Macaca assamensis;Primates;Cercopithecidae;1;0;1;0;0;0;0;0;0;2;NA;NA;NA;0;NA;572.5;9100;;NA
Macaca cyclopis;Macaca cyclopis;Primates;Cercopithecidae;1;0;1;0;0;0;0;0;0;2;NA;NA;NA;0;NA;565.5;6316.67;;NA
Macaca fascicularis;Macaca fascicularis;Primates;Cercopithecidae;1;0;1;0;0;0;0;0;0;2;NA;NA;NA;0;NA;447.5;3456.29;;NA
Macaca fuscata;Macaca fuscata;Primates;Cercopithecidae;1;0;1;0;0;0;0;0;0;2;NA;NA;NA;0;NA;565.5;8857.5;;NA
Macaca hecki;Macaca hecki;Primates;Cercopithecidae;1;0;1;0;0;0;0;0;0;2;NA;NA;NA;0;NA;565.5;15000;;NA
Macaca leonina;Macaca leonina;Primates;Cercopithecidae;1;0;1;0;0;0;0;0;0;2;NA;NA;NA;0;NA;565.5;15000;;NA
Macaca maura;Macaca maura;Primates;Cercopithecidae;1;0;1;0;0;0;0;0;0;2;NA;NA;NA;0;NA;565.5;5575;;NA
Macaca mulatta;Macaca mulatta;Primates;Cercopithecidae;1;0;1;0;0;0;0;0;0;2;NA;NA;NA;0;NA;527.5;5413.4;;NA
Macaca nemestrina;Macaca nemestrina;Primates;Cercopithecidae;1;0;1;0;0;0;0;0;0;2;NA;NA;NA;0;NA;447.5;6133.1;;NA
Macaca nigra;Macaca nigra;Primates;Cercopithecidae;1;0;1;0;0;0;0;0;0;2;NA;NA;NA;0;NA;565.5;6211.67;;NA
Macaca nigrescens;Macaca nigrescens;Primates;Cercopithecidae;1;0;1;0;0;0;0;0;0;2;NA;NA;NA;0;NA;565.5;15000;;NA
Macaca ochreata;Macaca ochreata;Primates;Cercopithecidae;1;0;1;0;0;0;0;0;0;2;NA;NA;NA;0;NA;565.5;2745.5;;NA
Macaca pagensis;Macaca pagensis;Primates;Cercopithecidae;1;0;1;0;0;0;0;0;0;2;NA;NA;NA;0;NA;565.5;4534.66;;NA
Macaca radiata;Macaca radiata;Primates;Cercopithecidae;1;0;1;0;0;0;0;0;0;2;NA;NA;NA;0;NA;565.5;3735;;NA
Macaca siberu;Macaca siberu;Primates;Cercopithecidae;1;0;1;0;0;0;0;0;0;2;NA;NA;NA;0;NA;565.5;15000;;NA
Macaca silenus;Macaca silenus;Primates;Cercopithecidae;1;0;1;0;0;0;0;0;0;2;NA;NA;NA;0;NA;565.5;4875;;NA
Macaca sinica;Macaca sinica;Primates;Cercopithecidae;1;0;1;0;0;0;0;0;0;2;NA;NA;NA;0;NA;447.5;4440;Frugivore-granivore;NA
Macaca sylvanus;Macaca sylvanus;Primates;Cercopithecidae;1;0;1;0;0;0;0;0;0;2;NA;NA;NA;0;NA;764;9752.6;;NA
Macaca thibetana;Macaca thibetana;Primates;Cercopithecidae;1;0;1;0;0;0;0;0;0;2;NA;NA;NA;0;NA;565.5;10036.67;;NA
Macaca tonkeana;Macaca tonkeana;Primates;Cercopithecidae;1;0;1;0;0;0;0;0;0;2;NA;NA;NA;0;NA;565.5;10035.53;;NA
Mandrillus leucophaeus;Mandrillus leucophaeus;Primates;Cercopithecidae;1;0;1;0;0;0;0;0;0;2;NA;NA;NA;0;NA;687;9087.5;Frugivore-herbivore;NA
Mandrillus sphinx;Mandrillus sphinx;Primates;Cercopithecidae;1;0;1;0;0;0;0;0;0;2;NA;NA;NA;0;NA;687;11916.67;Frugivore-herbivore;NA
Miopithecus ogouensis;Miopithecus ogouensis;Primates;Cercopithecidae;1;0;1;0;0;0;0;0;0;2;NA;NA;NA;0;NA;385;NA;;NA
Miopithecus talapoin;Miopithecus talapoin;Primates;Cercopithecidae;1;0;1;0;0;0;0;0;0;2;NA;NA;NA;0;NA;385;1130;Frugivore-omnivore;NA
Nasalis larvatus;Nasalis larvatus;Primates;Cercopithecidae;1;0;1;1;0;0;0;0;0;2;NA;NA;NA;0;NA;550;15100;Herbivore-browser;NA
Papio anubis;Papio anubis;Primates;Cercopithecidae;1;0;1;0;0;0;0;0;0;2;NA;NA;NA;0;19.4;825.5;21400;Frugivore-herbivore;NA
Papio cynocephalus;Papio cynocephalus;Primates;Cercopithecidae;1;0;1;0;0;0;0;0;0;2;NA;NA;NA;0;21;825.5;15100;Frugivore-herbivore;NA
Papio hamadryas;Papio hamadryas;Primates;Cercopithecidae;1;0;1;0;0;0;0;0;0;2;NA;NA;NA;0;NA;686;14028.57;;NA
Papio papio;Papio papio;Primates;Cercopithecidae;1;0;1;0;0;0;0;0;0;2;NA;NA;NA;0;NA;825.5;18026.05;;NA
Papio ursinus;Papio ursinus;Primates;Cercopithecidae;1;0;1;0;0;0;0;0;0;2;NA;NA;NA;0;NA;825.5;20600;Frugivore-herbivore;NA
Piliocolobus badius;Piliocolobus badius;Primates;Cercopithecidae;1;0;1;1;0;0;0;0;0;2;NA;NA;NA;0;NA;588.8;6163.5;Frugivore-herbivore;NA
Piliocolobus foai;Piliocolobus foai;Primates;Cercopithecidae;1;0;1;1;0;0;0;0;0;2;NA;NA;NA;0;NA;560;8200;;NA
Piliocolobus gordonorum;Piliocolobus gordonorum;Primates;Cercopithecidae;1;0;1;1;0;0;0;0;0;2;NA;NA;NA;0;NA;560;8200;;NA
Piliocolobus kirkii;Piliocolobus kirkii;Primates;Cercopithecidae;1;0;1;1;0;0;0;0;0;2;NA;NA;NA;0;NA;560;7158.29;;NA
Piliocolobus pennantii;Piliocolobus pennantii;Primates;Cercopithecidae;1;0;1;1;0;0;0;0;0;2;NA;NA;NA;0;NA;560;7953;;NA
Piliocolobus preussi;Piliocolobus preussi;Primates;Cercopithecidae;1;0;1;1;0;0;0;0;0;2;NA;NA;NA;0;NA;560;8865.71;;NA
Piliocolobus rufomitratus;Piliocolobus rufomitratus;Primates;Cercopithecidae;1;0;1;1;0;0;0;0;0;2;NA;NA;NA;0;8;560;8440;;NA
Piliocolobus tephrosceles;Piliocolobus tephrosceles;Primates;Cercopithecidae;1;0;1;1;0;0;0;0;0;2;NA;NA;NA;0;NA;560;8200;;NA
Piliocolobus tholloni;Piliocolobus tholloni;Primates;Cercopithecidae;1;0;1;1;0;0;0;0;0;2;NA;NA;NA;0;NA;560;8200;;NA
Presbytis chrysomelas;Presbytis chrysomelas;Primates;Cercopithecidae;1;0;1;0;0;0;0;0;0;2;NA;NA;NA;0;NA;515;6550;;NA
Presbytis comata;Presbytis comata;Primates;Cercopithecidae;1;0;1;0;0;0;0;0;0;2;NA;NA;NA;0;NA;515;6200;;Berlin2016June
Presbytis femoralis;Presbytis femoralis;Primates;Cercopithecidae;1;0;1;1;0;0;0;0;0;2;NA;NA;NA;0;NA;515;6225;;NA
Presbytis frontata;Presbytis frontata;Primates;Cercopithecidae;1;0;1;1;0;0;0;0;0;2;NA;NA;NA;0;NA;515;5615;;NA
Presbytis hosei;Presbytis hosei;Primates;Cercopithecidae;1;0;1;1;0;0;0;0;0;2;NA;NA;NA;0;NA;515;5905;;NA
Presbytis melalophos;Presbytis melalophos;Primates;Cercopithecidae;1;0;1;1;0;0;0;0;0;2;NA;NA;NA;0;NA;500;6530;;NA
Presbytis natunae;Presbytis natunae;Primates;Cercopithecidae;1;0;1;0;0;0;0;0;0;2;NA;NA;NA;0;NA;515;6550;;NA
Presbytis potenziani;Presbytis potenziani;Primates;Cercopithecidae;1;0;1;1;0;0;0;0;0;2;NA;NA;NA;0;NA;515;6285;;NA
Presbytis rubicunda;Presbytis rubicunda;Primates;Cercopithecidae;1;0;1;1;0;0;0;0;0;2;NA;NA;NA;0;NA;515;6230;;NA
Presbytis siamensis;Presbytis siamensis;Primates;Cercopithecidae;1;0;1;0;0;0;0;0;0;2;NA;NA;NA;0;NA;515;5895.06;;NA
Presbytis thomasi;Presbytis thomasi;Primates;Cercopithecidae;1;0;1;1;0;0;0;0;0;2;NA;NA;NA;0;NA;515;6730;;NA
Procolobus verus;Procolobus verus;Primates;Cercopithecidae;1;0;1;1;0;0;0;0;0;2;NA;NA;NA;0;NA;460;3600;Frugivore-herbivore;NA
Pygathrix cinerea;Pygathrix cinerea;Primates;Cercopithecidae;1;0;1;0;0;0;0;0;0;2;NA;NA;NA;0;NA;686;NA;;NA
Pygathrix nemaeus;Pygathrix nemaeus;Primates;Cercopithecidae;1;0;1;0;0;0;0;0;0;2;NA;NA;NA;0;NA;503;8310;;Berlin2016June
Pygathrix nigripes;Pygathrix nigripes;Primates;Cercopithecidae;1;0;1;1;0;0;0;0;0;2;NA;NA;NA;0;NA;686;10333.32;;NA
Pygathrix roxellana;Pygathrix roxellana;Primates;Cercopithecidae;1;0;1;0;0;0;0;0;0;2;NA;NA;NA;0;NA;NA;NA;NA;NA
Rhinopithecus avunculus;Rhinopithecus avunculus;Primates;Cercopithecidae;1;0;1;1;0;0;0;0;0;2;NA;NA;NA;0;NA;565;11250;;NA
Rhinopithecus bieti;Rhinopithecus bieti;Primates;Cercopithecidae;1;0;1;1;0;0;0;0;0;2;NA;NA;NA;0;NA;785;9960;;NA
Rhinopithecus brelichi;Rhinopithecus brelichi;Primates;Cercopithecidae;1;0;1;1;0;0;0;0;0;2;NA;NA;NA;0;NA;730;12267.15;;NA
Rhinopithecus roxellana;Rhinopithecus roxellana;Primates;Cercopithecidae;1;0;1;1;0;0;0;0;0;2;NA;NA;NA;0;NA;665;14750;;NA
Semnopithecus ajax;Semnopithecus ajax;Primates;Cercopithecidae;1;0;1;0;0;0;0;0;0;2;NA;NA;NA;0;NA;595;14500;;NA
Semnopithecus dussumieri;Semnopithecus dussumieri;Primates;Cercopithecidae;1;0;1;0;0;0;0;0;0;2;NA;NA;NA;0;NA;595;14500;;NA
Semnopithecus entellus;Semnopithecus entellus;Primates;Cercopithecidae;1;0;1;0;0;0;0;0;0;2;NA;NA;NA;0;NA;595;17200;;NA
Semnopithecus hector;Semnopithecus hector;Primates;Cercopithecidae;1;0;1;0;0;0;0;0;0;2;NA;NA;NA;0;NA;595;14500;;NA
Semnopithecus hypoleucos;Semnopithecus hypoleucos;Primates;Cercopithecidae;1;0;1;0;0;0;0;0;0;2;NA;NA;NA;0;NA;595;10026.65;;NA
Semnopithecus priam;Semnopithecus priam;Primates;Cercopithecidae;1;0;1;0;0;0;0;0;0;2;NA;NA;NA;0;NA;595;14500;;NA
Semnopithecus schistaceus;Semnopithecus schistaceus;Primates;Cercopithecidae;1;0;1;0;0;0;0;0;0;2;NA;NA;NA;0;NA;595;14500;;NA
Simias concolor;Simias concolor;Primates;Cercopithecidae;1;0;1;1;0;0;0;0;0;2;NA;NA;NA;0;NA;487.5;7393.9;;NA
Theropithecus gelada;Theropithecus gelada;Primates;Cercopithecidae;1;0;1;0;1;1;0;0;1;2;NA;NA;NA;1;NA;612.5;12242.33;;Berlin2016June
Trachypithecus auratus;Trachypithecus auratus;Primates;Cercopithecidae;1;0;1;1;0;0;0;0;0;2;NA;NA;NA;0;NA;580;9719.6;;NA
Trachypithecus barbei;Trachypithecus barbei;Primates;Cercopithecidae;1;0;1;0;0;0;0;0;0;2;NA;NA;NA;0;NA;580;9100;;NA
Trachypithecus cristatus;Trachypithecus cristatus;Primates;Cercopithecidae;1;0;1;1;0;0;0;0;0;2;NA;NA;NA;0;NA;531.5;6185;;NA
Trachypithecus delacouri;Trachypithecus delacouri;Primates;Cercopithecidae;1;0;1;0;0;0;0;0;0;2;NA;NA;NA;0;NA;580;9100;;NA
Trachypithecus ebenus;Trachypithecus ebenus;Primates;Cercopithecidae;1;0;1;0;0;0;0;0;0;2;NA;NA;NA;0;NA;580;9100;;NA
Trachypithecus francoisi;Trachypithecus francoisi;Primates;Cercopithecidae;1;0;1;1;0;0;0;0;0;2;NA;NA;NA;0;NA;580;7325;;NA
Trachypithecus geei;Trachypithecus geei;Primates;Cercopithecidae;1;0;1;1;0;0;0;0;0;2;NA;NA;NA;0;NA;580;8100;;NA
Trachypithecus germaini;Trachypithecus germaini;Primates;Cercopithecidae;1;0;1;0;0;0;0;0;0;2;NA;NA;NA;0;NA;580;9100;;NA
Trachypithecus hatinhensis;Trachypithecus hatinhensis;Primates;Cercopithecidae;1;0;1;0;0;0;0;0;0;2;NA;NA;NA;0;NA;580;9100;;NA
Trachypithecus johnii;Trachypithecus johnii;Primates;Cercopithecidae;1;0;1;1;0;0;0;0;0;2;NA;NA;NA;0;NA;580;11600;;NA
Trachypithecus laotum;Trachypithecus laotum;Primates;Cercopithecidae;1;0;1;0;0;0;0;0;0;2;NA;NA;NA;0;NA;580;9100;;NA
Trachypithecus obscurus;Trachypithecus obscurus;Primates;Cercopithecidae;1;0;1;1;0;0;0;0;0;2;NA;NA;NA;0;NA;475;6426;;NA
Trachypithecus phayrei;Trachypithecus phayrei;Primates;Cercopithecidae;1;0;1;1;0;0;0;0;0;2;NA;NA;NA;0;NA;570;7085;;NA
Trachypithecus pileatus;Trachypithecus pileatus;Primates;Cercopithecidae;1;0;1;1;0;0;0;0;0;2;NA;NA;NA;0;NA;580;10930;;NA
Trachypithecus poliocephalus;Trachypithecus poliocephalus;Primates;Cercopithecidae;1;0;1;0;0;0;0;0;0;2;NA;NA;NA;0;NA;580;9100;;NA
Trachypithecus shortridgei;Trachypithecus shortridgei;Primates;Cercopithecidae;1;0;1;0;0;0;0;0;0;2;NA;NA;NA;0;NA;580;9100;;NA
Trachypithecus vetulus;Trachypithecus vetulus;Primates;Cercopithecidae;1;0;1;1;0;0;0;0;0;2;NA;NA;NA;0;NA;575.5;7035;;NA
Allocebus trichotis;Allocebus trichotis;Primates;Cheirogaleidae;1;0;1;0;0;0;0;0;0;2;NA;NA;NA;0;NA;142.5;88;;NA
Cheirogaleus adipicaudatus;Cheirogaleus adipicaudatus;Primates;Cheirogaleidae;1;0;1;0;0;0;0;0;0;2;NA;NA;NA;0;NA;215.5;388.5;Frugivore-granivore;NA
Cheirogaleus crossleyi;Cheirogaleus crossleyi;Primates;Cheirogaleidae;1;0;1;0;0;0;0;0;0;2;NA;NA;NA;0;NA;215.5;388.5;Frugivore-granivore;NA
Cheirogaleus major;Cheirogaleus major;Primates;Cheirogaleidae;1;0;1;0;0;0;0;0;0;2;NA;NA;NA;0;NA;215.5;394.2;Frugivore-granivore;NA
Cheirogaleus medius;Cheirogaleus medius;Primates;Cheirogaleidae;1;0;1;0;0;0;0;0;0;2;NA;NA;NA;0;NA;215.5;197;Frugivore-granivore;NA
Cheirogaleus minusculus;Cheirogaleus minusculus;Primates;Cheirogaleidae;1;0;1;0;0;0;0;0;0;2;NA;NA;NA;0;NA;215.5;388.5;Frugivore-granivore;NA
Cheirogaleus ravus;Cheirogaleus ravus;Primates;Cheirogaleidae;1;0;1;0;0;0;0;0;0;2;NA;NA;NA;0;NA;215.5;388.5;Frugivore-granivore;NA
Cheirogaleus sibreei;Cheirogaleus sibreei;Primates;Cheirogaleidae;1;0;1;0;0;0;0;0;0;2;NA;NA;NA;0;NA;215.5;388.5;Frugivore-granivore;NA
Microcebus berthae;Microcebus berthae;Primates;Cheirogaleidae;1;0;1;0;0;0;0;0;0;2;NA;NA;NA;0;NA;137.5;33.45;;NA
Microcebus griseorufus;Microcebus griseorufus;Primates;Cheirogaleidae;1;0;1;0;0;0;0;0;0;2;NA;NA;NA;0;NA;137.5;70.24;;NA
Microcebus murinus;Microcebus murinus;Primates;Cheirogaleidae;1;0;1;0;0;0;0;0;0;2;NA;NA;NA;0;NA;137.5;71;;NA
Microcebus myoxinus;Microcebus myoxinus;Primates;Cheirogaleidae;1;0;1;0;0;0;0;0;0;2;NA;NA;NA;0;NA;137.5;31.23;;NA
Microcebus ravelobensis;Microcebus ravelobensis;Primates;Cheirogaleidae;1;0;1;0;0;0;0;0;0;2;NA;NA;NA;0;NA;137.5;58.6;;NA
Microcebus rufus;Microcebus rufus;Primates;Cheirogaleidae;1;0;1;0;0;0;0;0;0;2;NA;NA;NA;0;NA;137.5;43;;NA
Microcebus sambiranensis;Microcebus sambiranensis;Primates;Cheirogaleidae;1;0;1;0;0;0;0;0;0;2;NA;NA;NA;0;NA;137.5;49.06;;NA
Microcebus tavaratra;Microcebus tavaratra;Primates;Cheirogaleidae;1;0;1;0;0;0;0;0;0;2;NA;NA;NA;0;NA;137.5;68.01;;NA
Mirza coquereli;Mirza coquereli;Primates;Cheirogaleidae;1;0;1;0;0;0;0;0;0;2;NA;NA;NA;0;NA;250;306.67;;NA
Phaner electromontis;Phaner electromontis;Primates;Cheirogaleidae;1;0;1;0;0;0;0;0;0;2;NA;NA;NA;0;NA;262.5;400;;NA
Phaner furcifer;Phaner furcifer;Primates;Cheirogaleidae;1;0;1;0;0;0;0;0;0;2;NA;NA;NA;0;NA;262.5;400;;NA
Phaner pallescens;Phaner pallescens;Primates;Cheirogaleidae;1;0;1;0;0;0;0;0;0;2;NA;NA;NA;0;NA;262.5;400;;NA
Phaner parienti;Phaner parienti;Primates;Cheirogaleidae;1;0;1;0;0;0;0;0;0;2;NA;NA;NA;0;NA;262.5;400;;NA
Daubentonia madagascariensis;Daubentonia madagascariensis;Primates;Daubentoniidae;1;0;1;0;0;0;0;0;0;2;NA;NA;NA;0;NA;400;2555;Frugivore-granivore;NA
Galago gallarum;Galago gallarum;Primates;Galagidae;1;0;1;0;0;0;0;0;0;3;NA;NA;NA;0;0.2;160;200;Insectivore;NA
Galago senegalensis;Galago senegalensis;Primates;Galagidae;1;0;1;0;0;0;0;0;0;3;NA;NA;NA;0;0.2;131.3;201;Frugivore-omnivore;NA
Galago zanzibaricus;Galago zanzibaricus;Primates;Galagidae;1;0;1;0;0;0;0;0;0;3;NA;NA;NA;0;0.1;152.5;143;Insectivore;NA
Otolemur crassicaudatus;Otolemur crassicaudatus;Primates;Galagidae;1;0;1;0;0;0;0;0;0;3;NA;NA;NA;0;1.5;292;1143.33;Frugivore-omnivore;NA
Otolemur garnettii;Otolemur garnettii;Primates;Galagidae;1;0;1;0;0;0;0;0;0;3;NA;NA;NA;0;0.8;367.5;731.33;;NA
Euoticus elegantulus;Euoticus elegantulus;Primates;Galagidae;1;0;1;0;0;0;0;0;0;3;NA;NA;NA;0;NA;196;280;Frugivore-omnivore;NA
Euoticus pallidus;Euoticus pallidus;Primates;Galagidae;1;0;1;0;0;0;0;0;0;3;NA;NA;NA;0;NA;NA;277.37;;NA
Galago alleni;Galago alleni;Primates;Galagidae;1;0;1;0;0;0;0;0;0;3;NA;NA;NA;0;NA;195;283;Frugivore-granivore;NA
Galago cameronensis;Galago cameronensis;Primates;Galagidae;1;0;1;0;0;0;0;0;0;3;NA;NA;NA;0;NA;160;212.5;Insectivore;NA
Galago demidoff;Galago demidoff;Primates;Galagidae;1;0;1;0;0;0;0;0;0;3;NA;NA;NA;0;NA;130;63;Frugivore-granivore;NA
Galago gabonensis;Galago gabonensis;Primates;Galagidae;1;0;1;0;0;0;0;0;0;3;NA;NA;NA;0;NA;160;212.5;Insectivore;NA
Galago granti;Galago granti;Primates;Galagidae;1;0;1;0;0;0;0;0;0;3;NA;NA;NA;0;NA;160;212.5;Insectivore;NA
Galago matschiei;Galago matschiei;Primates;Galagidae;1;0;1;0;0;0;0;0;0;3;NA;NA;NA;0;NA;177.5;210;Insectivore;NA
Galago moholi;Galago moholi;Primates;Galagidae;1;0;1;0;0;0;0;0;0;3;NA;NA;NA;0;NA;160;180;Frugivore-omnivore;NA
Galago nyasae;Galago nyasae;Primates;Galagidae;1;0;1;0;0;0;0;0;0;3;NA;NA;NA;0;NA;160;212.5;Insectivore;NA
Galago orinus;Galago orinus;Primates;Galagidae;1;0;1;0;0;0;0;0;0;3;NA;NA;NA;0;NA;160;212.5;Insectivore;NA
Galago rondoensis;Galago rondoensis;Primates;Galagidae;1;0;1;0;0;0;0;0;0;3;NA;NA;NA;0;NA;160;212.5;Insectivore;NA
Galago thomasi;Galago thomasi;Primates;Galagidae;1;0;1;0;0;0;0;0;0;3;NA;NA;NA;0;NA;160;117.35;Insectivore;NA
Otolemur monteiri;Otolemur monteiri;Primates;Galagidae;1;0;1;0;0;0;0;0;0;3;NA;NA;NA;0;NA;367.5;1577.16;;NA
Gorilla beringei;Gorilla beringei;Primates;Hominidae;1;0;1;0;0;0;0;0;0;1;NA;NA;NA;0;NA;1500;149325.19;;NA
Gorilla gorilla;Gorilla gorilla;Primates;Hominidae;1;0;1;0;0;0;0;0;0;1;NA;NA;NA;0;NA;1500;101386.11;Frugivore-herbivore;NA
Homo sapiens;Homo sapiens;Primates;Hominidae;1;0;1;0;0;0;0;0;0;1;NA;NA;NA;0;NA;1675;58540.63;;NA
Pan paniscus;Pan paniscus;Primates;Hominidae;1;0;1;0;0;0;0;0;0;1;NA;NA;NA;0;NA;764;32733.33;Frugivore-granivore;NA
Pan troglodytes;Pan troglodytes;Primates;Hominidae;1;0;1;0;0;0;0;0;0;1;NA;NA;NA;0;NA;787.5;37618.18;Frugivore-granivore;NA
Pongo abelii;Pongo abelii;Primates;Hominidae;1;0;1;0;0;0;0;0;0;1;NA;NA;NA;0;NA;1375;39696.12;;NA
Pongo pygmaeus;Pongo pygmaeus;Primates;Hominidae;1;0;1;0;0;0;0;0;0;1;NA;NA;NA;0;NA;1375;37115.6;Herbivore-browser;NA
Bunopithecus hoolock;Bunopithecus hoolock;Primates;Hylobatidae;1;0;1;0;0;0;0;0;0;1;NA;NA;NA;0;NA;NA;6699;;NA
Hylobates agilis;Hylobates agilis;Primates;Hylobatidae;1;0;1;0;0;0;0;0;0;1;NA;NA;NA;0;NA;537.5;5666.67;;NA
Hylobates albibarbis;Hylobates albibarbis;Primates;Hylobatidae;1;0;1;0;0;0;0;0;0;1;NA;NA;NA;0;NA;537.5;6000;;NA
Hylobates concolor;Hylobates concolor;Primates;Hylobatidae;1;0;1;0;0;0;0;0;0;1;NA;NA;NA;0;NA;NA;NA;NA;NA
Hylobates gabriellae;Hylobates gabriellae;Primates;Hylobatidae;1;0;1;0;0;0;0;0;0;1;NA;NA;NA;0;NA;NA;NA;NA;NA
Hylobates klossii;Hylobates klossii;Primates;Hylobatidae;1;0;1;0;0;0;0;0;0;1;NA;NA;NA;0;NA;537.5;5795;;NA
Hylobates lar;Hylobates lar;Primates;Hylobatidae;1;0;1;0;0;0;0;0;0;1;NA;NA;NA;0;NA;525;5540;Frugivore-granivore;NA
Hylobates leucogenys;Hylobates leucogenys;Primates;Hylobatidae;1;0;1;0;0;0;0;0;0;1;NA;NA;NA;0;NA;NA;NA;NA;NA
Hylobates moloch;Hylobates moloch;Primates;Hylobatidae;1;0;1;0;0;0;0;0;0;1;NA;NA;NA;0;NA;500;6415;;NA
Hylobates muelleri;Hylobates muelleri;Primates;Hylobatidae;1;0;1;0;0;0;0;0;0;1;NA;NA;NA;0;NA;537.5;5530;;NA
Hylobates pileatus;Hylobates pileatus;Primates;Hylobatidae;1;0;1;0;0;0;0;0;0;1;NA;NA;NA;0;NA;537.5;5470;;NA
Nomascus concolor;Nomascus concolor;Primates;Hylobatidae;1;0;1;0;0;0;0;0;0;1;NA;NA;NA;0;NA;492.5;6389.67;;NA
Nomascus gabriellae;Nomascus gabriellae;Primates;Hylobatidae;1;0;1;0;0;0;0;0;0;1;NA;NA;NA;0;NA;NA;NA;;NA
Nomascus hainanus;Nomascus hainanus;Primates;Hylobatidae;1;0;1;0;0;0;0;0;0;1;NA;NA;NA;0;NA;NA;NA;;NA
Nomascus leucogenys;Nomascus leucogenys;Primates;Hylobatidae;1;0;1;0;0;0;0;0;0;1;NA;NA;NA;0;NA;NA;7365;;NA
Nomascus siki;Nomascus siki;Primates;Hylobatidae;1;0;1;0;0;0;0;0;0;1;NA;NA;NA;0;NA;NA;NA;;NA
Symphalangus syndactylus;Symphalangus syndactylus;Primates;Hylobatidae;1;0;1;0;0;0;0;0;0;1;NA;NA;NA;0;NA;825;10500;Herbivore-browser;NA
Avahi laniger;Avahi laniger;Primates;Indridae;1;2;1;0;0;0;0;0;0;2;NA;NA;NA;0;NA;375;1175;Herbivore-browser;Berlin2016June
Avahi occidentalis;Avahi occidentalis;Primates;Indridae;1;2;1;0;0;0;0;0;0;2;NA;NA;NA;0;NA;375;828.98;;Espoo2016July
Avahi unicolor;Avahi unicolor;Primates;Indridae;1;2;1;0;0;0;0;0;0;2;NA;NA;NA;0;NA;375;900;;Espoo2016July
Indri indri;Indri indri;Primates;Indridae;1;1;1;0;0;0;0;0;0;2;NA;NA;NA;0;NA;755;7918;Herbivore-browser;Berlin2016June
Propithecus coquereli;Propithecus coquereli;Primates;Indridae;1;1;1;1;0;0;0;0;0;2;NA;NA;NA;0;NA;500;4189.27;Herbivore-browser;NA
Propithecus deckenii;Propithecus deckenii;Primates;Indridae;1;1;1;1;0;0;0;0;0;2;NA;NA;NA;0;NA;500;5000;Herbivore-browser;NA
Propithecus diadema;Propithecus diadema;Primates;Indridae;1;1;1;1;0;0;0;0;0;2;NA;NA;NA;0;NA;500;6100;Herbivore-browser;NA
Propithecus edwardsi;Propithecus edwardsi;Primates;Indridae;1;1;1;1;0;0;0;0;0;2;NA;NA;NA;0;NA;500;6573.27;Herbivore-browser;NA
Propithecus perrieri;Propithecus perrieri;Primates;Indridae;1;1;1;1;0;0;0;0;0;2;NA;NA;NA;0;NA;500;5000;Herbivore-browser;NA
Propithecus tattersalli;Propithecus tattersalli;Primates;Indridae;1;1;1;1;0;0;0;0;0;2;NA;NA;NA;0;NA;500;3490;Herbivore-browser;NA
Propithecus verreauxi;Propithecus verreauxi;Primates;Indridae;1;1;1;1;0;0;0;0;0;2;NA;NA;NA;0;NA;500;3657.13;Herbivore-browser;NA
Eulemur albifrons;Eulemur albifrons;Primates;Lemuridae;1;0;1;1;1;0;0;0;0;2;NA;NA;NA;0;NA;375;2500;;Berlin2016June
Eulemur albocollaris;Eulemur albocollaris;Primates;Lemuridae;1;0;1;1;1;0;0;0;0;2;NA;NA;NA;0;NA;375;2397.37;;Berlin2016June
Eulemur cinereiceps;Eulemur cinereiceps;Primates;Lemuridae;1;0;1;1;1;0;0;0;0;2;NA;NA;NA;0;NA;375;2500;;Espoo2016July
Eulemur collaris;Eulemur collaris;Primates;Lemuridae;1;0;1;1;1;0;0;0;0;2;NA;NA;NA;0;NA;375;2500;;Berlin2016June
Eulemur coronatus;Eulemur coronatus;Primates;Lemuridae;1;0;1;1;1;0;0;0;0;2;NA;NA;NA;0;NA;375;1389.25;;Berlin2016June
Eulemur fulvus;Eulemur fulvus;Primates;Lemuridae;1;0;1;1;1;0;0;0;0;2;NA;NA;NA;0;NA;440;2107;;Berlin2016June
Eulemur macaco;Eulemur macaco;Primates;Lemuridae;1;0;1;1;1;0;0;0;0;2;NA;NA;NA;0;NA;375;2130;;Berlin2016June
Eulemur mongoz;Eulemur mongoz;Primates;Lemuridae;1;0;1;1;1;0;0;0;0;2;NA;NA;NA;0;NA;375;1553;;Berlin2016June
Eulemur rubriventer;Eulemur rubriventer;Primates;Lemuridae;1;0;1;1;1;0;0;0;0;2;NA;NA;NA;0;NA;375;1960;;Berlin2016June
Eulemur rufus;Eulemur rufus;Primates;Lemuridae;1;0;1;1;1;0;0;0;0;2;NA;NA;NA;0;NA;375;2206;;Berlin2016June
Eulemur sanfordi;Eulemur sanfordi;Primates;Lemuridae;1;0;1;1;1;0;0;0;0;2;NA;NA;NA;0;NA;375;2394.03;;Espoo2016July
Hapalemur alaotrensis;Hapalemur alaotrensis;Primates;Lemuridae;1;0;1;1;1;0;0;0;0;2;NA;NA;NA;0;NA;359;1616.83;Herbivore-browser;Espoo2016July
Hapalemur aureus;Hapalemur aureus;Primates;Lemuridae;1;0;1;1;1;0;0;0;0;2;NA;NA;NA;0;NA;359;1455;Herbivore-browser;Berlin2016June
Hapalemur griseus;Hapalemur griseus;Primates;Lemuridae;1;0;1;1;0;0;0;0;0;2;NA;NA;NA;0;NA;359;1202.71;Herbivore-browser;Berlin2016June
Hapalemur occidentalis;Hapalemur occidentalis;Primates;Lemuridae;1;0;1;1;1;0;0;0;0;2;NA;NA;NA;0;NA;359;1750;Herbivore-browser;Berlin2016June
Lemur catta;Lemur catta;Primates;Lemuridae;1;0;1;0;0;0;0;0;0;2;NA;NA;NA;0;NA;420;2300;Herbivore-browser;NA
Prolemur simus;Prolemur simus;Primates;Lemuridae;1;0;1;0;0;0;0;0;0;2;NA;NA;NA;0;NA;NA;1725;;NA
Varecia rubra;Varecia rubra;Primates;Lemuridae;1;0;1;1;1;0;0;0;0;2;NA;NA;NA;0;NA;NA;3872.6;Frugivore-granivore;NA
Varecia variegata;Varecia variegata;Primates;Lemuridae;1;0;1;1;1;0;0;0;0;2;NA;NA;NA;0;NA;535;3431.43;Frugivore-granivore;NA
Lepilemur ankaranensis;Lepilemur ankaranensis;Primates;Megaladapidae;1;1;1;1;1;0;0;0;0;3;NA;NA;NA;0;NA;325;700;Herbivore-browser;Espoo2016July
Arctocebus calabarensis;Arctocebus calabarensis;Primates;Lorisidae;1;0;1;0;0;0;0;0;0;2;NA;NA;NA;0;NA;267;309;Frugivore-omnivore;NA
Loris lydekkerianus;Loris lydekkerianus;Primates;Lorisidae;1;0;1;0;0;0;0;0;0;2;NA;NA;NA;0;NA;219.5;254.06;;NA
Loris tardigradus;Loris tardigradus;Primates;Lorisidae;1;0;1;0;0;0;0;0;0;2;NA;NA;NA;0;NA;219.5;237;Insectivore;NA
Nycticebus bengalensis;Nycticebus bengalensis;Primates;Lorisidae;1;0;1;0;0;0;0;0;0;2;NA;NA;NA;0;NA;NA;1137.36;;NA
Nycticebus coucang;Nycticebus coucang;Primates;Lorisidae;1;0;1;0;0;0;0;0;0;2;NA;NA;NA;0;NA;322.5;966.2;Insectivore;NA
Nycticebus pygmaeus;Nycticebus pygmaeus;Primates;Lorisidae;1;0;1;0;0;0;0;0;0;2;NA;NA;NA;0;NA;195;307;;NA
Arctocebus aureus;Arctocebus aureus;Primates;Lorisidae;1;0;1;0;0;0;0;0;0;2;NA;NA;NA;0;NA;267;210;;NA
Perodicticus potto;Perodicticus potto;Primates;Lorisidae;1;0;1;0;0;0;0;0;0;2;NA;NA;NA;0;1.1;347.5;1054;Frugivore-granivore;NA
Lepilemur dorsalis;Lepilemur dorsalis;Primates;Megaladapidae;1;1;1;1;1;0;0;0;0;3;NA;NA;NA;0;NA;325;500;Herbivore-browser;Espoo2016July
Lepilemur edwardsi;Lepilemur edwardsi;Primates;Megaladapidae;1;1;1;1;1;0;0;0;0;3;NA;NA;NA;0;NA;325;921;Herbivore-browser;Espoo2016July
Lepilemur leucopus;Lepilemur leucopus;Primates;Megaladapidae;1;1;1;1;1;0;0;0;0;3;NA;NA;NA;0;NA;325;606;Herbivore-browser;Berlin2016June
Lepilemur microdon;Lepilemur microdon;Primates;Megaladapidae;1;1;1;1;1;0;0;0;0;3;NA;NA;NA;0;NA;325;970;Herbivore-browser;Espoo2016July
Lepilemur mustelinus;Lepilemur mustelinus;Primates;Megaladapidae;1;1;1;1;1;0;0;0;0;3;NA;NA;NA;0;NA;325;650;Herbivore-browser;Berlin2016June
Lepilemur ruficaudatus;Lepilemur ruficaudatus;Primates;Megaladapidae;1;1;1;1;1;0;0;0;0;3;NA;NA;NA;0;NA;325;770;Herbivore-browser;Berlin2016June
Lepilemur septentrionalis;Lepilemur septentrionalis;Primates;Megaladapidae;1;1;1;1;1;0;0;0;0;3;NA;NA;NA;0;NA;325;750;Herbivore-browser;Espoo2016July
Callicebus bernhardi;Callicebus bernhardi;Primates;Pitheciidae;1;0;1;0;0;0;0;0;0;2;NA;NA;NA;0;NA;425;950;Frugivore-herbivore;NA
Callicebus caligatus;Callicebus caligatus;Primates;Pitheciidae;1;0;1;0;0;0;0;0;0;2;NA;NA;NA;0;NA;425;880;Frugivore-herbivore;NA
Callicebus discolor;Callicebus discolor;Primates;Pitheciidae;1;0;1;0;0;0;0;0;0;2;NA;NA;NA;0;NA;425;NA;;NA
Callicebus dubius;Callicebus dubius;Primates;Pitheciidae;1;0;1;0;0;0;0;0;0;2;NA;NA;NA;0;NA;425;1000;Frugivore-herbivore;NA
Callicebus lucifer;Callicebus lucifer;Primates;Pitheciidae;1;0;1;0;0;0;0;0;0;2;NA;NA;NA;0;NA;425;1500;Frugivore-granivore;NA
Callicebus lugens;Callicebus lugens;Primates;Pitheciidae;1;0;1;0;0;0;0;0;0;2;NA;NA;NA;0;NA;425;1400;Frugivore-granivore;NA
Callicebus pallescens;Callicebus pallescens;Primates;Pitheciidae;1;0;1;0;0;0;0;0;0;2;NA;NA;NA;0;NA;425;1000;Frugivore-herbivore;NA
Callicebus purinus;Callicebus purinus;Primates;Pitheciidae;1;0;1;0;0;0;0;0;0;2;NA;NA;NA;0;NA;425;1300;Frugivore-granivore;NA
Callicebus regulus;Callicebus regulus;Primates;Pitheciidae;1;0;1;0;0;0;0;0;0;2;NA;NA;NA;0;NA;425;1300;Frugivore-granivore;NA
Callicebus stephennashi;Callicebus stephennashi;Primates;Pitheciidae;1;0;1;0;0;0;0;0;0;2;NA;NA;NA;0;NA;425;725;Frugivore-herbivore;NA
Chiropotes chiropotes;Chiropotes chiropotes;Primates;Pitheciidae;1;0;1;0;0;0;0;0;0;2;NA;NA;NA;0;NA;419;3000;Frugivore-granivore;NA
Chiropotes israelita;Chiropotes israelita;Primates;Pitheciidae;1;0;1;0;0;0;0;0;0;2;NA;NA;NA;0;NA;419;3000;;NA
Chiropotes utahickae;Chiropotes utahickae;Primates;Pitheciidae;1;0;1;0;0;0;0;0;0;2;NA;NA;NA;0;NA;419;2950;Frugivore-granivore;NA
Tarsius bancanus;Tarsius bancanus;Primates;Tarsiidae;1;0;1;0;0;0;0;0;0;3;NA;NA;NA;0;NA;300;123;Insectivore;NA
Tarsius dentatus;Tarsius dentatus;Primates;Tarsiidae;1;0;1;0;0;0;0;0;0;3;NA;NA;NA;0;NA;122.5;106;Insectivore;NA
Tarsius pelengensis;Tarsius pelengensis;Primates;Tarsiidae;1;0;1;0;0;0;0;0;0;3;NA;NA;NA;0;NA;122.5;165;Insectivore;NA
Tarsius pumilus;Tarsius pumilus;Primates;Tarsiidae;1;0;1;0;0;0;0;0;0;3;NA;NA;NA;0;NA;122.5;122.5;Insectivore;NA
Tarsius sangirensis;Tarsius sangirensis;Primates;Tarsiidae;1;0;1;0;0;0;0;0;0;3;NA;NA;NA;0;NA;122.5;165;Insectivore;NA
Tarsius syrichta;Tarsius syrichta;Primates;Tarsiidae;1;0;1;0;0;0;0;0;0;3;NA;NA;NA;0;NA;122.5;113;Insectivore;NA
Tarsius tarsier;Tarsius tarsier;Primates;Tarsiidae;1;0;1;0;0;0;0;0;0;3;NA;NA;NA;0;NA;122.5;179.6;Insectivore;NA
Elephas maximus;Elephas maximus;Proboscidea;Elephantidae;3;0;3;0;1;0;1;1;0;1;NA;NA;3;0;NA;5950;3178000;Herbivore-browser;NA
Loxodonta africana;Loxodonta africana;Proboscidea;Elephantidae;3;0;3;0;1;0;1;1;0;1;NA;NA;3;0;3940;6750;3507000;Herbivore-Mixed-Feeder;NA
Loxodonta cyclotis;Loxodonta cyclotis;Proboscidea;Elephantidae;3;0;3;0;1;0;1;1;0;1;NA;NA;3;0;NA;6750;4750000.01;Herbivore-Mixed-Feeder;NA
