"","Syncerus caffer (forest)","Syncerus caffer (plains)","Tragelaphus euryceros","Tragelaphus scriptus","Tragelaphus spekei","Tragelaphus imberbis","Tragelaphus angasi","Tragelaphus strepsiceros","Taurotragus derbianus","Taurotragus oryx","Tragelaphus buxtoni","Oreotragus oreotragus","Madoqua kirki","Madoqua saltiana","Madoqua guentheri","Raphicerus sharpie","Raphicerus melanotis","Raphicerus campestris","Neotragus pygmaeus","Neotragus batesi","Nesotragus moschatus","Dorcatragus megalotis","Ourebia ourebi","Gazella leptoceros","Gazella granti","Gazella thomsoni","Gazella spekei","Gazella rufifrons","Gazella dorcas","Gazella pelzeni","Gazella soemmeringi","Gazella dama","Antidorcas marsupialis","Ammodorcas clarkei","Litocranius walleri","Oryx dammah","Oryx gazella","Oryx beisa","Addax nasomaculatus","Hippotragus niger","Hippotragus equinas","Damaliscus dorcas","Damaliscus lunatus","Damaliscus korrigum","Beatragus hunteri","Alcelaphus buselaphus","Alcelaphus caama","Alcelaphus lichtensteini","Connochaetes taurinus","Connochaetes gnou","Aepyceros melampus","Sylvicapra grimmia","Cephalophus monticola","Cephalophus natalensis","Cephalophus nigrifrons","Cephalophus rufilatus","Cephalophus zebra","Cephalophus leucogaster","Cephalophus jentinki","Cephalophus dorsalis","Cephalophus spadix","Cephalophus silvicultor","Cephalophus niger","Cephalophus ogilbyi","Cephalophus callipygus","Pelea capreolus","Kobus megaceros","Kobus leche","Kobus ellipsiprymnus","Kobus defassa","Kobus kob","Kobus vardoni","Redunca fulvorufula","Redunca arundinum","Redunca redunca"
"Syncerus caffer (forest)",22,21,4,4,4,4,4,4,4,4,4,0,0,0,0,0,0,0,0,0,0,0,0,0,0,0,0,0,0,0,0,0,0,0,0,0,0,0,0,0,0,0,0,0,0,0,0,0,0,0,0,0,0,0,0,0,0,0,0,0,0,0,0,0,0,0,0,0,0,0,0,0,0,0,0
"Syncerus caffer (plains)",21,22,4,4,4,4,4,4,4,4,4,0,0,0,0,0,0,0,0,0,0,0,0,0,0,0,0,0,0,0,0,0,0,0,0,0,0,0,0,0,0,0,0,0,0,0,0,0,0,0,0,0,0,0,0,0,0,0,0,0,0,0,0,0,0,0,0,0,0,0,0,0,0,0,0
"Tragelaphus euryceros",4,4,22,17,13,13,13,13,13,13,13,0,0,0,0,0,0,0,0,0,0,0,0,0,0,0,0,0,0,0,0,0,0,0,0,0,0,0,0,0,0,0,0,0,0,0,0,0,0,0,0,0,0,0,0,0,0,0,0,0,0,0,0,0,0,0,0,0,0,0,0,0,0,0,0
"Tragelaphus scriptus",4,4,17,22,13,13,13,13,13,13,13,0,0,0,0,0,0,0,0,0,0,0,0,0,0,0,0,0,0,0,0,0,0,0,0,0,0,0,0,0,0,0,0,0,0,0,0,0,0,0,0,0,0,0,0,0,0,0,0,0,0,0,0,0,0,0,0,0,0,0,0,0,0,0,0
"Tragelaphus spekei",4,4,13,13,22,14,14,14,14,14,14,0,0,0,0,0,0,0,0,0,0,0,0,0,0,0,0,0,0,0,0,0,0,0,0,0,0,0,0,0,0,0,0,0,0,0,0,0,0,0,0,0,0,0,0,0,0,0,0,0,0,0,0,0,0,0,0,0,0,0,0,0,0,0,0
"Tragelaphus imberbis",4,4,13,13,14,22,16,16,16,16,15,0,0,0,0,0,0,0,0,0,0,0,0,0,0,0,0,0,0,0,0,0,0,0,0,0,0,0,0,0,0,0,0,0,0,0,0,0,0,0,0,0,0,0,0,0,0,0,0,0,0,0,0,0,0,0,0,0,0,0,0,0,0,0,0
"Tragelaphus angasi",4,4,13,13,14,16,22,17,17,17,15,0,0,0,0,0,0,0,0,0,0,0,0,0,0,0,0,0,0,0,0,0,0,0,0,0,0,0,0,0,0,0,0,0,0,0,0,0,0,0,0,0,0,0,0,0,0,0,0,0,0,0,0,0,0,0,0,0,0,0,0,0,0,0,0
"Tragelaphus strepsiceros",4,4,13,13,14,16,17,22,18,18,15,0,0,0,0,0,0,0,0,0,0,0,0,0,0,0,0,0,0,0,0,0,0,0,0,0,0,0,0,0,0,0,0,0,0,0,0,0,0,0,0,0,0,0,0,0,0,0,0,0,0,0,0,0,0,0,0,0,0,0,0,0,0,0,0
"Taurotragus derbianus",4,4,13,13,14,16,17,18,22,20,15,0,0,0,0,0,0,0,0,0,0,0,0,0,0,0,0,0,0,0,0,0,0,0,0,0,0,0,0,0,0,0,0,0,0,0,0,0,0,0,0,0,0,0,0,0,0,0,0,0,0,0,0,0,0,0,0,0,0,0,0,0,0,0,0
"Taurotragus oryx",4,4,13,13,14,16,17,18,20,22,15,0,0,0,0,0,0,0,0,0,0,0,0,0,0,0,0,0,0,0,0,0,0,0,0,0,0,0,0,0,0,0,0,0,0,0,0,0,0,0,0,0,0,0,0,0,0,0,0,0,0,0,0,0,0,0,0,0,0,0,0,0,0,0,0
"Tragelaphus buxtoni",4,4,13,13,14,15,15,15,15,15,22,0,0,0,0,0,0,0,0,0,0,0,0,0,0,0,0,0,0,0,0,0,0,0,0,0,0,0,0,0,0,0,0,0,0,0,0,0,0,0,0,0,0,0,0,0,0,0,0,0,0,0,0,0,0,0,0,0,0,0,0,0,0,0,0
"Oreotragus oreotragus",0,0,0,0,0,0,0,0,0,0,0,22,17,17,17,17,17,17,17,17,17,12,12,12,12,12,12,12,12,12,12,12,12,12,12,4,4,4,4,4,4,4,4,4,4,4,4,4,4,4,4,2,2,2,2,2,2,2,2,2,2,2,2,2,2,2,2,2,2,2,2,2,2,2,2
"Madoqua kirki",0,0,0,0,0,0,0,0,0,0,0,17,22,20,20,18,18,18,18,18,18,12,12,12,12,12,12,12,12,12,12,12,12,12,12,4,4,4,4,4,4,4,4,4,4,4,4,4,4,4,4,2,2,2,2,2,2,2,2,2,2,2,2,2,2,2,2,2,2,2,2,2,2,2,2
"Madoqua saltiana",0,0,0,0,0,0,0,0,0,0,0,17,20,22,21,18,18,18,18,18,18,12,12,12,12,12,12,12,12,12,12,12,12,12,12,4,4,4,4,4,4,4,4,4,4,4,4,4,4,4,4,2,2,2,2,2,2,2,2,2,2,2,2,2,2,2,2,2,2,2,2,2,2,2,2
"Madoqua guentheri",0,0,0,0,0,0,0,0,0,0,0,17,20,21,22,18,18,18,18,18,18,12,12,12,12,12,12,12,12,12,12,12,12,12,12,4,4,4,4,4,4,4,4,4,4,4,4,4,4,4,4,2,2,2,2,2,2,2,2,2,2,2,2,2,2,2,2,2,2,2,2,2,2,2,2
"Raphicerus sharpie",0,0,0,0,0,0,0,0,0,0,0,17,18,18,18,22,20,20,19,19,19,12,12,12,12,12,12,12,12,12,12,12,12,12,12,4,4,4,4,4,4,4,4,4,4,4,4,4,4,4,4,2,2,2,2,2,2,2,2,2,2,2,2,2,2,2,2,2,2,2,2,2,2,2,2
"Raphicerus melanotis",0,0,0,0,0,0,0,0,0,0,0,17,18,18,18,20,22,21,19,19,19,12,12,12,12,12,12,12,12,12,12,12,12,12,12,4,4,4,4,4,4,4,4,4,4,4,4,4,4,4,4,2,2,2,2,2,2,2,2,2,2,2,2,2,2,2,2,2,2,2,2,2,2,2,2
"Raphicerus campestris",0,0,0,0,0,0,0,0,0,0,0,17,18,18,18,20,21,22,19,19,19,12,12,12,12,12,12,12,12,12,12,12,12,12,12,4,4,4,4,4,4,4,4,4,4,4,4,4,4,4,4,2,2,2,2,2,2,2,2,2,2,2,2,2,2,2,2,2,2,2,2,2,2,2,2
"Neotragus pygmaeus",0,0,0,0,0,0,0,0,0,0,0,17,18,18,18,19,19,19,22,21,20,12,12,12,12,12,12,12,12,12,12,12,12,12,12,4,4,4,4,4,4,4,4,4,4,4,4,4,4,4,4,2,2,2,2,2,2,2,2,2,2,2,2,2,2,2,2,2,2,2,2,2,2,2,2
"Neotragus batesi",0,0,0,0,0,0,0,0,0,0,0,17,18,18,18,19,19,19,21,22,20,12,12,12,12,12,12,12,12,12,12,12,12,12,12,4,4,4,4,4,4,4,4,4,4,4,4,4,4,4,4,2,2,2,2,2,2,2,2,2,2,2,2,2,2,2,2,2,2,2,2,2,2,2,2
"Nesotragus moschatus",0,0,0,0,0,0,0,0,0,0,0,17,18,18,18,19,19,19,20,20,22,12,12,12,12,12,12,12,12,12,12,12,12,12,12,4,4,4,4,4,4,4,4,4,4,4,4,4,4,4,4,2,2,2,2,2,2,2,2,2,2,2,2,2,2,2,2,2,2,2,2,2,2,2,2
"Dorcatragus megalotis",0,0,0,0,0,0,0,0,0,0,0,12,12,12,12,12,12,12,12,12,12,22,16,16,16,16,16,16,16,16,16,16,16,16,15,4,4,4,4,4,4,4,4,4,4,4,4,4,4,4,4,2,2,2,2,2,2,2,2,2,2,2,2,2,2,2,2,2,2,2,2,2,2,2,2
"Ourebia ourebi",0,0,0,0,0,0,0,0,0,0,0,12,12,12,12,12,12,12,12,12,12,16,22,18,18,18,18,18,18,18,18,18,17,17,15,4,4,4,4,4,4,4,4,4,4,4,4,4,4,4,4,2,2,2,2,2,2,2,2,2,2,2,2,2,2,2,2,2,2,2,2,2,2,2,2
"Gazella leptoceros",0,0,0,0,0,0,0,0,0,0,0,12,12,12,12,12,12,12,12,12,12,16,18,22,20,20,20,20,19,19,18,18,17,17,15,4,4,4,4,4,4,4,4,4,4,4,4,4,4,4,4,2,2,2,2,2,2,2,2,2,2,2,2,2,2,2,2,2,2,2,2,2,2,2,2
"Gazella granti",0,0,0,0,0,0,0,0,0,0,0,12,12,12,12,12,12,12,12,12,12,16,18,20,22,20,20,20,19,19,18,18,17,17,15,4,4,4,4,4,4,4,4,4,4,4,4,4,4,4,4,2,2,2,2,2,2,2,2,2,2,2,2,2,2,2,2,2,2,2,2,2,2,2,2
"Gazella thomsoni",0,0,0,0,0,0,0,0,0,0,0,12,12,12,12,12,12,12,12,12,12,16,18,20,20,22,20.5,20.5,19,19,18,18,17,17,15,4,4,4,4,4,4,4,4,4,4,4,4,4,4,4,4,2,2,2,2,2,2,2,2,2,2,2,2,2,2,2,2,2,2,2,2,2,2,2,2
"Gazella spekei",0,0,0,0,0,0,0,0,0,0,0,12,12,12,12,12,12,12,12,12,12,16,18,20,20,20.5,22,21,19,19,18,18,17,17,15,4,4,4,4,4,4,4,4,4,4,4,4,4,4,4,4,2,2,2,2,2,2,2,2,2,2,2,2,2,2,2,2,2,2,2,2,2,2,2,2
"Gazella rufifrons",0,0,0,0,0,0,0,0,0,0,0,12,12,12,12,12,12,12,12,12,12,16,18,20,20,20.5,21,22,19,19,18,18,17,17,15,4,4,4,4,4,4,4,4,4,4,4,4,4,4,4,4,2,2,2,2,2,2,2,2,2,2,2,2,2,2,2,2,2,2,2,2,2,2,2,2
"Gazella dorcas",0,0,0,0,0,0,0,0,0,0,0,12,12,12,12,12,12,12,12,12,12,16,18,19,19,19,19,19,22,21,18,18,17,17,15,4,4,4,4,4,4,4,4,4,4,4,4,4,4,4,4,2,2,2,2,2,2,2,2,2,2,2,2,2,2,2,2,2,2,2,2,2,2,2,2
"Gazella pelzeni",0,0,0,0,0,0,0,0,0,0,0,12,12,12,12,12,12,12,12,12,12,16,18,19,19,19,19,19,21,22,18,18,17,17,15,4,4,4,4,4,4,4,4,4,4,4,4,4,4,4,4,2,2,2,2,2,2,2,2,2,2,2,2,2,2,2,2,2,2,2,2,2,2,2,2
"Gazella soemmeringi",0,0,0,0,0,0,0,0,0,0,0,12,12,12,12,12,12,12,12,12,12,16,18,18,18,18,18,18,18,18,22,19,17,17,15,4,4,4,4,4,4,4,4,4,4,4,4,4,4,4,4,2,2,2,2,2,2,2,2,2,2,2,2,2,2,2,2,2,2,2,2,2,2,2,2
"Gazella dama",0,0,0,0,0,0,0,0,0,0,0,12,12,12,12,12,12,12,12,12,12,16,18,18,18,18,18,18,18,18,19,22,17,17,15,4,4,4,4,4,4,4,4,4,4,4,4,4,4,4,4,2,2,2,2,2,2,2,2,2,2,2,2,2,2,2,2,2,2,2,2,2,2,2,2
"Antidorcas marsupialis",0,0,0,0,0,0,0,0,0,0,0,12,12,12,12,12,12,12,12,12,12,16,17,17,17,17,17,17,17,17,17,17,22,18,15,4,4,4,4,4,4,4,4,4,4,4,4,4,4,4,4,2,2,2,2,2,2,2,2,2,2,2,2,2,2,2,2,2,2,2,2,2,2,2,2
"Ammodorcas clarkei",0,0,0,0,0,0,0,0,0,0,0,12,12,12,12,12,12,12,12,12,12,16,17,17,17,17,17,17,17,17,17,17,18,22,15,4,4,4,4,4,4,4,4,4,4,4,4,4,4,4,4,2,2,2,2,2,2,2,2,2,2,2,2,2,2,2,2,2,2,2,2,2,2,2,2
"Litocranius walleri",0,0,0,0,0,0,0,0,0,0,0,12,12,12,12,12,12,12,12,12,12,15,15,15,15,15,15,15,15,15,15,15,15,15,22,4,4,4,4,4,4,4,4,4,4,4,4,4,4,4,4,2,2,2,2,2,2,2,2,2,2,2,2,2,2,2,2,2,2,2,2,2,2,2,2
"Oryx dammah",0,0,0,0,0,0,0,0,0,0,0,4,4,4,4,4,4,4,4,4,4,4,4,4,4,4,4,4,4,4,4,4,4,4,4,22,20,20,19,18,18,17,17,17,17,17,17,17,17,17,6,2,2,2,2,2,2,2,2,2,2,2,2,2,2,2,2,2,2,2,2,2,2,2,2
"Oryx gazella",0,0,0,0,0,0,0,0,0,0,0,4,4,4,4,4,4,4,4,4,4,4,4,4,4,4,4,4,4,4,4,4,4,4,4,20,22,21,19,18,18,17,17,17,17,17,17,17,17,17,6,2,2,2,2,2,2,2,2,2,2,2,2,2,2,2,2,2,2,2,2,2,2,2,2
"Oryx beisa",0,0,0,0,0,0,0,0,0,0,0,4,4,4,4,4,4,4,4,4,4,4,4,4,4,4,4,4,4,4,4,4,4,4,4,20,21,22,19,18,18,17,17,17,17,17,17,17,17,17,6,2,2,2,2,2,2,2,2,2,2,2,2,2,2,2,2,2,2,2,2,2,2,2,2
"Addax nasomaculatus",0,0,0,0,0,0,0,0,0,0,0,4,4,4,4,4,4,4,4,4,4,4,4,4,4,4,4,4,4,4,4,4,4,4,4,19,19,19,22,18,18,17,17,17,17,17,17,17,17,17,6,2,2,2,2,2,2,2,2,2,2,2,2,2,2,2,2,2,2,2,2,2,2,2,2
"Hippotragus niger",0,0,0,0,0,0,0,0,0,0,0,4,4,4,4,4,4,4,4,4,4,4,4,4,4,4,4,4,4,4,4,4,4,4,4,18,18,18,18,22,19.5,17,17,17,17,17,17,17,17,17,6,2,2,2,2,2,2,2,2,2,2,2,2,2,2,2,2,2,2,2,2,2,2,2,2
"Hippotragus equinas",0,0,0,0,0,0,0,0,0,0,0,4,4,4,4,4,4,4,4,4,4,4,4,4,4,4,4,4,4,4,4,4,4,4,4,18,18,18,18,19.5,22,17,17,17,17,17,17,17,17,17,6,2,2,2,2,2,2,2,2,2,2,2,2,2,2,2,2,2,2,2,2,2,2,2,2
"Damaliscus dorcas",0,0,0,0,0,0,0,0,0,0,0,4,4,4,4,4,4,4,4,4,4,4,4,4,4,4,4,4,4,4,4,4,4,4,4,17,17,17,17,17,17,22,21,21,20,18,18,18,18,18,6,2,2,2,2,2,2,2,2,2,2,2,2,2,2,2,2,2,2,2,2,2,2,2,2
"Damaliscus lunatus",0,0,0,0,0,0,0,0,0,0,0,4,4,4,4,4,4,4,4,4,4,4,4,4,4,4,4,4,4,4,4,4,4,4,4,17,17,17,17,17,17,21,22,21.5,20,18,18,18,18,18,6,2,2,2,2,2,2,2,2,2,2,2,2,2,2,2,2,2,2,2,2,2,2,2,2
"Damaliscus korrigum",0,0,0,0,0,0,0,0,0,0,0,4,4,4,4,4,4,4,4,4,4,4,4,4,4,4,4,4,4,4,4,4,4,4,4,17,17,17,17,17,17,21,21.5,22,20,18,18,18,18,18,6,2,2,2,2,2,2,2,2,2,2,2,2,2,2,2,2,2,2,2,2,2,2,2,2
"Beatragus hunteri",0,0,0,0,0,0,0,0,0,0,0,4,4,4,4,4,4,4,4,4,4,4,4,4,4,4,4,4,4,4,4,4,4,4,4,17,17,17,17,17,17,20,20,20,22,18,18,18,18,18,6,2,2,2,2,2,2,2,2,2,2,2,2,2,2,2,2,2,2,2,2,2,2,2,2
"Alcelaphus buselaphus",0,0,0,0,0,0,0,0,0,0,0,4,4,4,4,4,4,4,4,4,4,4,4,4,4,4,4,4,4,4,4,4,4,4,4,17,17,17,17,17,17,18,18,18,18,22,21.5,19.5,19.5,19.5,6,2,2,2,2,2,2,2,2,2,2,2,2,2,2,2,2,2,2,2,2,2,2,2,2
"Alcelaphus caama",0,0,0,0,0,0,0,0,0,0,0,4,4,4,4,4,4,4,4,4,4,4,4,4,4,4,4,4,4,4,4,4,4,4,4,17,17,17,17,17,17,18,18,18,18,21.5,22,19.5,19.5,19.5,6,2,2,2,2,2,2,2,2,2,2,2,2,2,2,2,2,2,2,2,2,2,2,2,2
"Alcelaphus lichtensteini",0,0,0,0,0,0,0,0,0,0,0,4,4,4,4,4,4,4,4,4,4,4,4,4,4,4,4,4,4,4,4,4,4,4,4,17,17,17,17,17,17,18,18,18,18,19.5,19.5,22,20,20,6,2,2,2,2,2,2,2,2,2,2,2,2,2,2,2,2,2,2,2,2,2,2,2,2
"Connochaetes taurinus",0,0,0,0,0,0,0,0,0,0,0,4,4,4,4,4,4,4,4,4,4,4,4,4,4,4,4,4,4,4,4,4,4,4,4,17,17,17,17,17,17,18,18,18,18,19.5,19.5,20,22,21,6,2,2,2,2,2,2,2,2,2,2,2,2,2,2,2,2,2,2,2,2,2,2,2,2
"Connochaetes gnou",0,0,0,0,0,0,0,0,0,0,0,4,4,4,4,4,4,4,4,4,4,4,4,4,4,4,4,4,4,4,4,4,4,4,4,17,17,17,17,17,17,18,18,18,18,19.5,19.5,20,21,22,6,2,2,2,2,2,2,2,2,2,2,2,2,2,2,2,2,2,2,2,2,2,2,2,2
"Aepyceros melampus",0,0,0,0,0,0,0,0,0,0,0,4,4,4,4,4,4,4,4,4,4,4,4,4,4,4,4,4,4,4,4,4,4,4,4,6,6,6,6,6,6,6,6,6,6,6,6,6,6,6,22,2,2,2,2,2,2,2,2,2,2,2,2,2,2,2,2,2,2,2,2,2,2,2,2
"Sylvicapra grimmia",0,0,0,0,0,0,0,0,0,0,0,2,2,2,2,2,2,2,2,2,2,2,2,2,2,2,2,2,2,2,2,2,2,2,2,2,2,2,2,2,2,2,2,2,2,2,2,2,2,2,2,22,20,19,19,19,18,18,18,18,18,18,18,18,18,6,6,6,6,6,6,6,6,6,6
"Cephalophus monticola",0,0,0,0,0,0,0,0,0,0,0,2,2,2,2,2,2,2,2,2,2,2,2,2,2,2,2,2,2,2,2,2,2,2,2,2,2,2,2,2,2,2,2,2,2,2,2,2,2,2,2,20,22,19,19,19,18,18,18,18,18,18,18,18,18,6,6,6,6,6,6,6,6,6,6
"Cephalophus natalensis",0,0,0,0,0,0,0,0,0,0,0,2,2,2,2,2,2,2,2,2,2,2,2,2,2,2,2,2,2,2,2,2,2,2,2,2,2,2,2,2,2,2,2,2,2,2,2,2,2,2,2,19,19,22,21,21,18,18,18,18,18,18,18,18,18,6,6,6,6,6,6,6,6,6,6
"Cephalophus nigrifrons",0,0,0,0,0,0,0,0,0,0,0,2,2,2,2,2,2,2,2,2,2,2,2,2,2,2,2,2,2,2,2,2,2,2,2,2,2,2,2,2,2,2,2,2,2,2,2,2,2,2,2,19,19,21,22,21,18,18,18,18,18,18,18,18,18,6,6,6,6,6,6,6,6,6,6
"Cephalophus rufilatus",0,0,0,0,0,0,0,0,0,0,0,2,2,2,2,2,2,2,2,2,2,2,2,2,2,2,2,2,2,2,2,2,2,2,2,2,2,2,2,2,2,2,2,2,2,2,2,2,2,2,2,19,19,21,21,22,18,18,18,18,18,18,18,18,18,6,6,6,6,6,6,6,6,6,6
"Cephalophus zebra",0,0,0,0,0,0,0,0,0,0,0,2,2,2,2,2,2,2,2,2,2,2,2,2,2,2,2,2,2,2,2,2,2,2,2,2,2,2,2,2,2,2,2,2,2,2,2,2,2,2,2,18,18,18,18,18,22,21,19.5,19.5,19.5,19.5,19,19,19,6,6,6,6,6,6,6,6,6,6
"Cephalophus leucogaster",0,0,0,0,0,0,0,0,0,0,0,2,2,2,2,2,2,2,2,2,2,2,2,2,2,2,2,2,2,2,2,2,2,2,2,2,2,2,2,2,2,2,2,2,2,2,2,2,2,2,2,18,18,18,18,18,21,22,19.5,19.5,19.5,19.5,19,19,19,6,6,6,6,6,6,6,6,6,6
"Cephalophus jentinki",0,0,0,0,0,0,0,0,0,0,0,2,2,2,2,2,2,2,2,2,2,2,2,2,2,2,2,2,2,2,2,2,2,2,2,2,2,2,2,2,2,2,2,2,2,2,2,2,2,2,2,18,18,18,18,18,19.5,19.5,22,20,20,20,19,19,19,6,6,6,6,6,6,6,6,6,6
"Cephalophus dorsalis",0,0,0,0,0,0,0,0,0,0,0,2,2,2,2,2,2,2,2,2,2,2,2,2,2,2,2,2,2,2,2,2,2,2,2,2,2,2,2,2,2,2,2,2,2,2,2,2,2,2,2,18,18,18,18,18,19.5,19.5,20,22,20.5,20.5,19,19,19,6,6,6,6,6,6,6,6,6,6
"Cephalophus spadix",0,0,0,0,0,0,0,0,0,0,0,2,2,2,2,2,2,2,2,2,2,2,2,2,2,2,2,2,2,2,2,2,2,2,2,2,2,2,2,2,2,2,2,2,2,2,2,2,2,2,2,18,18,18,18,18,19.5,19.5,20,20.5,22,21,19,19,19,6,6,6,6,6,6,6,6,6,6
"Cephalophus silvicultor",0,0,0,0,0,0,0,0,0,0,0,2,2,2,2,2,2,2,2,2,2,2,2,2,2,2,2,2,2,2,2,2,2,2,2,2,2,2,2,2,2,2,2,2,2,2,2,2,2,2,2,18,18,18,18,18,19.5,19.5,20,20.5,21,22,19,19,19,6,6,6,6,6,6,6,6,6,6
"Cephalophus niger",0,0,0,0,0,0,0,0,0,0,0,2,2,2,2,2,2,2,2,2,2,2,2,2,2,2,2,2,2,2,2,2,2,2,2,2,2,2,2,2,2,2,2,2,2,2,2,2,2,2,2,18,18,18,18,18,19,19,19,19,19,19,22,20,20,6,6,6,6,6,6,6,6,6,6
"Cephalophus ogilbyi",0,0,0,0,0,0,0,0,0,0,0,2,2,2,2,2,2,2,2,2,2,2,2,2,2,2,2,2,2,2,2,2,2,2,2,2,2,2,2,2,2,2,2,2,2,2,2,2,2,2,2,18,18,18,18,18,19,19,19,19,19,19,20,22,21,6,6,6,6,6,6,6,6,6,6
"Cephalophus callipygus",0,0,0,0,0,0,0,0,0,0,0,2,2,2,2,2,2,2,2,2,2,2,2,2,2,2,2,2,2,2,2,2,2,2,2,2,2,2,2,2,2,2,2,2,2,2,2,2,2,2,2,18,18,18,18,18,19,19,19,19,19,19,20,21,22,6,6,6,6,6,6,6,6,6,6
"Pelea capreolus",0,0,0,0,0,0,0,0,0,0,0,2,2,2,2,2,2,2,2,2,2,2,2,2,2,2,2,2,2,2,2,2,2,2,2,2,2,2,2,2,2,2,2,2,2,2,2,2,2,2,2,6,6,6,6,6,6,6,6,6,6,6,6,6,6,22,8,8,8,8,8,8,8,8,8
"Kobus megaceros",0,0,0,0,0,0,0,0,0,0,0,2,2,2,2,2,2,2,2,2,2,2,2,2,2,2,2,2,2,2,2,2,2,2,2,2,2,2,2,2,2,2,2,2,2,2,2,2,2,2,2,6,6,6,6,6,6,6,6,6,6,6,6,6,6,8,22,21,20,20,19,19,17,17,17
"Kobus leche",0,0,0,0,0,0,0,0,0,0,0,2,2,2,2,2,2,2,2,2,2,2,2,2,2,2,2,2,2,2,2,2,2,2,2,2,2,2,2,2,2,2,2,2,2,2,2,2,2,2,2,6,6,6,6,6,6,6,6,6,6,6,6,6,6,8,21,22,20,20,19,19,17,17,17
"Kobus ellipsiprymnus",0,0,0,0,0,0,0,0,0,0,0,2,2,2,2,2,2,2,2,2,2,2,2,2,2,2,2,2,2,2,2,2,2,2,2,2,2,2,2,2,2,2,2,2,2,2,2,2,2,2,2,6,6,6,6,6,6,6,6,6,6,6,6,6,6,8,20,20,22,21.5,19,19,17,17,17
"Kobus defassa",0,0,0,0,0,0,0,0,0,0,0,2,2,2,2,2,2,2,2,2,2,2,2,2,2,2,2,2,2,2,2,2,2,2,2,2,2,2,2,2,2,2,2,2,2,2,2,2,2,2,2,6,6,6,6,6,6,6,6,6,6,6,6,6,6,8,20,20,21.5,22,19,19,17,17,17
"Kobus kob",0,0,0,0,0,0,0,0,0,0,0,2,2,2,2,2,2,2,2,2,2,2,2,2,2,2,2,2,2,2,2,2,2,2,2,2,2,2,2,2,2,2,2,2,2,2,2,2,2,2,2,6,6,6,6,6,6,6,6,6,6,6,6,6,6,8,19,19,19,19,22,21,17,17,17
"Kobus vardoni",0,0,0,0,0,0,0,0,0,0,0,2,2,2,2,2,2,2,2,2,2,2,2,2,2,2,2,2,2,2,2,2,2,2,2,2,2,2,2,2,2,2,2,2,2,2,2,2,2,2,2,6,6,6,6,6,6,6,6,6,6,6,6,6,6,8,19,19,19,19,21,22,17,17,17
"Redunca fulvorufula",0,0,0,0,0,0,0,0,0,0,0,2,2,2,2,2,2,2,2,2,2,2,2,2,2,2,2,2,2,2,2,2,2,2,2,2,2,2,2,2,2,2,2,2,2,2,2,2,2,2,2,6,6,6,6,6,6,6,6,6,6,6,6,6,6,8,17,17,17,17,17,17,22,20,20
"Redunca arundinum",0,0,0,0,0,0,0,0,0,0,0,2,2,2,2,2,2,2,2,2,2,2,2,2,2,2,2,2,2,2,2,2,2,2,2,2,2,2,2,2,2,2,2,2,2,2,2,2,2,2,2,6,6,6,6,6,6,6,6,6,6,6,6,6,6,8,17,17,17,17,17,17,20,22,21
"Redunca redunca",0,0,0,0,0,0,0,0,0,0,0,2,2,2,2,2,2,2,2,2,2,2,2,2,2,2,2,2,2,2,2,2,2,2,2,2,2,2,2,2,2,2,2,2,2,2,2,2,2,2,2,6,6,6,6,6,6,6,6,6,6,6,6,6,6,8,17,17,17,17,17,17,20,21,22
